  40
        -54.69019094
 C         -2.3649599234        0.6249050173        2.2885115724
 C         -2.4768778584       -0.6120209424        1.4091101188
 H         -1.3911525815        1.0813677941        2.1398363800
 H         -3.1434639580        1.3517720937        2.0693199586
 H         -2.4572559706        0.3306901359        3.3310055527
 H         -3.4967831789       -1.0321955588        1.4764026400
 H         -1.7830204650       -1.3601343644        1.7963749729
 N         -2.0963869042       -0.3665994082        0.0245749272
 C         -2.0120182334       -1.5980560205       -0.7358752749
 C         -2.8519929075        0.6776927444       -0.6429132485
 H         -2.4115945357        0.8080785070       -1.6366485216
 H         -2.6913843577        1.6041977262       -0.0892994168
 C         -4.3577860152        0.4280079589       -0.7909851897
 H         -4.8414150791        0.3820433457        0.1812880202
 H         -4.5455871594       -0.5056622221       -1.3170430613
 H         -4.8072003554        1.2393763730       -1.3581227384
 H         -2.2301727926       -1.3921719832       -1.7870371163
 H         -2.7283802470       -2.3578239191       -0.3811114512
 C         -0.6086634725       -2.1859705488       -0.6525577611
 S          0.6051119105       -1.0396036326       -1.3763731819
 H         -0.5355548309       -3.1111875127       -1.2222579816
 H         -0.3068280446       -2.3537073530        0.3793582244
 P          0.9945633664        0.0624334589        0.3752450836
 O          0.2629918438        1.4643264594        0.2506798158
 O          2.5449733392        0.4944931739        0.2117236713
 C          0.3750942917        2.2775212539       -0.9087765954
 C          3.5406008727       -0.3354589409        0.7899368546
 O          0.7169430306       -0.6511101223        1.6176418640
 H         -0.5757906960        2.8142206037       -0.9798250573
 H          0.4931937495        1.6414080543       -1.7931740131
 C          1.5331311495        3.2555621479       -0.8026264587
 H          2.4725290816        2.7141392384       -0.7435063909
 H          1.4241456730        3.8644535124        0.0912475731
 H          1.5449193380        3.9025828310       -1.6759647004
 H          4.4208677764        0.3055266545        0.8936639484
 C          3.8510040594       -1.5467071388       -0.0728180358
 H          3.2039155958       -0.6537404193        1.7816677354
 H          4.7016936524       -2.0819288889        0.3404882329
 H          4.0814673673       -1.2353643837       -1.0888190686
 H          2.9929747543       -2.2138753106       -0.1009492061
