  8
 
 C          1.5260695443        0.2915921575        0.0000714129
 O          1.4777606097        1.4681088291       -0.0000136890
 O          0.4934949542       -0.5815186498        0.0001134792
 Cl         2.9776699670       -0.6373207773        0.0000134952
 C         -0.8054107305       -0.1124395347        0.0000086666
 Cl        -1.1406960252        0.8627784070        1.4505264390
 Cl        -1.1405583552        0.8627261710       -1.4505959863
 Cl        -1.8301627809       -1.5489829732       -0.0000161116
           8
        -30.61287303
 C          1.5261275548        0.2923860386       -0.0001686900
 O          1.4771020885        1.4688493014       -0.0002035571
 O          0.4936317656       -0.5813347437       -0.0003390831
 Cl         2.9774214518       -0.6376108287       -0.0000353351
 C         -0.8049969385       -0.1125916616       -0.0001757683
 Cl        -1.1407947875        0.8629827994       -1.4498381467
 Cl        -1.8299294327       -1.5491153629       -0.0002766619
 Cl        -1.1403688266        0.8623096439        1.4505117268
