  8
        -30.61287304
 C          1.5260956374        0.2925323818       -0.0003550605
 O          1.4772620541        1.4689695907       -0.0002410968
 O          0.4937042545       -0.5812175600       -0.0007206143
 Cl         2.9775247705       -0.6375921444       -0.0002691697
 C         -0.8049233255       -0.1126574169       -0.0000587342
 Cl        -1.1415761525        0.8626185575       -1.4499568492
 Cl        -1.8298444531       -1.5490447607        0.0002699584
 Cl        -1.1398947890        0.8624501294        1.4505302542
  8
        -30.60893515
 C          1.7295573756        0.4427377985       -0.3335968151
 O          2.6450780102        0.9743077978       -0.8457630550
 O          0.4601685172        0.6798083779       -0.7219297889
 Cl         1.9098283996       -0.6969383183        0.9685785978
 C         -0.6867545826        0.1316060911       -0.2138115990
 Cl        -2.0012015412        0.8565059873       -1.1567116184
 Cl        -0.7394623970       -1.6367610994       -0.4235875422
 Cl        -0.9238025919        0.5361359514        1.5046511285
