  8 
 
  C       0.9066    0.1221   -0.1130
  O       0.4333    1.1262   -0.5296
  O       0.2539   -0.9886    0.3471
  Cl      2.6311   -0.2037    0.0208
  C      -1.1518   -1.0286    0.3641
  Cl     -1.8291    0.2437    1.4304
  Cl     -1.8293   -0.8878   -1.2900
  Cl     -1.5286   -2.6418    1.0350
