8
 energy: -30.612872611320 gnorm: 0.000470046680 xtb: 6.6.1 (8d0f1dd)
C            0.89180755402872        0.10920176206888       -0.10838865764103
O            0.41028229211315        1.10148572080440       -0.52073706180263
O            0.25704485578652       -0.99338830900938        0.34976439510351
Cl           2.58449126156665       -0.18984919042440        0.01576215782367
C           -1.12318239259559       -1.03637686723497        0.36753886075958
Cl          -1.79644673314027        0.24149285503734        1.40736200503991
Cl          -1.79635276896563       -0.87159246015995       -1.27173344318430
Cl          -1.54156195118317       -2.61946023519321        1.02524655527929
