  38
        -66.90555828
 O         -0.6613181791       -2.3100265786       -0.2439555933
 O          1.5229422938       -2.7055470999       -0.4150604818
 O         -2.8888350755        1.0466627229        0.6051459950
 O         -2.8282436644       -0.7527903058       -0.7707118715
 N          0.9276795273        0.5218977815       -1.2148883584
 N          2.1881206163       -0.4059322499        0.5809265095
 N          0.7849713702        0.1893202088        2.2511378378
 N          0.4645156543        2.4330243666        0.0186671640
 N          1.7454489841        2.6168591242       -1.8837105084
 N          2.9889466368       -0.3486227422        2.8190945528
 N         -4.3210831243       -0.6120195476        0.9194556048
 C          0.8865661731       -0.3644158054       -0.0772938818
 C         -0.0229207276        0.1920464506        1.0550123458
 C          0.5237579832       -1.7681708517       -0.7188924338
 C          0.5219218780       -1.4937332319       -2.2415278615
 C          1.3086045289       -0.1952260643       -2.4051926472
 C         -0.4917438289        1.6342053376        0.7448962028
 C          1.0458205524        1.8653827284       -0.9669807654
 C          1.9658185112       -0.1664637108        1.9290570479
 C         -1.7938248758        1.6500434841       -0.0763517590
 C         -3.2955035694       -0.1515654798        0.1757963810
 H         -0.8979808776       -0.4442339729        1.2269087507
 H         -0.5089170536       -1.3575784411       -2.5675332408
 H          0.9652383435       -2.3330773689       -2.7714817134
 H          2.3889572735       -0.4003768482       -2.4411871784
 H          1.0169993226        0.3704987264       -3.2908530918
 H         -0.6720994596        2.1281763761        1.7052069918
 H          2.7944908909       -1.1716626559        0.3188023078
 H         -1.6330406414        1.1396972988       -1.0305547906
 H         -2.0729800231        2.6899685056       -0.2599838590
 H         -1.4322541331       -1.8025163531       -0.5620781301
 H          1.1459591257       -3.2995463343        0.2453956050
 H          1.8654926970        3.5711304171       -1.5808895039
 H          2.5783300890        2.1909214146       -2.2605861441
 H          3.9148458887       -0.1954218689        2.4515162493
 H          2.8158236245        0.0852155514        3.7122460878
 H         -4.6948258706       -1.5239973912        0.7299768376
 H         -4.6344064509       -0.0905850543        1.7178811879
