   27.023475 ,         4.673869944095043749
   28.018724 ,         4.709125449895213755
   28.026829 ,         0.099614736685684283
   28.029751 ,         0.001337110622034777
   29.015758 ,         0.017400130655316058
   29.022078 ,         0.052487206150623099
   29.025000 ,         0.000956051108152908
   29.030183 ,         0.000477539483051298
   29.033105 ,         0.000095507896610260
   29.039125 ,         0.062995360476003265
   30.019112 ,         0.000286815332445873
   30.042479 ,         0.001443055342136571
   30.045401 ,         0.000029660655616440
   31.045833 ,         0.000010316749290082
   31.048755 ,         0.000001289593661260
   41.026549 ,         0.107610277695519133
   42.021798 ,         0.701967770285876536
   42.023583 ,         0.000423862399056075
   42.029903 ,         0.002293713861743273
   42.032825 ,         0.000030906634870758
   42.034374 ,         4.684707749624383410
   43.018832 ,         0.004817888375479140
   43.025152 ,         0.007848725899895369
   43.026937 ,         0.000008830466647002
   43.028074 ,         0.000142964041039824
   43.029623 ,        22.659314087048514352
   43.031408 ,         0.017305901500897638
   43.033257 ,         0.000011038083308752
   43.036179 ,         0.000002207616661750
   43.037728 ,         0.102585537756928469
   43.040650 ,         0.001730590206052878
   44.013638 ,        75.349559481045673692
   44.022186 ,         0.000042889212311947
   44.026214 ,         4.477021011698326447
   44.026657 ,         0.160112048252662981
   44.032977 ,         0.242705863798465177
   44.034762 ,         0.000288431689349831
   44.035899 ,         0.006921270201868380
   44.041082 ,         0.000480719482249718
   44.044004 ,         0.000096143896449944
   44.997653 ,        17.672176673664921509
   45.010672 ,         0.279015669086990992
   45.016992 ,         0.841646148108014081
   45.017855 ,         0.019929690649070787
   45.019914 ,         0.015330530839499467
   45.029568 ,         0.097900995592376194
   45.030011 ,         0.001845671919541258
   45.030431 ,         0.001284549209235617
   45.032490 ,         0.001651563249943089
   46.001007 ,         0.176495771859081468
   46.001870 ,         0.011838130886541521
   46.003929 ,         0.003587312192125217
   46.014026 ,         0.004599159251849842
   46.017883 ,         0.142573937365066572
   46.030459 ,         0.008991844331130388
   46.032922 ,         0.000458767550884339
   46.033785 ,         0.000091753510176868
   46.035844 ,         0.000091753510176868
   47.001898 ,         0.071387515102899382
   47.013303 ,         0.040176078100490828
   47.033813 ,         0.000183507020353736
   48.005252 ,         0.001076193657637565
   48.016657 ,         0.000430938955117635
   48.017520 ,         0.000024485168336297
   48.019579 ,         0.000012242584168149
   49.017548 ,         0.000163234455575315
   50.020902 ,         0.000001632344436984
   53.026549 ,         4.899066651030795860
   54.021798 ,         3.166364090356252881
   54.023583 ,         0.018291474048865386
   54.029903 ,         0.160253633938649914
   54.032825 ,         0.001422670266236983
   55.018832 ,         0.022491158600812942
   55.025152 ,         0.069233653194488945
   55.026937 ,         0.000304857898349831
   55.028074 ,         0.000651917631666574
   55.029623 ,        21.651146668967864883
   55.033257 ,         0.001524289602655814
   55.036179 ,         0.000101619299449944
   56.022186 ,         0.000391150578999945
   56.026657 ,         0.166293507064827928
   56.028506 ,         0.000456342365883228
   56.032977 ,         0.462322711510787632
   56.035899 ,         0.006241579525831657
   56.037448 ,         8.776141587851455483
   57.030011 ,         0.002674962514907037
   57.034482 ,         0.067084547464111396
   57.036331 ,         0.002229135429089197
   57.039253 ,         0.000445827085817839
   57.040802 ,         0.192393415011728242
   57.043724 ,         0.003254775869306336
   58.037836 ,         0.001084925245913944
   58.044156 ,         0.000904104371594953
   58.047078 ,         0.000180820874318991
   59.013303 ,         0.031838353481808968
   60.016657 ,         0.000677926458071105
   60.017520 ,         0.000020265882228592
   60.019579 ,         0.000009152334063124
   60.021128 ,         2.254270613744746576
   61.017548 ,         0.000133362574180351
   61.020011 ,         0.000003268690566953
   61.020874 ,         0.000000653738113391
   61.022933 ,         0.000000653738113391
   61.024482 ,         0.049358182480610947
   61.025345 ,         0.001342764778804588
   61.027404 ,         0.000833440230767889
   62.020902 ,         0.000003268690566953
   62.025373 ,         0.008843726720958348
   62.027836 ,         0.000231511165855161
   62.028699 ,         0.000092604466342064
   62.030758 ,         0.000046302233171032
   63.028727 ,         0.000092604466342064
   67.029623 ,         8.661012297859201681
   68.013638 ,         4.506195084028353115
   68.024872 ,         3.538105705626871433
   68.026657 ,         0.066552413140497452
   68.032977 ,         0.283524116121332548
   68.035899 ,         0.002525023923569722
   68.037448 ,         4.209130546929904071
   69.010672 ,         0.017799569618985576
   69.016992 ,         0.146143828337599840
   69.017855 ,         0.001311547247998164
   69.019914 ,         0.000843137506832736
   69.021906 ,         0.038533968850408516
   69.028226 ,         0.077579774583776642
   69.030011 ,         0.001442870738480794
   69.031148 ,         0.000731194825065777
   69.032697 ,         6.572360653036332323
   69.034482 ,         0.033793120159811972
   69.036331 ,         0.002705382831493987
   69.039253 ,         0.000180358842310099
   69.040802 ,         0.141316690249848109
   69.043724 ,         0.001492163749638709
   69.045273 ,        60.732449578724747141
   70.014026 ,         0.000562091648500962
   70.017883 ,         0.009180830599661977
   70.020346 ,         0.001686275013665472
   70.021209 ,         0.000093681941416827
   70.023268 ,         0.000093681941416827
   70.025260 ,         0.000511836404146757
   70.029731 ,         0.076492310991407908
   70.031516 ,         0.000087774336335682
   70.031580 ,         0.000511836404146757
   70.036051 ,         0.140349123537934273
   70.037836 ,         0.001228840772563782
   70.038973 ,         0.001902117898777671
   70.040522 ,         4.342828706207447986
   70.042307 ,         0.487978805271275740
   70.044156 ,         0.001492163749638709
   70.047078 ,         0.000175548672671364
   70.048627 ,         2.083732932473796762
   70.051549 ,         0.029151981379486505
   70.053098 ,         9.297386733441117102
   71.021237 ,         0.000187363882833654
   71.033085 ,         0.001358655571373189
   71.037556 ,         0.051304574232572918
   71.039341 ,         0.003802432173413440
   71.039405 ,         0.000679327785686595
   71.042327 ,         0.000135865557137319
   71.043876 ,         0.095151563701988101
   71.045661 ,         0.015209728693653758
   71.046798 ,         0.001617307044355276
   71.048347 ,         4.501543283658724803
   71.050132 ,         0.068475819540330995
   71.051981 ,         0.020279638258205009
   71.054903 ,         0.001267477391137813
   71.056452 ,         0.321622971738510177
   71.059374 ,         0.005043544647663698
   72.032362 ,         4.648300125888123802
   72.034590 ,         0.000089850387721140
   72.040910 ,         0.000988354297619918
   72.045381 ,         0.053626439267831970
   72.047166 ,         0.000581947443060330
   72.047230 ,         0.000449251938605698
   72.050152 ,         0.000089850387721140
   72.051701 ,         0.103615609714204401
   72.053486 ,         0.002521772323831849
   72.054623 ,         0.002145057614142422
   72.059806 ,         0.003103719696321762
   72.062728 ,         0.000193982481020110
   73.028953 ,         6.258961954854578735
   73.029396 ,         0.035541135069121176
   73.035716 ,         0.101916608420852858
   73.036579 ,         0.002017199541354482
   73.038638 ,         0.001729028218241415
   73.042415 ,         0.000652843624645869
   73.048735 ,         0.000746106960819259
   73.055055 ,         0.000746106960819259
   73.056840 ,         0.000193982481020110
   73.057977 ,         0.000093263370102407
   74.024202 ,         5.679523030019329788
   74.032307 ,         0.214622027061395521
   74.032750 ,         0.000576342716116887
   74.033170 ,         0.004300259284113747
   74.035229 ,         0.002997150387154758
   74.036607 ,         0.011815026484139859
   74.036778 ,        16.561262683869173884
   74.039070 ,         0.000480285596764072
   74.041992 ,         0.000096057119352814
   75.021236 ,         0.021090382620012640
   75.027556 ,         0.124550432873503744
   75.028419 ,         0.004218076660404958
   75.030478 ,         0.002109038330202479
   75.032027 ,         4.412393150446274781
   75.033198 ,         0.031013989775500100
   75.033641 ,         0.000096057119352814
   75.035661 ,         0.002084974083432548
   75.036524 ,         0.000130310880214534
   75.038583 ,         0.000130310880214534
   75.039961 ,         0.000288171358058443
   75.040132 ,         0.572575763089238188
   75.040995 ,         0.012065111771639903
   75.043054 ,         0.008962654802907337
   75.044603 ,         0.029684070109732272
   76.024590 ,         0.000351506374158493
   76.028447 ,         0.025425628284932555
   76.029061 ,         0.017145424443415665
   76.030910 ,         0.000585843956930823
   76.031773 ,         0.000117168791386164
   76.033832 ,         0.000117168791386164
   76.035381 ,         0.101504565112112075
   76.036244 ,         0.003100768244757636
   76.036552 ,         0.001042487041716274
   76.037415 ,         0.000130310880214534
   76.038303 ,         0.002097578573158681
   76.041023 ,         0.071011806216677964
   76.043486 ,         0.005515479724364523
   76.044349 ,         0.000344717482772783
   76.046408 ,         0.000344717482772783
   76.047957 ,         0.001010342838862697
   76.048820 ,         0.000022850051939618
   76.050879 ,         0.000017909500217467
   77.031801 ,         0.000351506374158493
   77.032415 ,         0.000273597192211904
   77.036272 ,         0.021887776969497647
   77.037443 ,         0.000130310880214534
   77.038735 ,         0.000729592512565078
   77.041657 ,         0.000091199064070635
   77.044377 ,         0.003102457470362537
   77.048848 ,         0.000119808381508860
   77.051311 ,         0.000016056793546331
   77.052174 ,         0.000000617568965269
   77.054233 ,         0.000000617568965269
   78.033306 ,         0.000273597192211904
   78.039626 ,         0.000273597192211904
   78.040489 ,         0.000091199064070635
   78.045268 ,         0.000344717482772783
   78.047731 ,         0.000344717482772783
   78.052202 ,         0.000005558120912090
   78.054665 ,         0.000000617568965269
   79.040517 ,         0.000091199064070635
   81.008887 ,         0.068031802270131073
   81.021463 ,         3.865968589878222339
   81.032697 ,         4.415882018992299152
   81.045273 ,         4.478462105056581599
   82.005921 ,         0.000482052612890734
   82.012241 ,         0.002150805243988809
   82.013104 ,         0.000021267027767476
   82.015163 ,         0.000014178017480064
   82.018497 ,         0.015137999849056460
   82.024817 ,         0.172052323330543488
   82.025680 ,         0.001709129038138726
   82.027739 ,         0.001058032272984337
   82.029288 ,         4.237885435742063223
   82.029731 ,         0.052356762992671481
   82.036051 ,         0.144512060337653098
   82.038973 ,         0.001292759644763758
   82.040522 ,        15.935758834382060201
   82.042307 ,         0.033264796486432401
   82.048627 ,         0.206581942348713604
   82.051549 ,         0.002173552074401865
   82.053098 ,         4.549624181877100604
   83.009275 ,         0.000015595819743864
   83.013132 ,         0.000137526772135587
   83.015595 ,         0.000032609441751527
   83.021851 ,         0.000569709699118544
   83.025708 ,         0.009603677700545597
   83.026322 ,         0.017226813727485656
   83.026765 ,         0.000092339969826970
   83.028171 ,         0.002278838796474177
   83.031093 ,         0.000162774191288597
   83.032642 ,         0.190209010856066063
   83.033085 ,         0.001385099648183814
   83.033505 ,         0.001249613446488159
   83.035564 ,         0.001517387710061467
   83.035771 ,         0.014453983498028750
   83.037556 ,         0.187475586187923093
   83.039341 ,         0.000283506778860352
   83.039405 ,         0.001385099648183814
   83.042327 ,         0.000092339969826970
   83.043876 ,         0.535072647363638354
   83.045661 ,         0.001323031703441087
   83.046798 ,         0.005670969714871277
   83.048347 ,         0.091230174020727237
   83.050132 ,         0.032444520491877141
   83.051981 ,         0.002835067994881854
   83.054903 ,         0.000094502259620117
   83.056452 ,         0.209257566956643548
   83.059374 ,         0.002399742830033424
   84.016486 ,         0.000004253405244019
   84.022742 ,         0.000081387095644299
   84.029062 ,         0.000651096765154389
   84.029676 ,         0.000981839117971034
   84.031525 ,         0.000081387095644299
   84.032362 ,         5.011415640186553055
   84.032805 ,         0.000228323434893451
   84.033533 ,         0.009996907571905272
   84.034590 ,         0.002335105248098788
   84.035996 ,         0.002767001156549626
   84.038918 ,         0.000178516197363478
   84.039125 ,         0.000307831584077012
   84.040910 ,         0.006671728933544978
   84.042047 ,         0.000004200431127558
   84.045381 ,         0.001056661151009511
   84.047166 ,         0.000095989706217166
   84.047230 ,         0.005337383146835983
   84.049015 ,         0.000094502259620117
   84.050152 ,         0.000667172893354498
   84.051701 ,         0.003135589425455215
   84.053486 ,         0.001535835299474663
   84.054623 ,         0.000043947931536262
   84.056172 ,         4.593242835209736974
   84.059806 ,         0.003839588248686658
   84.062728 ,         0.000191979412434333
   85.029396 ,         0.039818047372741007
   85.029839 ,         0.000000300030779233
   85.030567 ,         0.000267774296045216
   85.035716 ,         0.168388432482217798
   85.036159 ,         0.000005100523356105
   85.036579 ,         0.001466980707125526
   85.036887 ,         0.000624806723244080
   85.038638 ,         0.001781333661337685
   85.040187 ,         8.063345575907154839
   85.042415 ,         0.000011464677248048
   85.042479 ,         0.000001500153896163
   85.044264 ,         0.000333586446677249
   85.045401 ,         0.000000300030779233
   85.048735 ,         0.000028661695205532
   85.053206 ,         0.050300805007970177
   85.055055 ,         0.000030572472661460
   85.057977 ,         0.000001910779541341
   85.059526 ,         0.158788976837237500
   85.062448 ,         0.002500613746747281
   85.063160 ,         0.000095989706217166
   86.026430 ,         0.000104784330777492
   86.032750 ,         0.001466980707125526
   86.036607 ,         0.011945413479912192
   86.037221 ,         0.064605274334147506
   86.039070 ,         0.001781333661337685
   86.041992 ,         0.000209568661554984
   86.043541 ,         0.276976120863166031
   86.044404 ,         0.003711007896358552
   86.046463 ,         0.003879690129253230
   86.050240 ,         0.000384709796425996
   86.056560 ,         0.001923548982129981
   86.062880 ,         0.001538839185703985
   86.065802 ,         0.000096177449106499
   87.033641 ,         0.000523921653887461
   87.034255 ,         0.000506046514585380
   87.039961 ,         0.000314352992332476
   87.040575 ,         0.002024186058341518
   87.044432 ,         0.015518760517012922
   87.046895 ,         0.002698914744455357
   87.049817 ,         0.000168682171528460
   87.059914 ,         0.000096177449106499
   88.041466 ,         0.000337364343056920
   88.047786 ,         0.000337364343056920
   95.048347 ,         4.506906478082775891
   96.032362 ,         4.548916943498585219
   96.045381 ,         0.049726774348089739
   96.051701 ,         0.207878902804561561
   96.054623 ,         0.002195231891673102
   96.056172 ,         4.238385674531525815
   97.029396 ,         0.035765250501200108
   97.035716 ,         0.203919617319136159
   97.036579 ,         0.001922862922650183
   97.038638 ,         0.001634433519229330
   97.042415 ,         0.000381779441305250
   97.048735 ,         0.002099786996624151
   97.051421 ,         9.933811969785784513
   97.053206 ,         0.043867641275777643
   97.055055 ,         0.002863346018125206
   97.057977 ,         0.000095444860326312
   97.059526 ,         0.194937393692692529
   97.062448 ,         0.002242722061407339
   97.063997 ,         0.010538833294447776
   98.026430 ,         0.000288429438397528
   98.032750 ,         0.002115149284868549
   98.036607 ,         0.008652883221879173
   98.039070 ,         0.002884294593835317
   98.039933 ,         0.000192286292265018
   98.041992 ,         0.000192286292265018
   98.048455 ,         0.150762244162929132
   98.050240 ,         0.000089708875929114
   98.052089 ,         0.000095444860326312
   98.054775 ,         0.341825204302427410
   98.056560 ,         0.002063304244277312
   98.057697 ,         0.004802675455610171
   98.061031 ,         0.000108790256969866
   98.062880 ,         0.003498646259143131
   98.065802 ,         0.000179417751858227
   98.067351 ,         0.000476403228974647
   98.070273 ,         0.000006242064211681
   98.071822 ,         1.962912852308201117
   99.019451 ,         4.588860149106476882
   99.033641 ,         0.000192286292265018
   99.036104 ,         0.000096143146132509
   99.039961 ,         0.000384572584530037
   99.045489 ,         0.001879307773766527
   99.051809 ,         0.003967427589920760
   99.058129 ,         0.003340991462757644
   99.059914 ,         0.000089708875929114
   99.061051 ,         0.000208811966422353
   99.064385 ,         0.000005350340474806
   99.066234 ,         0.000089708875929114
   99.068856 ,         0.019800148428923456
   99.070705 ,         0.000010031888471363
   99.073627 ,         0.000000445861706234
   99.075176 ,         0.088457265847241340
   99.078098 ,         0.001411331329237742
  100.016485 ,         0.035173252597110162
  100.022805 ,         0.150303190454352392
  100.023668 ,         0.003267460674211705
  100.025727 ,         0.001345425024630262
  100.027276 ,         4.470557226472379853
  100.039852 ,         0.986238298561118554
  100.065890 ,         0.000083019488178555
  100.067739 ,         0.000000222930853117
  100.072210 ,         0.000622646206642631
  100.074059 ,         0.000000222930853117
  100.078530 ,         0.002075487355475437
  100.081452 ,         0.000041509744089277
  101.019839 ,         0.000768814259832577
  101.023696 ,         0.022583919127313334
  101.024310 ,         0.035604052085871904
  101.026159 ,         0.001441526842070959
  101.029081 ,         0.000096101782479072
  101.030630 ,         0.150099185294465837
  101.031493 ,         0.003185625646927241
  101.033552 ,         0.001592812823463621
  101.035101 ,         4.580161525654170340
  101.036886 ,         0.003520568288034678
  101.043206 ,         0.045371583850361608
  101.044069 ,         0.000645784742462759
  101.046128 ,         0.000520794166704941
  101.075564 ,         0.000041509744089277
  101.084806 ,         0.000041509744089277
  102.020730 ,         0.000288305347437217
  102.021344 ,         0.000093694869963390
  102.027050 ,         0.000768814259832577
  102.027664 ,         0.001311728247659447
  102.027913 ,         0.000096101782479072
  102.031521 ,         0.019207448921956815
  102.032135 ,         0.036692776766194805
  102.033984 ,         0.001592812823463621
  102.034847 ,         0.000187389739926779
  102.036906 ,         0.000187389739926779
  102.038455 ,         0.157433140539881944
  102.039318 ,         0.003554012369772864
  102.040240 ,         0.000145822363645963
  102.041377 ,         0.002209251015672477
  102.044097 ,         0.003999698909277540
  102.046560 ,         0.000812438863682657
  102.047423 ,         0.000062495295457462
  102.049482 ,         0.000041663530304974
  103.027941 ,         0.000096101782479072
  103.028555 ,         0.000468474349816948
  103.029169 ,         0.000288163162283390
  103.034875 ,         0.000562169219780338
  103.035489 ,         0.001152652649133561
  103.039346 ,         0.018826660634735835
  103.041131 ,         0.000020831765152487
  103.041809 ,         0.001536870198844748
  103.042672 ,         0.000096054387427797
  103.044731 ,         0.000096054387427797
  103.047451 ,         0.000166654121219897
  103.049914 ,         0.000020831765152487
  104.035766 ,         0.000093694869963390
  104.036380 ,         0.000288163162283390
  104.042700 ,         0.000384217549711187
  104.050805 ,         0.000020831765152487
  106.040522 ,         2.050162320823553319
  107.035771 ,         6.925243946458932598
  107.037556 ,         0.022415973264597537
  107.043876 ,         0.115984023594909960
  107.046798 ,         0.000745736906752035
  108.032805 ,         0.106021887113533803
  108.034590 ,         0.000175467503716084
  108.039125 ,         0.308654554469406928
  108.040910 ,         0.001359873201675683
  108.042047 ,         0.001911629050367480
  108.043596 ,         4.523816047945721230
  108.047230 ,         0.002324944567866207
  108.050152 ,         0.000087733751858042
  109.029839 ,         0.001617532281618005
  109.036159 ,         0.004411451852217479
  109.040630 ,         0.067926896583710081
  109.042479 ,         0.003970306324622023
  109.044264 ,         0.000087733751858042
  109.045401 ,         0.000294096768749475
  109.046950 ,         0.203300297844740158
  109.049872 ,         0.001633320038513340
  109.051421 ,        11.579442407331075771
  109.063997 ,         4.107181119436779326
  110.037664 ,         0.000864698860367225
  110.039513 ,         0.000147048384374738
  110.043984 ,         0.003170562534616951
  110.045833 ,         0.000147048384374738
  110.048455 ,         0.164573665946632225
  110.050304 ,         0.002882329627765003
  110.053226 ,         0.000192155294536529
  110.054775 ,         0.533572898558016595
  110.057697 ,         0.005657988485389930
  110.059246 ,        15.920268242970594841
  110.061031 ,         0.041529248251207213
  110.067351 ,         0.229420555036503937
  110.070273 ,         0.002458390999157059
  111.045489 ,         0.001229997438458184
  111.047338 ,         0.000096077647268264
  111.051809 ,         0.007625984386923025
  111.056280 ,         0.220119250814582723
  111.058065 ,         0.000175599347956551
  111.058129 ,         0.007379985167713671
  111.061051 ,         0.000245999487691637
  111.062600 ,         0.730687663449963276
  111.064385 ,         0.001668193901411243
  111.065522 ,         0.008453120359463511
  111.067071 ,         4.529114627277712302
  111.070705 ,         0.007199573585631955
  111.073627 ,         0.000087799673978276
  112.051086 ,         0.368763272636772943
  112.053314 ,         0.000338124789776723
  112.055163 ,         0.000245999487691637
  112.059634 ,         0.011834367519176233
  112.064105 ,         0.061710845877854685
  112.065954 ,         0.012848742749570000
  112.067739 ,         0.000087799673978276
  112.068876 ,         0.000676249579553447
  112.070425 ,         0.204933840185296062
  112.073347 ,         0.002691438836849163
  112.074059 ,         0.000087799673978276
  112.076981 ,         0.000087799673978276
  113.048120 ,         0.003824582521202405
  113.054440 ,         0.016932967309902715
  113.055303 ,         0.000109497253424075
  113.057362 ,         0.000195530813750630
  113.058911 ,         0.777992218091917098
  113.061139 ,         0.000192245621212290
  113.062988 ,         0.000676249579553447
  113.067459 ,         0.002787561542547482
  113.069308 ,         0.000338124789776723
  113.073779 ,         0.004325526512245803
  113.076701 ,         0.000192245621212290
  114.042926 ,         1.651021852285604608
  114.045154 ,         0.000007821231980956
  114.051474 ,         0.000179888344098023
  114.055331 ,         0.000649162251573973
  114.055945 ,         0.008032440748797942
  114.057794 ,         0.000297206832348402
  114.058657 ,         0.000015642463961911
  114.060716 ,         0.000015642463961911
  114.062265 ,         0.035181103460440045
  114.063128 ,         0.000263899493283052
  114.065187 ,         0.000461824137246860
  114.070813 ,         0.000096122810606145
  114.077133 ,         0.000096122810606145
  115.039960 ,         0.011824748832993066
  115.046280 ,         0.075811338094862235
  115.047143 ,         0.001049534003229626
  115.049202 ,         0.000874611669358022
  115.050751 ,         0.532861230071610126
  115.054828 ,         0.000007821231980956
  115.058685 ,         0.000046927391885734
  115.059299 ,         0.000395849239924577
  115.061148 ,         0.000007821231980956
  115.062011 ,         0.000007821231980956
  115.063156 ,         0.001467941009391913
  115.065619 ,         0.000742217330858962
  115.068541 ,         0.000032987436660381
  116.036994 ,         0.000034984464228866
  116.043314 ,         0.000559751427661856
  116.047171 ,         0.006087296852186332
  116.047785 ,         0.003609788720430174
  116.049634 ,         0.001329409717060554
  116.050497 ,         0.000139937856915464
  116.052556 ,         0.000069968928457732
  116.054105 ,         0.024072778586822694
  116.054968 ,         0.000338417717163457
  116.057027 ,         0.000315856529453059
  116.058576 ,         0.079934173324743424
  116.060190 ,         0.000016493718330191
  116.062653 ,         0.000016493718330191
  116.066510 ,         0.000065974873320763
  116.068973 ,         0.000016493718330191
  117.050525 ,         0.000314860190787068
  117.051139 ,         0.000191770029876708
  117.052988 ,         0.000034984464228866
  117.053851 ,         0.000034984464228866
  117.054996 ,         0.001962822641357036
  117.055610 ,         0.000544874967461315
  117.057459 ,         0.000507626542914348
  117.058322 ,         0.000022561179502689
  117.060381 ,         0.000022561179502689
  117.061930 ,         0.003599220496288086
  117.062793 ,         0.000052456906162913
  117.064852 ,         0.000057533380158545
  118.052030 ,         0.000011280589751344
  118.053879 ,         0.000034984464228866
  118.058350 ,         0.000090244718010754
  118.058964 ,         0.000016921582037452
  118.060813 ,         0.000011280589751344
  118.061676 ,         0.000011280589751344
  118.062821 ,         0.000296127702276712
  118.065284 ,         0.000084607916343297
  118.066147 ,         0.000003384316407490
  118.068206 ,         0.000001692158203745
  119.059855 ,         0.000001692158203745
  119.062318 ,         0.000001692158203745
  119.066175 ,         0.000011845108041820
  119.071560 ,         0.000001692158203745
  123.054495 ,         0.208299145324561480
  123.055837 ,         4.456494136558539765
  123.067071 ,         4.403942551081758694
  124.039852 ,         0.070647422613381958
  124.051529 ,         0.003685610064221718
  124.052871 ,         0.030205041225666168
  124.057849 ,         0.009582586084265817
  124.059191 ,         0.297625476430883162
  124.060054 ,         0.001442916083760267
  124.060771 ,         0.000102131367086912
  124.062113 ,         0.002693443300359986
  124.064105 ,         0.058842648782602702
  124.070425 ,         0.245854603525191145
  124.073347 ,         0.002644613524178766
  125.036886 ,         0.000228627501708998
  125.043206 ,         0.004795080507725898
  125.044069 ,         0.000045725502116183
  125.046128 ,         0.000036580399031372
  125.046335 ,         0.017608246497100407
  125.048563 ,         0.000026642964062761
  125.049905 ,         0.000096194398584954
  125.054883 ,         0.000182060262506081
  125.056225 ,         0.001923887971699078
  125.058911 ,         0.010717364718164217
  125.060082 ,         0.008176524194678956
  125.061139 ,         0.000377801912390747
  125.061203 ,         0.000133214830006461
  125.062545 ,         0.010004217732797763
  125.063408 ,         0.000192388797169908
  125.064125 ,         0.000004440494010460
  125.065467 ,         0.000096194398584954
  125.067459 ,         0.002739063899193799
  125.073779 ,         0.007744939547619156
  125.076701 ,         0.000094450478097687
  126.030350 ,         0.155894578990157101
  126.040240 ,         0.000010669283605311
  126.043369 ,         0.000250400408011821
  126.044097 ,         0.000257586974849091
  126.046560 ,         0.000150894145449913
  126.047423 ,         0.000003048366585948
  126.049482 ,         0.000003048366585948
  126.049689 ,         0.000810427646576193
  126.050552 ,         0.000005247912798291
  126.051917 ,         0.000004440494010460
  126.052611 ,         0.000008621570986800
  126.055945 ,         0.000108599451257377
  126.058237 ,         0.000004440494010460
  126.059579 ,         0.000192388797169908
  126.062265 ,         0.000598559759767924
  126.063128 ,         0.000003443957274655
  126.063436 ,         0.000288583195754862
  126.065187 ,         0.000006428720112379
  126.065899 ,         0.000096194398584954
  126.068821 ,         0.000096194398584954
  126.070813 ,         0.000094450478097687
  126.077133 ,         0.000094450478097687
  126.080055 ,         0.000094450478097687
  127.027384 ,         0.001773261914208054
  127.033704 ,         0.006993611965027148
  127.034567 ,         0.000099435248066610
  127.036626 ,         0.000056346637677132
  127.038175 ,         7.434019235504425893
  127.040403 ,         0.000001874254473411
  127.041131 ,         0.000001524183292974
  127.043594 ,         0.000001524183292974
  127.046723 ,         0.000011245527658685
  127.047451 ,         0.000019814383363154
  127.047586 ,         0.000000374850894682
  127.049914 ,         0.000004572549878921
  127.050580 ,         0.000031112624122252
  127.050777 ,         0.000001524183292974
  127.052836 ,         0.000001524183292974
  127.052979 ,         0.000000459194269877
  127.053043 ,         0.000011245527658685
  127.053906 ,         0.000000374850894682
  127.055965 ,         0.000000374850894682
  127.059299 ,         0.000004362345814408
  127.063156 ,         0.000019515757221496
  127.065619 ,         0.000018826965900208
  127.066482 ,         0.000000459194269877
  127.066790 ,         0.000096194398584954
  127.068541 ,         0.000000229597134938
  127.074561 ,         0.629234835312809992
  128.024418 ,         0.000019887048166349
  128.030738 ,         0.000096120734009830
  128.031601 ,         0.000003314508027725
  128.034595 ,         0.000639700074672916
  128.035209 ,         0.082060871789097586
  128.037058 ,         0.000099435248066610
  128.037921 ,         0.000009943524083174
  128.039980 ,         0.000006629016055450
  128.041529 ,         0.342315579583035656
  128.042392 ,         0.004743403275543733
  128.044451 ,         0.003636609085882730
  128.046000 ,         5.051834021435184674
  128.050077 ,         0.000000374850894682
  128.050940 ,         0.000000374850894682
  128.053934 ,         0.000002249105368093
  128.062653 ,         0.000000229597134938
  128.066510 ,         0.000000918388539753
  128.068973 ,         0.000000229597134938
  128.071595 ,         0.006495570821276399
  128.071895 ,         0.000000229597134938
  128.077915 ,         0.034661013738011927
  128.078778 ,         0.000188668040534542
  128.080837 ,         0.000525575243167993
  129.031629 ,         0.000006629016055450
  129.032243 ,         0.000632453724055432
  129.034092 ,         0.000003314508027725
  129.037949 ,         0.000023201557399885
  129.038563 ,         0.003320382108812349
  129.039426 ,         0.000316226862027716
  129.042420 ,         0.027353624543260072
  129.043034 ,         0.052296638909316129
  129.044883 ,         0.004743403275543733
  129.045746 ,         0.000316226862027716
  129.047805 ,         0.000158113431013858
  129.049354 ,         0.232167014645241060
  129.050217 ,         0.003221559130734864
  129.052276 ,         0.002684632608945719
  129.053825 ,         0.696860838490056089
  129.068629 ,         0.000013476287909232
  129.074949 ,         0.000390812354270381
  129.078806 ,         0.001347628888976128
  129.081269 ,         0.000727719537293252
  129.084191 ,         0.000026952575818465
  130.040068 ,         0.000107385296544520
  130.041917 ,         0.000158113431013858
  130.042780 ,         0.000158113431013858
  130.045774 ,         0.001739247798673770
  130.046388 ,         0.002469861937723591
  130.050245 ,         0.018470270849391249
  130.050859 ,         0.007195274472847872
  130.052708 ,         0.004080641503091023
  130.053571 ,         0.000214770593089040
  130.055630 ,         0.000214770593089040
  130.057179 ,         0.031505233287600520
  130.058042 ,         0.000458957820609423
  130.060101 ,         0.000414542554596977
  130.075840 ,         0.000013476287909232
  130.078303 ,         0.000026952575818465
  130.082160 ,         0.000107810303273858
  130.084623 ,         0.000026952575818465
  130.087545 ,         0.000026952575818465
  131.047279 ,         0.000214770593089040
  131.049742 ,         0.000107385296544520
  131.053599 ,         0.000966467707967224
  131.054213 ,         0.000355322171188058
  131.056062 ,         0.000107385296544520
  131.056925 ,         0.000107385296544520
  131.058070 ,         0.002576085773429783
  131.060533 ,         0.000666229076363669
  131.061396 ,         0.000029610180932338
  131.063455 ,         0.000029610180932338
  132.055104 ,         0.000029610180932338
  132.057567 ,         0.000014805090466169
  132.061424 ,         0.000103635638649244
  132.063887 ,         0.000014805090466169
  135.067071 ,         4.434560512846671188
  136.064105 ,         0.061564396625018274
  136.070425 ,         0.296086283386655214
  136.073347 ,         0.002693442492325784
  137.046335 ,         2.678486221416104485
  137.061139 ,         0.000288583109179773
  137.067459 ,         0.003943969333766777
  137.073779 ,         0.009908020746749744
  137.076701 ,         0.000096194369726591
  138.043369 ,         0.037077063599715340
  138.049689 ,         0.153959185635364898
  138.050552 ,         0.000864939307368006
  138.052611 ,         0.001268577600460317
  138.070813 ,         0.000384777478906364
  138.077133 ,         0.000096194369726591
  138.080055 ,         0.000096194369726591
  139.040403 ,         0.000057662616295693
  139.046723 ,         0.002364167373011093
  139.050580 ,         0.005131973123024651
  139.053043 ,         0.003286769065921872
  139.053906 ,         0.000057662616295693
  139.055965 ,         0.000115325232591386
  139.074561 ,         0.092242056235053271
  140.046000 ,         4.389049094614170698
  140.047614 ,         0.000115325232591386
  140.050077 ,         0.000115325232591386
  140.053934 ,         0.000172987848887078
  140.056397 ,         0.000057662616295693
  140.071595 ,         0.000980724790648293
  140.077915 ,         0.006086086379371340
  140.078778 ,         0.000031958443635229
  140.080837 ,         0.000077898708540823
  141.043034 ,         0.045098139919458907
  141.049354 ,         0.251341928952099170
  141.050217 ,         0.002924774747417571
  141.052276 ,         0.002264341660217211
  141.053825 ,         0.861759880453369931
  141.068629 ,         0.000003994805454404
  141.074949 ,         0.000071906501085868
  141.078806 ,         0.000183761059622376
  141.081269 ,         0.000165784425631098
  141.084191 ,         0.000003994805454404
  142.046388 ,         0.002924774747417571
  142.050245 ,         0.016322130050897655
  142.050859 ,         0.008752870981229073
  142.052708 ,         0.005755201754042191
  142.053571 ,         0.000188695138351434
  142.055630 ,         0.000283042707527151
  142.057179 ,         0.048094526221891871
  142.058042 ,         0.000610665414790090
  142.060101 ,         0.000518140350311086
  142.078303 ,         0.000003994805454404
  142.082160 ,         0.000009987013636009
  142.084623 ,         0.000003994805454404
  142.087545 ,         0.000003994805454404
  143.047279 ,         0.000188695138351434
  143.047893 ,         0.000037010023098768
  143.049742 ,         0.000188695138351434
  143.053599 ,         0.000754780553405737
  143.054213 ,         0.000351595239634547
  143.056062 ,         0.000094347569175717
  143.058070 ,         0.003256882140404916
  143.060533 ,         0.001498905969160518
  143.061396 ,         0.000055515034648152
  143.063455 ,         0.000018505011549384
  144.057567 ,         0.000018505011549384
  144.061424 ,         0.000203555133775307
  144.062287 ,         0.000018505011549384
  144.063887 ,         0.000018505011549384
  144.064724 ,         2.552525181848065206
  144.066809 ,         0.000018505011549384
  145.061758 ,         0.034175158532990094
  145.064778 ,         0.000018505011549384
  145.068078 ,         0.114933023300856196
  145.068941 ,         0.001741409347964329
  145.071000 ,         0.001850247471807166
  146.058792 ,         0.000217676168495541
  146.065112 ,         0.001197218966320542
  146.065975 ,         0.000054419042123885
  146.068969 ,         0.010666132652232173
  146.071432 ,         0.002666533163058043
  146.072295 ,         0.000054419042123885
  146.074354 ,         0.000054419042123885
  147.066003 ,         0.000054419042123885
  147.068466 ,         0.000054419042123885
  147.072323 ,         0.000598609483160271
  147.077708 ,         0.000054419042123885
  148.075677 ,         0.000054419042123885
  149.057569 ,         1.716364293893080095
  150.054160 ,         2.687465133342947343
  150.054603 ,         0.034920302395768071
  150.060923 ,         0.098674902219535135
  150.063845 ,         0.000816415117475000
  150.065394 ,         4.437990673740770831
  151.051194 ,         0.035775190864475150
  151.051637 ,         0.000333988005058038
  151.057514 ,         0.182500238720028934
  151.057957 ,         0.002078147611028607
  151.058377 ,         0.001052211506021617
  151.060436 ,         0.001402948617985518
  151.062428 ,         0.091754309014968588
  151.064277 ,         0.002115257239363294
  151.067199 ,         0.000074219553679462
  151.068748 ,         0.254435848793639507
  151.071670 ,         0.002303455361774151
  151.073219 ,         4.451251035806196299
  152.048228 ,         0.000233824769664253
  152.054548 ,         0.002221335439407840
  152.055411 ,         0.000058456192416063
  152.058405 ,         0.005377969957472689
  152.059462 ,         0.000767818453924717
  152.060868 ,         0.005728707069436591
  152.061311 ,         0.000074219553679462
  152.061731 ,         0.000058456192416063
  152.063790 ,         0.000116912384832126
  152.065782 ,         0.005182774494159157
  152.067631 ,         0.000037109776839731
  152.070253 ,         0.092419838695215195
  152.072102 ,         0.005758638823431478
  152.075024 ,         0.000287931920221769
  152.076573 ,         0.248216022802573349
  152.079495 ,         0.002692773709351131
  153.057902 ,         0.000116912384832126
  153.061759 ,         0.000409193368178682
  153.064222 ,         0.000175368577248190
  153.067144 ,         0.000058456192416063
  153.067287 ,         0.000769363876972758
  153.069136 ,         0.000287931920221769
  153.073607 ,         0.004904694680714713
  153.075456 ,         0.000095977306740590
  153.079927 ,         0.007789809429282271
  153.082849 ,         0.000096170484621595
  154.061650 ,         4.382876419816362557
  154.065113 ,         0.000058456192416063
  154.076961 ,         0.000192340969243189
  154.083281 ,         0.000096170484621595
  154.086203 ,         0.000096170484621595
  155.058684 ,         0.045578642696732986
  155.065004 ,         0.290789826858852740
  155.065867 ,         0.002854612322552878
  155.067926 ,         0.003235227132732963
  155.069475 ,         4.505479607268993547
  156.055718 ,         0.000095153737161750
  156.062038 ,         0.003044919589176006
  156.065895 ,         0.018079210822300566
  156.066509 ,         0.048005524897783827
  156.068358 ,         0.008944451500904888
  156.071280 ,         0.000095153737161750
  156.072829 ,         0.297614700032604818
  156.073692 ,         0.002737585939479215
  156.075751 ,         0.003813066038526137
  157.062929 ,         0.000095153737161750
  157.063543 ,         0.000195541842657414
  157.065392 ,         0.000190307474323500
  157.069249 ,         0.001427306161276439
  157.069863 ,         0.003519753310108871
  157.071712 ,         0.000285461211485251
  157.072549 ,         4.466315046267850697
  157.073720 ,         0.017500995451371373
  157.074634 ,         0.000095153737161750
  157.076183 ,         0.008114986434713825
  157.079105 ,         0.000195541842657414
  158.069583 ,         0.062525142683949292
  158.073217 ,         0.000195541842657414
  158.075903 ,         0.246349056082893841
  158.076766 ,         0.002693390778136846
  158.077074 ,         0.000782167370629656
  158.078825 ,         0.003751508493847255
  158.079537 ,         0.000195541842657414
  158.082459 ,         0.000195541842657414
  159.066617 ,         0.000192385045582736
  159.072937 ,         0.003847700911654713
  159.076794 ,         0.017218462104574391
  159.079257 ,         0.005194396160744588
  159.082179 ,         0.000192385045582736
  160.076291 ,         0.000192385045582736
  160.080148 ,         0.000769540182330943
  160.082611 ,         0.000192385045582736
  160.085533 ,         0.000192385045582736
  164.069810 ,         0.039866552289115169
  164.081044 ,         4.469314235057315621
  165.066844 ,         0.000578322180418336
  165.073164 ,         0.003086137548647513
  165.074027 ,         0.000009638703134483
  165.076086 ,         0.000029792354795191
  165.078078 ,         0.094178151334898555
  165.084398 ,         0.296978348276124626
  165.087320 ,         0.003318193792644046
  166.063878 ,         0.000001752491421038
  166.070198 ,         0.000043812288713702
  166.074055 ,         0.000076233377771462
  166.075112 ,         0.000195187865978536
  166.076518 ,         0.000109530714133623
  166.077381 ,         0.000000876245710519
  166.079440 ,         0.000000876245710519
  166.081432 ,         0.005855636405409683
  166.087752 ,         0.009076235803506392
  166.090674 ,         0.000097593932989268
  167.073552 ,         0.000002628737131556
  167.077409 ,         0.000002628737131556
  167.079872 ,         0.000002628737131556
  167.082794 ,         0.000000876245710519
  167.084786 ,         0.000292781798967804
  167.091106 ,         0.000292781798967804
  167.094028 ,         0.000097593932989268
  168.064724 ,         0.077463440093053795
  169.061758 ,         0.001086590521206464
  169.068078 ,         0.005141057931159078
  169.068941 ,         0.000045555811001761
  169.071000 ,         0.000057366578817627
  169.072549 ,         1.403229501966077208
  170.058792 ,         0.000003374504564117
  170.065112 ,         0.000077613608657605
  170.067798 ,         0.006478941898336752
  170.068969 ,         0.000300330922165705
  170.069583 ,         0.020303864726356695
  170.071432 ,         0.000158601718196413
  170.072295 ,         0.000001687252282059
  170.074354 ,         0.000001687252282059
  170.075903 ,         0.092773984379787594
  170.076766 ,         0.000795030873451995
  170.078825 ,         0.001192546310177993
  170.080374 ,         1.685069306471514317
  171.064832 ,         0.000113237833920771
  171.066617 ,         0.000061156219323346
  171.068466 ,         0.000003374504564117
  171.071152 ,         0.000362837564091507
  171.072015 ,         0.000003783937345979
  171.072323 ,         0.000015185271152345
  171.072937 ,         0.001376014945899526
  171.073800 ,         0.000030578109661673
  171.074074 ,         0.000004764958305553
  171.074786 ,         0.000005061756846176
  171.076794 ,         0.006054465690762702
  171.077408 ,         0.024496877330300711
  171.077708 ,         0.000001687252282059
  171.079257 ,         0.002537983090794587
  171.082179 ,         0.000061156219323346
  171.083728 ,         0.111686659113475292
  171.084591 ,         0.001065081604467074
  171.086650 ,         0.001615985915812302
  171.088199 ,         4.418026632970111223
  172.061866 ,         0.000000700729147586
  172.068186 ,         0.000006867145901265
  172.072043 ,         0.000024945958979659
  172.073828 ,         0.000030578109661673
  172.074442 ,         0.000036726951417444
  172.074506 ,         0.000009109479173539
  172.075369 ,         0.000000140145829517
  172.076291 ,         0.000061156219323346
  172.077428 ,         0.000000140145829517
  172.080148 ,         0.000275202998079307
  172.080762 ,         0.001211989463581601
  172.081625 ,         0.000036726951417444
  172.082611 ,         0.000061156219323346
  172.084619 ,         0.007712659717496193
  172.085233 ,         0.065119505363503596
  172.085533 ,         0.000061156219323346
  172.087082 ,         0.002717794431613259
  172.087945 ,         0.000036726951417444
  172.090004 ,         0.000146907805669777
  172.091553 ,         0.286160320350319464
  172.092416 ,         0.002885650359821268
  172.094475 ,         0.005001793733067598
  173.069077 ,         0.000000140145829517
  173.071540 ,         0.000000420437488551
  173.075397 ,         0.000001121166636137
  173.080782 ,         0.000000140145829517
  173.081653 ,         0.000073453902834889
  173.082267 ,         0.000192376676657505
  173.087973 ,         0.000367269514174444
  173.088587 ,         0.003078026826520086
  173.089450 ,         0.000096188338328753
  173.090436 ,         0.000073453902834889
  173.091509 ,         0.000096188338328753
  173.092444 ,         0.018756725939113657
  173.094907 ,         0.008272197026286501
  173.095770 ,         0.000096188338328753
  173.097829 ,         0.000384753353315011
  174.089478 ,         0.000192376676657505
  174.092804 ,         0.000096188338328753
  174.095798 ,         0.000961883383287527
  179.104519 ,         8.727538101904920964
  180.075958 ,         0.128720537672250640
  180.101553 ,         0.189888016978835367
  180.107873 ,         0.653545643902182616
  180.110795 ,         0.010004231738723597
  181.072549 ,         0.226638570623134000
  181.072992 ,         0.002711508126671672
  181.079312 ,         0.008568591601754962
  181.080175 ,         0.000039460619607183
  181.082234 ,         0.000095832930401999
  181.083783 ,         0.129326094645544676
  181.098587 ,         0.001154334399087768
  181.104907 ,         0.013274846219425953
  181.107829 ,         0.000192389066514628
  181.111227 ,         0.022509520292276305
  181.114149 ,         0.000769556266058511
  182.067798 ,         0.012996600003220012
  182.069583 ,         0.003287006054729042
  182.070026 ,         0.000005637231079482
  182.075903 ,         0.017568997933364035
  182.076346 ,         0.000169116944689322
  182.076766 ,         0.000144868050302681
  182.077209 ,         0.000002818615539741
  182.078825 ,         0.000194822553415055
  182.080203 ,         0.000318503561117738
  182.080817 ,         0.002823318065935549
  182.082666 ,         0.000262131246221297
  182.085588 ,         0.000002818615539741
  182.087137 ,         0.008546413085239115
  182.088000 ,         0.000042477204555975
  182.090059 ,         0.000107608916560138
  182.108261 ,         0.000577167199543884
  183.064832 ,         0.000231691251450812
  183.066617 ,         0.000004995449947771
  183.071152 ,         0.000864506829588612
  183.072015 ,         0.000007107093831202
  183.072937 ,         0.000204813456945265
  183.073800 ,         0.000004995449947771
  183.074074 ,         0.000009665647114010
  183.075623 ,         0.072196260872905441
  183.076794 ,         0.001029062758299439
  183.077237 ,         0.000005637231079482
  183.077851 ,         0.000011327253724094
  183.079257 ,         0.000569481283141842
  183.079700 ,         0.000008455846619222
  183.080120 ,         0.000004995449947771
  183.082179 ,         0.000009990899895541
  183.083557 ,         0.000008455846619222
  183.084171 ,         0.000175572438904701
  183.086020 ,         0.000008455846619222
  183.087093 ,         0.000002831813431023
  183.088028 ,         0.000271854089378252
  183.088199 ,         4.373434909589414943
  183.088942 ,         0.000002818615539741
  183.090491 ,         0.000235040513744739
  183.091354 ,         0.000002831813431023
  183.093413 ,         0.000005663626862047
  184.061866 ,         0.000000568567465127
  184.068186 ,         0.000015635605601270
  184.069049 ,         0.000000284283732564
  184.072043 ,         0.000056856750649616
  184.072657 ,         0.001278760008731856
  184.073828 ,         0.000009990899895541
  184.074506 ,         0.000026438387231847
  184.075369 ,         0.000000284283732564
  184.076291 ,         0.000004995449947771
  184.077428 ,         0.000000284283732564
  184.078977 ,         0.004774037130685244
  184.079840 ,         0.000045782763974923
  184.080148 ,         0.000069936302903457
  184.081899 ,         0.000061569924916896
  184.082611 ,         0.000014986349843312
  184.085062 ,         0.000002831813431023
  184.085233 ,         0.063673059266139712
  184.085533 ,         0.000009990899895541
  184.087525 ,         0.000005663626862047
  184.091382 ,         0.000019822695047372
  184.091553 ,         0.327791199521362431
  184.092416 ,         0.003751131834484626
  184.093845 ,         0.000005663626862047
  184.094475 ,         0.005001509112646169
  184.096767 ,         0.000005663626862047
  185.069077 ,         0.000000568567465127
  185.069691 ,         0.000003157431958661
  185.071540 ,         0.000000852851197691
  185.075397 ,         0.000001705702395382
  185.076011 ,         0.000078935804709868
  185.076874 ,         0.000001578715979331
  185.077860 ,         0.000000852851197691
  185.079868 ,         0.000326794204849778
  185.080782 ,         0.000000284283732564
  185.082267 ,         0.000096182864859263
  185.082331 ,         0.000131033425710111
  185.083194 ,         0.000001578715979331
  185.085253 ,         0.000003157431958661
  185.088587 ,         0.004135863153957186
  185.091509 ,         0.000096182864859263
  185.092444 ,         0.017505281894261589
  185.094907 ,         0.011253394943595906
  185.095770 ,         0.000480914324296315
  185.097829 ,         0.000384731459437052
  186.076902 ,         0.000003157431958661
  186.079365 ,         0.000003157431958661
  186.083222 ,         0.000020523308305632
  186.085685 ,         0.000003157431958661
  186.088607 ,         0.000003157431958661
  186.089478 ,         0.000288548594577789
  186.095798 ,         0.000961828648592630
  186.099124 ,         0.000096182864859263
  187.099152 ,         0.000192365729718526
  195.099433 ,         4.351150584382251552
  196.072214 ,         3.630173513360967164
  196.096467 ,         0.094744966388852131
  196.102787 ,         0.326268971274087438
  196.103650 ,         0.001346628995591479
  196.105709 ,         0.005001764720792654
  197.069248 ,         0.040323612585965320
  197.075568 ,         0.313879008961575889
  197.076431 ,         0.004354950087931101
  197.078490 ,         0.003387183506041665
  197.093501 ,         0.000577126682402424
  197.099821 ,         0.006636957162564080
  197.102743 ,         0.000096187780400404
  197.103678 ,         0.010965406755688587
  197.106141 ,         0.011253970061896887
  197.107004 ,         0.000096187780400404
  197.109063 ,         0.000384751121601616
  198.072602 ,         0.002742005706543935
  198.075524 ,         0.000080647224937216
  198.076459 ,         0.022419928943296197
  198.078922 ,         0.012016437249127487
  198.079785 ,         0.000483883349623298
  198.081844 ,         0.000322588899748865
  198.100712 ,         0.000192375560800808
  198.103175 ,         0.000288563341201212
  198.107032 ,         0.000384751121601616
  199.073493 ,         0.000241941674811649
  199.079813 ,         0.001451650107548474
  199.082276 ,         0.000161294449874433
  199.083139 ,         0.000080647224937216
  199.085198 ,         0.000080647224937216
  200.083167 ,         0.000161294449874433
  207.099433 ,         4.303564402451558912
  208.096467 ,         0.094645138118383002
  208.102787 ,         0.371655281860092446
  208.103650 ,         0.001442761258632241
  208.105709 ,         0.004905387887444101
  208.107258 ,         4.308841484780816522
  209.093501 ,         0.000673288573365087
  209.099821 ,         0.007021438069357070
  209.102743 ,         0.000096184076910503
  209.103678 ,         0.009522223579148257
  209.104292 ,         0.098118420129819570
  209.106141 ,         0.013658139131240846
  209.107004 ,         0.000096184076910503
  209.109063 ,         0.000480920384552516
  209.110612 ,         0.364288680299020451
  209.111475 ,         0.000961945236378597
  209.113534 ,         0.005483087742371905
  210.100712 ,         0.000192368153821006
  210.101326 ,         0.000865750747736102
  210.103175 ,         0.000577104461463019
  210.107032 ,         0.000480920384552516
  210.107646 ,         0.006829811283274130
  210.109495 ,         0.000096184076910503
  210.111503 ,         0.007599367752339924
  210.113966 ,         0.013948206102466476
  210.114829 ,         0.000096194523637860
  210.116888 ,         0.000480972618189298
  211.104066 ,         0.000096184076910503
  211.108537 ,         0.000096194523637860
  211.111000 ,         0.000480972618189298
  211.113922 ,         0.000096194523637860
  211.114857 ,         0.001154334283654316
  211.117320 ,         0.000288583570913579
  211.118183 ,         0.000096194523637860
  225.097421 ,         8.894753899177516132
  225.109997 ,        11.819756315045729878
  226.094455 ,         0.230017971653454334
  226.100775 ,         0.668100394962661270
  226.101638 ,         0.004944496779627309
  226.103697 ,         0.010284552841132675
  226.107031 ,         0.255030327764834697
  226.113351 ,         1.014565714972234023
  226.114214 ,         0.009259399700849292
  226.116273 ,         0.016666920693455621
  227.091489 ,         0.001582238854357707
  227.097809 ,         0.014635709546712583
  227.098672 ,         0.000197779856794713
  227.100731 ,         0.000197779856794713
  227.101666 ,         0.035995934943964365
  227.104065 ,         0.002380988615496924
  227.104129 ,         0.022942463675994337
  227.104992 ,         0.000395559713589427
  227.107051 ,         0.000791119427178854
  227.110385 ,         0.021428897154495159
  227.111248 ,         0.000529108559833919
  227.114242 ,         0.042593241087760532
  227.116705 ,         0.036773045582167381
  227.117568 ,         0.000793662839750878
  227.119627 ,         0.001322771399584797
  228.098700 ,         0.000988899283973567
  228.101163 ,         0.000791119427178854
  228.105020 ,         0.002175578496693742
  228.111276 ,         0.001322771399584797
  228.113739 ,         0.000529108559833919
  228.117596 ,         0.002645542799169595
  228.120059 ,         0.001058217119667838
  228.120518 ,         0.000264554279916959
  228.122981 ,         0.000264554279916959
  229.102054 ,         0.000197779856794713
  229.114630 ,         0.000264554279916959
  229.120950 ,         0.000264554279916959
  238.117822 ,         8.504752019308337907
  239.113071 ,         4.276538224326254856
  239.114856 ,         0.182577248609282261
  239.121176 ,         0.816306882943301226
  239.122039 ,         0.006733617931383032
  239.124098 ,         0.012697680359640841
  240.110105 ,         0.106762107282066671
  240.111890 ,         0.002116280013279645
  240.116425 ,         0.367277009412615707
  240.117288 ,         0.003747724642919492
  240.118210 ,         0.017892185045069633
  240.119073 ,         0.000192389085753536
  240.119347 ,         0.006054016946004352
  240.121132 ,         0.000577167257260609
  240.122067 ,         0.032321366966520070
  240.124530 ,         0.036169148961553779
  240.127452 ,         0.000961945428767682
  241.107139 ,         0.001345337083574593
  241.113459 ,         0.009129072977217866
  241.114322 ,         0.000096095500975422
  241.115244 ,         0.000192389085753536
  241.116381 ,         0.000096095500975422
  241.117316 ,         0.017489381666957626
  241.119101 ,         0.000577167257260609
  241.119779 ,         0.013357274880299084
  241.120642 ,         0.000192191001950845
  241.121564 ,         0.000192389085753536
  241.122701 ,         0.000480477504877112
  241.125421 ,         0.003847781715070729
  241.127884 ,         0.001154334514521219
  241.130806 ,         0.000192389085753536
  242.114350 ,         0.000288286502926267
  242.116813 ,         0.000288286502926267
  242.120670 ,         0.000960955009754223
  242.121533 ,         0.000096095500975422
  242.123133 ,         0.000384382003901689
  242.126055 ,         0.000096095500975422
  243.117704 ,         0.000096095500975422
  271.102899 ,         4.260648794584396271
  272.099933 ,         0.106391170930844797
  272.106253 ,         0.365539260412052536
  272.107116 ,         0.006637423773455354
  272.109175 ,         0.006060256586185488
  273.096967 ,         0.001346723670265499
  273.103287 ,         0.009138481958242071
  273.104150 ,         0.000096194542876768
  273.106209 ,         0.000096194542876768
  273.107144 ,         0.034918619309234469
  273.109607 ,         0.013371041704838386
  273.110470 ,         0.000480972714383841
  273.112529 ,         0.000480972714383841
  274.104178 ,         0.000769556343014146
  274.106641 ,         0.000288583628630305
  274.110498 ,         0.002789641778421651
  274.111361 ,         0.000096194542876768
  274.112961 ,         0.000384778171507073
  274.115883 ,         0.000096194542876768
  275.107532 ,         0.000096194542876768
  282.107650 ,         4.185328523679459067
  283.104684 ,         0.091577205658572275
  283.111004 ,         0.445284540971296383
  283.111867 ,         0.006637423773455354
  283.113926 ,         0.006348840179820420
  284.101718 ,         0.000769556343014146
  284.108038 ,         0.009523259709804683
  284.108901 ,         0.000096194542876768
  284.110960 ,         0.000288583628630305
  284.111895 ,         0.034726230993379112
  284.114358 ,         0.022124745911517845
  284.115221 ,         0.000288583628630305
  284.117280 ,         0.000480972714383841
  285.105072 ,         0.000096194542876768
  285.108929 ,         0.000865750920886286
  285.111392 ,         0.000096194542876768
  285.112255 ,         0.000096194542876768
  285.115249 ,         0.004232560026559289
  285.117712 ,         0.000577167257260609
  285.120634 ,         0.000096194542876768
  286.116140 ,         0.000192389085753536
  299.134199 ,       100.000000000000000000
  300.131233 ,         2.553388102340275356
  300.137553 ,        10.737619874967164080
  300.138416 ,         0.168532850038653897
  300.140475 ,         0.177767516076156623
  301.128267 ,         0.036938704464678999
  301.134587 ,         0.267805610728478471
  301.135450 ,         0.002308669029042437
  301.137509 ,         0.004617338058084875
  301.138444 ,         0.775712807196481835
  301.140907 ,         0.549463233951433705
  301.141770 ,         0.011543345145212188
  301.143829 ,         0.018469352232339500
  302.135478 ,         0.013852014174254624
  302.137941 ,         0.009234676116169750
  302.138804 ,         0.002308669029042437
  302.141798 ,         0.083112088405083440
  302.144261 ,         0.011543345145212188
  302.144720 ,         0.002308669029042437
  302.147183 ,         0.002308669029042437
  303.141754 ,         0.002308669029042437
  303.142689 ,         0.002308669029042437
