  10
        -18.38496335
 As        -0.0335594875       -0.1334737486        0.5586355362
 C          1.0972025743       -1.2373463939       -0.6471585693
 Cl         0.4187642238        1.7711949320       -0.3212414949
 Cl        -1.8926348303       -0.5242181594       -0.4417035314
 C          2.5788855710       -1.0786850225       -0.3361326786
 H          0.8854516117       -0.9502620529       -1.6799449165
 H          0.7929861305       -2.2784940771       -0.5192681428
 H          3.1789832514       -1.6953867329       -1.0036202693
 H          2.7886662923       -1.3765832345        0.6909344904
 H          2.8846899702       -0.0403269589       -0.4594941540
