38
 energy: -66.896267511553 gnorm: 0.000553001528 xtb: 6.6.1 (8d0f1dd)
O            2.20958644309756        0.39948560676494       -2.05662356272833
O            3.44415256664752       -1.20540602152589       -0.96097073283084
O           -3.43258920249439       -0.38902648765844        0.11570432437242
O           -4.09505563962679        1.19019720322140       -1.37949436456404
N            1.34885589393387        1.20108265151272        0.65969126208752
N            1.84236867961690       -1.09444449488424        1.22901612451681
N            0.39417829048747       -2.21162996459867       -0.10342317531814
N           -0.99896453408153        1.17490066891223        0.41463303641719
N            0.07940250928866        3.16944590766660        0.66325747834162
N            1.68132362481913       -3.46640668161087        1.39386993738230
N           -5.27966593452824        0.76714438565006        0.50370090155405
C            1.51790194857686       -0.14070196070419        0.17083063803126
C            0.25970417920192       -0.80839281493181       -0.43355325924170
C            2.71595282202185       -0.02108439022473       -0.82528835565609
C            3.58287927582511        1.05235392824029       -0.15427535872105
C            2.55130645528372        2.00276209727205        0.45160376138848
C           -1.01394168098092       -0.24502180467441        0.23117513567031
C            0.09869811285295        1.78915488238380        0.57323337507937
C            1.26542386218018       -2.29514857306773        0.82847714443473
C           -2.23553872236133       -0.63925454268895       -0.60572579267244
C           -4.23196034386868        0.59139384670655       -0.34568370493685
H            0.20887620948871       -0.65380769489526       -1.51297913306812
H            4.23397408994532        1.54877012592394       -0.87094643883379
H            4.19873661060605        0.57672458661116        0.60794364091893
H            2.89624412444385        2.41930778558676        1.40369919761336
H            2.32954581143650        2.82359910701909       -0.23788719196625
H           -1.11529571349603       -0.72045562779229        1.21905679830920
H            2.79666998339174       -1.11866162229592        1.55850764070151
H           -2.19189029664860       -1.70970410168028       -0.82093690067666
H           -2.25227524072921       -0.05949674103906       -1.53309782779668
H            2.94378601942298        0.51530097303904       -2.67279539324200
H            2.86063351442759       -1.89351668949594       -1.30851262203326
H           -0.87092511407439        3.50894591615953        0.70194836026560
H            0.67722784610733        3.57031124310851        1.37000319263973
H            2.03113162994441       -3.40062551212127        2.33637259150065
H            1.05230668036985       -4.23643075984058        1.22905440731188
H           -5.89221605354947        1.54634715459713        0.34665875892917
H           -5.25111586758309        0.33644044991521        1.40981318338797
