  42
        -53.75850440
 C         -4.7596024610       -0.9033588980       -1.1366619547
 C         -3.6015210632       -0.0821006667       -0.5782619165
 C         -3.9658404787        1.3961944823       -0.4917199981
 C          4.1159711567       -2.0592249015       -0.5785448733
 C          2.8644380209       -1.4437953045        0.0572306890
 C          0.3641901243        0.1354199666        2.2762290680
 P         -0.6152329844       -0.2900354175        0.7969697097
 N          2.6571177888       -0.0213804151       -0.1708995008
 C          0.7927641154        0.1095636960       -1.7822155065
 S         -0.2126998913        1.1576579286       -0.6824495005
 C          2.2835915282        0.3016225967       -1.5360471003
 C         -3.2007883326       -0.6227077911        0.7942917885
 O         -2.0888603273        0.0601934178        1.3509071572
 C          3.2595833146        2.2173740189        0.6941450184
 C          3.7382519025        0.8120575027        0.3377621311
 O         -0.4993511879       -1.6606230355        0.2794439471
 H         -4.4837511655       -1.9518747936       -1.2193938648
 H         -5.0350729551       -0.5400076864       -2.1233509897
 H         -5.6281609164       -0.8250480746       -0.4860503441
 H         -2.7326897590       -0.1943345165       -1.2373590574
 H         -4.2016855275        1.7859489762       -1.4787143558
 H         -3.1327486060        1.9661666310       -0.0878588748
 H         -4.8307150773        1.5347822739        0.1539764738
 H          5.0196044954       -1.5958552055       -0.1889386161
 H          4.1078865171       -1.9461897753       -1.6602060302
 H          4.1476392445       -3.1210397709       -0.3498752973
 H          2.9126509960       -1.5962944176        1.1401249749
 H          1.9787413260       -1.9685986642       -0.3027610455
 H          0.1735635610       -0.6203094765        3.0326607997
 H          0.0631384252        1.1125330959        2.6384711004
 H          1.4126367546        0.1349827127        2.0007530245
 H          0.5393045089        0.3993813870       -2.8010467121
 H          0.4798784863       -0.9176482361       -1.6041871472
 H          2.8290704361       -0.3053830142       -2.2760835344
 H          2.5254987662        1.3484694703       -1.7252244620
 H         -2.9575989892       -1.6878914476        0.7113766928
 H         -4.0139465736       -0.4908901302        1.5140354458
 H          2.9082066675        2.7545559180       -0.1824440942
 H          4.0794871929        2.7797988898        1.1346148991
 H          2.4423093711        2.1710279730        1.4077942269
 H          4.5719446925        0.8854547604       -0.3798764008
 H          4.1215256240        0.3359751956        1.2444263913
