211.12224448897985     3.212290502793337
209.91983967936062     32.122905027932944
181.963927855713     5.027932960893793
181.06212424849855     51.396648044692824
166.8336673346708     2.5139664804469533
154.20841683366854     2.9329608938547267
150.2004008016044     1.117318435754214
141.0821643286584     0.4189944134078587
140.18036072144403     17.17877094972073
139.07815631262633     9.916201117318508
137.87575150300705     99.86033519553081
137.07414829659422     0.9776536312849657
135.17034068136374     0.4189944134078587
126.05210420841776     1.8156424581005695
124.04809619238566     0.9776536312849089
114.1282565130269     9.217877094972124
112.92585170340757     0.8379888268156321
110.92184368737549     0.4189944134078587
109.21843687374819     0.4189944134078587
108.21643286573217     4.469273743016828
106.91382765531131     2.7932960893854784
105.11022044088243     0.5586592178771639
98.99799599198457     0.6983240223463838
98.09619238477012     6.145251396648064
97.09418837675409     45.25139664804476
95.99198396793643     1.536312849162016
93.98797595190435     2.2346368715083997
91.88376753507066     0.9776536312849089
90.98196392785621     0.4189944134078587
85.27054108216477     1.8156424581006263
83.06613226452947     1.8156424581005695
81.2625250501006     1.8156424581005695
72.94589178356743     1.9553072625699315
72.044088176353     37.56983240223471
71.14228456913855     4.748603351955325
70.34068136272572     3.6312849162011105
68.93787575150326     29.32960893854738
68.1362725450904     85.19553072625706
67.13426853707438     2.9329608938547267
65.83166332665351     0.837988826815689
63.1262525050102     0.4189944134078587
59.21843687374763     0.4189944134078587
58.316633266533195     10.335195530726367
57.114228456913935     3.212290502793337
56.01202404809629     22.20670391061458
55.21042084168346     2.6536312849162016
53.907815631262594     1.5363128491620728
53.106212424849765     0.4189944134078587
47.194388777555105     1.8156424581005695
45.190380761523016     0.6983240223464406
44.18837675350697     18.296089385474914
42.885771543086115     1.9553072625698178
41.983967935871675     22.486033519553132
41.082164328657235     3.212290502793337
40.180360721442796     0.4189944134078303
