Heeelllllooooo 40
Total number of processors on max-wn031 is 40 
 Number of phyiscal cores on max-wn031 20 
NumSimTasks is 8 
Fri Aug 18 14:41:45 CEST 2023


                      *********************************************
                      *                                           *
                      *            Q   C   x   M   S              *
                      *                                           *
                      *                  V5.2.1                   *
                      *        Sep 20 18:00:00 CEST 2022          *
                      *                                           *
                      *                S. Grimme                  *
                      *                J. Koopman                 *
                      * Mulliken Center for Theoretical Chemistry *
                      *             Universitaet Bonn             *
                      *                                           *
                      *********************************************
 
 QCxMS is free software: you can redistribute it and/or modify it under
 the terms of the GNU Lesser General Public License as published by 
 the Free Software Foundation, either version 3 of the License, or 
 (at your option) any later version.
 
 QCxMS is distributed in the hope that it will be useful, 
 but WITHOUT ANY WARRANTY; without even the implied warranty of 
 MERCHANTABILITY or FITNESS FOR A PARTICULAR PURPOSE.  See the 
 GNU Lesser General Public License for more details.
 
Cite this work as:
S.Grimme, Angew.Chem.Int.Ed. 52 (2013) 6306-6312.
 
for the CID module:
J. Koopman, S. Grimme, J. Am. Soc. Mass Spectrom., (2021),  DOI: 10.1021/jasms.1c00098 
 
with respect to negative/multiple charges:
J. Koopman, S. Grimme, ChemRxiv, (2022),  DOI: 10.26434/chemrxiv-2022-w5260 
 
for the GFN1-xTB implementation:
V. Asgeirsson, C.Bauer, S. Grimme, Chem. Sci. 8 (2017) 4879
 
for the GFN2-xTB implementation:
 J. Koopman, S. Grimme, ACS Omega 4 (12) (2019) 15120-15133,  DOI: 10.1021/acsomega.9b02011 
 
 changed by input:
>program xtb                                                                     
>method  ei                                                                      
>ntraj  300                                                                      
>tmax  10                                                                        
>tinit 5                                                                         
>ieeatm 0.6                                                                      
 
              ************************************************************
                       Mode:          Electron Impact (EI)         
              ************************************************************
 
----- Internal program parameters -----
 
 QC Program            : xTB
 QC Level              : GFN2-xTB
 Dispersion            : D4
 MO spectrum with      : xTB     
 
 M+ Ion charge(charge) :    1
 total traj.   (ntraj) :  300
 time steps    (tstep) :    0.50 fs
 sim. time / MD (tmax) :   10.00 ps
 Initial temp. (tinit) :    5.00 K
 
------------ EI settings -----------
 E(e-impact)   (eimp0) :   70.00 eV
 Iee/atom     (ieeatm) :    0.60 eV/atom
 relax. time  (trelax) : 2000.00 fs
 
--------------------------------------------
 qc path              /usr/local/bin/
--------------------------------------------
 xtbhome directory    ~/.XTBPARAM/
--------------------------------------------
 
 Generating uniform velocity distribution, T=       5.0
 Groundstate eTemp set to   298.149993896484     
 
 initializing GFN2-xTB ...
 initialization successful!
 energy =      -18.38496
 charge =              0
 mult   =              1
 etemp  =          298.1
 M trajactory, equilibration ...        7500

             E N T E R I N G   M D   M O D U L E

step   time [fs]    Epot       Ekin       Etot    error  #F   eTemp   frag. T
    500    250.    -18.38490   0.0004   -18.38446  0.0000 1     298.       5.
   1000    500.    -18.38472   0.0003   -18.38446  0.0000 1     298.       5.
   1500    750.    -18.38481   0.0004   -18.38445  0.0000 1     298.       5.
   2000   1000.    -18.38482   0.0002   -18.38460  0.0000 1     298.       5.
   2500   1250.    -18.38463   0.0003   -18.38438  0.0000 1     298.       5.
   3000   1500.    -18.38486   0.0005   -18.38437  0.0000 1     298.       5.
   3500   1750.    -18.38478   0.0004   -18.38438  0.0000 1     298.       5.
   4000   2000.    -18.38482   0.0002   -18.38465  0.0000 1     298.       5.
   4500   2250.    -18.38489   0.0002   -18.38465  0.0000 1     298.       5.
   5000   2500.    -18.38485   0.0002   -18.38465  0.0000 1     298.       5.
   5500   2750.    -18.38466   0.0003   -18.38433  0.0000 1     298.       5.
   6000   3000.    -18.38487   0.0005   -18.38433  0.0000 1     298.       5.
   6500   3250.    -18.38469   0.0004   -18.38433  0.0000 1     298.       5.
   7000   3500.    -18.38467   0.0003   -18.38442  0.0000 1     298.       5.
   7500   3750.    -18.38484   0.0003   -18.38451  0.0000 1     298.       5.
   7500   3750.    -18.38484   0.0003   -18.38451  0.0000 1     298.       5.

        E X I T   M D  because of tmax has been reached
 
 M trajactory, sampling ...       15000

             E N T E R I N G   M D   M O D U L E

step   time [fs]    Epot       Ekin       Etot    error  #F   eTemp   frag. T
    500   4000.    -18.38473   0.0002   -18.38452  0.0000 1     298.       5.
   1000   4250.    -18.38475   0.0002   -18.38451 -0.0000 1     298.       5.
   1500   4500.    -18.38488   0.0004   -18.38451 -0.0000 1     298.       5.
   2000   4750.    -18.38465   0.0001   -18.38451  0.0000 1     298.       5.
   2500   5000.    -18.38476   0.0003   -18.38451 -0.0000 1     298.       5.
   3000   5250.    -18.38483   0.0003   -18.38452  0.0000 1     298.       5.
   3500   5500.    -18.38469   0.0002   -18.38451 -0.0000 1     298.       5.
   4000   5750.    -18.38487   0.0004   -18.38451 -0.0000 1     298.       5.
   4500   6000.    -18.38478   0.0003   -18.38452  0.0000 1     298.       5.
   5000   6250.    -18.38466   0.0001   -18.38451 -0.0000 1     298.       5.
   5500   6500.    -18.38486   0.0003   -18.38452  0.0000 1     298.       5.
   6000   6750.    -18.38473   0.0002   -18.38452  0.0000 1     298.       5.
   6500   7000.    -18.38473   0.0002   -18.38451  0.0000 1     298.       5.
   7000   7250.    -18.38482   0.0003   -18.38452  0.0000 1     298.       5.
   7500   7500.    -18.38465   0.0001   -18.38452  0.0000 1     298.       5.
   8000   7750.    -18.38470   0.0002   -18.38451  0.0000 1     298.       5.
   8500   8000.    -18.38480   0.0003   -18.38452  0.0000 1     298.       5.
   9000   8250.    -18.38466   0.0001   -18.38452  0.0000 1     298.       5.
   9500   8500.    -18.38478   0.0003   -18.38451 -0.0000 1     298.       5.
  10000   8750.    -18.38474   0.0002   -18.38451 -0.0000 1     298.       5.
  10500   9000.    -18.38464   0.0001   -18.38451 -0.0000 1     298.       5.
  11000   9250.    -18.38481   0.0003   -18.38451 -0.0000 1     298.       5.
  11500   9500.    -18.38478   0.0003   -18.38452  0.0000 1     298.       5.
  12000   9750.    -18.38471   0.0002   -18.38451 -0.0000 1     298.       5.
  12500  10000.    -18.38484   0.0003   -18.38451 -0.0000 1     298.       5.
  13000  10250.    -18.38470   0.0002   -18.38452  0.0000 1     298.       5.
  13500  10500.    -18.38473   0.0002   -18.38452  0.0000 1     298.       5.
  14000  10750.    -18.38483   0.0003   -18.38452  0.0000 1     298.       5.
  14500  11000.    -18.38470   0.0002   -18.38452  0.0000 1     298.       5.
  15000  11250.    -18.38473   0.0002   -18.38451 -0.0000 1     298.       5.
  15000  11250.    -18.38473   0.0002   -18.38451 -0.0000 1     298.       5.

        E X I T   M D  because of tmax has been reached
 average Ekin     0.000225
 average Epot   -18.384738
 average Etot   -18.384513
 average T             4.7
 structures for fragmentation runs written
                      --- QCxMS V5.2.1Sep 20 18:00:00 CEST 2022  ---
Fri Aug 18 14:44:47 CEST 2023


                      *********************************************
                      *                                           *
                      *            Q   C   x   M   S              *
                      *                                           *
                      *                  V5.2.1                   *
                      *        Sep 20 18:00:00 CEST 2022          *
                      *                                           *
                      *                S. Grimme                  *
                      *                J. Koopman                 *
                      * Mulliken Center for Theoretical Chemistry *
                      *             Universitaet Bonn             *
                      *                                           *
                      *********************************************
 
 QCxMS is free software: you can redistribute it and/or modify it under
 the terms of the GNU Lesser General Public License as published by 
 the Free Software Foundation, either version 3 of the License, or 
 (at your option) any later version.
 
 QCxMS is distributed in the hope that it will be useful, 
 but WITHOUT ANY WARRANTY; without even the implied warranty of 
 MERCHANTABILITY or FITNESS FOR A PARTICULAR PURPOSE.  See the 
 GNU Lesser General Public License for more details.
 
Cite this work as:
S.Grimme, Angew.Chem.Int.Ed. 52 (2013) 6306-6312.
 
for the CID module:
J. Koopman, S. Grimme, J. Am. Soc. Mass Spectrom., (2021),  DOI: 10.1021/jasms.1c00098 
 
with respect to negative/multiple charges:
J. Koopman, S. Grimme, ChemRxiv, (2022),  DOI: 10.26434/chemrxiv-2022-w5260 
 
for the GFN1-xTB implementation:
V. Asgeirsson, C.Bauer, S. Grimme, Chem. Sci. 8 (2017) 4879
 
for the GFN2-xTB implementation:
 J. Koopman, S. Grimme, ACS Omega 4 (12) (2019) 15120-15133,  DOI: 10.1021/acsomega.9b02011 
 
 changed by input:
>program xtb                                                                     
>method  ei                                                                      
>ntraj  300                                                                      
>tmax  10                                                                        
>tinit 5                                                                         
>ieeatm 0.6                                                                      
 
              ************************************************************
                       Mode:          Electron Impact (EI)         
              ************************************************************
 
----- Internal program parameters -----
 
 QC Program            : xTB
 QC Level              : GFN2-xTB
 Dispersion            : D4
 MO spectrum with      : xTB     
 
 M+ Ion charge(charge) :    1
 total traj.   (ntraj) :  300
 time steps    (tstep) :    0.50 fs
 sim. time / MD (tmax) :   10.00 ps
 Initial temp. (tinit) :    5.00 K
 
------------ EI settings -----------
 E(e-impact)   (eimp0) :   70.00 eV
 Iee/atom     (ieeatm) :    0.60 eV/atom
 relax. time  (trelax) : 2000.00 fs
 
--------------------------------------------
 qc path              /usr/local/bin/
--------------------------------------------
 xtbhome directory    ~/.XTBPARAM/
--------------------------------------------
 
 reading qcxms.gs ...
--- Checking QC method for ions ---
 
 initializing GFN2-xTB ...
 initialization successful!
 energy =      -17.90046
 charge =              1
 mult   =              2
 etemp  =         5000.0
--- QC method okay ---
 
 *******************************************
       generating randomized ensemble 
 *******************************************
 reading inital coord/velo from qcxms.gs ...
 doing XTB2 for MO spectrum for M ...
 XTB-SCC levels (eV):
 M alpha/beta   -28.83  -28.81  -17.34  -16.81  -15.79  -14.25  -13.98  -13.51  -13.15  -12.94
 M alpha/beta   -12.61  -12.36  -12.03  -11.92  -11.77  -11.07
 MO localization degree (number of centers)
 alpha/beta     1.82    1.74    3.85    3.95    6.05    5.42    5.37    5.44    5.99    5.38
 alpha/beta     7.00    7.97    2.20    2.92    2.02    4.56

 preparing the IEE distribution ...
 IEE a (eV) [determined]        :    0.140
 IEE b (eV) [determined]        :    0.980
 maximum IEE (eV)               :   58.928
 maximum of P(E) at (eV)        :    3.291
 average E for P(E) (eV)        :    6.038
 
 Run:    1, step on M trj:    57 MOs   7  0 IEE  (eV)  =    2.5 heating time =  663. eTemp = 5000.
 Run:    2, step on M trj:   254 MOs   9  0 IEE  (eV)  =    4.9 heating time =  510. eTemp = 5000.
 Run:    3, step on M trj:   265 MOs  15  0 IEE  (eV)  =    3.3 heating time =  200. eTemp = 5000.
 Run:    4, step on M trj:   295 MOs   5  0 IEE  (eV)  =    7.4 heating time =  870. eTemp = 5000.
 Run:    5, step on M trj:   306 MOs   5  0 IEE  (eV)  =    9.8 heating time =  870. eTemp = 5000.
 Run:    6, step on M trj:   382 MOs  12  0 IEE  (eV)  =    1.0 heating time =  296. eTemp = 5000.
 Run:    7, step on M trj:   383 MOs   3  0 IEE  (eV)  =    9.0 heating time = 1055. eTemp = 5000.
 Run:    8, step on M trj:   605 MOs   9  0 IEE  (eV)  =    1.9 heating time =  510. eTemp = 5000.
 Run:    9, step on M trj:   622 MOs   4  0 IEE  (eV)  =    5.4 heating time =  974. eTemp = 5000.
 Run:   10, step on M trj:   647 MOs  16  8 IEE  (eV)  =   12.7 heating time =  584. eTemp = 5000.
 Run:   11, step on M trj:   682 MOs   9  0 IEE  (eV)  =    4.8 heating time =  510. eTemp = 5000.
 Run:   12, step on M trj:   746 MOs   3  0 IEE  (eV)  =    9.1 heating time = 1055. eTemp = 5000.
 Run:   13, step on M trj:   763 MOs   6  0 IEE  (eV)  =    3.1 heating time =  735. eTemp = 5000.
 Run:   14, step on M trj:   811 MOs  12  0 IEE  (eV)  =    0.9 heating time =  296. eTemp = 5000.
 Run:   15, step on M trj:   821 MOs   8  0 IEE  (eV)  =    8.1 heating time =  584. eTemp = 5000.
 Run:   16, step on M trj:   919 MOs   6  0 IEE  (eV)  =    5.9 heating time =  735. eTemp = 5000.
 Run:   17, step on M trj:  1000 MOs  12  0 IEE  (eV)  =    4.0 heating time =  296. eTemp = 5000.
 Run:   18, step on M trj:  1011 MOs   9  0 IEE  (eV)  =    7.7 heating time =  510. eTemp = 5000.
 Run:   19, step on M trj:  1042 MOs  12  0 IEE  (eV)  =    3.9 heating time =  296. eTemp = 5000.
 Run:   20, step on M trj:  1092 MOs   8  0 IEE  (eV)  =    2.0 heating time =  584. eTemp = 5000.
 Run:   21, step on M trj:  1135 MOs  15  0 IEE  (eV)  =    3.3 heating time =  200. eTemp = 5000.
 Run:   22, step on M trj:  1276 MOs  11  0 IEE  (eV)  =    1.3 heating time =  367. eTemp = 5000.
 Run:   23, step on M trj:  1349 MOs  11  0 IEE  (eV)  =    4.1 heating time =  367. eTemp = 5000.
 Run:   24, step on M trj:  1359 MOs  13  0 IEE  (eV)  =    6.4 heating time =  222. eTemp = 5000.
 Run:   25, step on M trj:  1378 MOs   3  0 IEE  (eV)  =   11.8 heating time = 1055. eTemp = 5000.
 Run:   26, step on M trj:  1465 MOs   8  0 IEE  (eV)  =    2.1 heating time =  584. eTemp = 5000.
 Run:   27, step on M trj:  1575 MOs   3  0 IEE  (eV)  =    9.0 heating time = 1055. eTemp = 5000.
 Run:   28, step on M trj:  1783 MOs   3  0 IEE  (eV)  =    6.1 heating time = 1055. eTemp = 5000.
 Run:   29, step on M trj:  1817 MOs   4  0 IEE  (eV)  =   11.4 heating time =  974. eTemp = 5000.
 Run:   30, step on M trj:  1838 MOs   9  0 IEE  (eV)  =    1.7 heating time =  510. eTemp = 5000.
 Run:   31, step on M trj:  1980 MOs   8  0 IEE  (eV)  =    8.1 heating time =  584. eTemp = 5000.
 Run:   32, step on M trj:  2308 MOs   7  0 IEE  (eV)  =    5.5 heating time =  663. eTemp = 5000.
 Run:   33, step on M trj:  2322 MOs  16  0 IEE  (eV)  =    5.7 heating time =  200. eTemp = 5000.
 Run:   34, step on M trj:  2323 MOs   6  0 IEE  (eV)  =    2.8 heating time =  735. eTemp = 5000.
 Run:   35, step on M trj:  2377 MOs   3  0 IEE  (eV)  =   11.6 heating time = 1055. eTemp = 5000.
 Run:   36, step on M trj:  2389 MOs   7  0 IEE  (eV)  =    2.5 heating time =  663. eTemp = 5000.
 Run:   37, step on M trj:  2457 MOs  12  0 IEE  (eV)  =    1.1 heating time =  296. eTemp = 5000.
 Run:   38, step on M trj:  2531 MOs   8  0 IEE  (eV)  =    5.0 heating time =  584. eTemp = 5000.
 Run:   39, step on M trj:  2548 MOs   6  0 IEE  (eV)  =    8.6 heating time =  735. eTemp = 5000.
 Run:   40, step on M trj:  2583 MOs   7  0 IEE  (eV)  =    5.6 heating time =  663. eTemp = 5000.
 Run:   41, step on M trj:  2731 MOs  13  0 IEE  (eV)  =    0.6 heating time =  222. eTemp = 5000.
 Run:   42, step on M trj:  2836 MOs  12  0 IEE  (eV)  =    4.0 heating time =  296. eTemp = 5000.
 Run:   43, step on M trj:  2852 MOs   3  0 IEE  (eV)  =    9.4 heating time = 1055. eTemp = 5000.
 Run:   44, step on M trj:  2890 MOs  13  0 IEE  (eV)  =    0.7 heating time =  222. eTemp = 5000.
 Run:   45, step on M trj:  2913 MOs   7  0 IEE  (eV)  =    5.5 heating time =  663. eTemp = 5000.
 Run:   46, step on M trj:  2985 MOs   7  0 IEE  (eV)  =    2.6 heating time =  663. eTemp = 5000.
 Run:   47, step on M trj:  3005 MOs  15  0 IEE  (eV)  =    6.1 heating time =  200. eTemp = 5000.
 Run:   48, step on M trj:  3019 MOs   8  0 IEE  (eV)  =    2.3 heating time =  584. eTemp = 5000.
 Run:   49, step on M trj:  3023 MOs   6  0 IEE  (eV)  =    8.7 heating time =  735. eTemp = 5000.
 Run:   50, step on M trj:  3037 MOs   5  0 IEE  (eV)  =    4.4 heating time =  870. eTemp = 5000.
 Run:   51, step on M trj:  3043 MOs   6  0 IEE  (eV)  =    3.0 heating time =  735. eTemp = 5000.
 Run:   52, step on M trj:  3054 MOs   9  8 IEE  (eV)  =   15.4 heating time = 1094. eTemp = 5000.
 Run:   53, step on M trj:  3122 MOs  15  7 IEE  (eV)  =   14.4 heating time =  752. eTemp = 5000.
 Run:   54, step on M trj:  3132 MOs   5  0 IEE  (eV)  =   10.7 heating time =  870. eTemp = 5000.
 Run:   55, step on M trj:  3138 MOs   4  0 IEE  (eV)  =    5.4 heating time =  974. eTemp = 5000.
 Run:   56, step on M trj:  3145 MOs  14  0 IEE  (eV)  =    0.5 heating time =  200. eTemp = 5000.
 Run:   57, step on M trj:  3157 MOs  13  0 IEE  (eV)  =    3.7 heating time =  222. eTemp = 5000.
 Run:   58, step on M trj:  3173 MOs  14  0 IEE  (eV)  =    6.5 heating time =  200. eTemp = 5000.
 Run:   59, step on M trj:  3270 MOs   6  0 IEE  (eV)  =    8.9 heating time =  735. eTemp = 5000.
 Run:   60, step on M trj:  3302 MOs   6  0 IEE  (eV)  =    8.8 heating time =  735. eTemp = 5000.
 Run:   61, step on M trj:  3328 MOs   9  0 IEE  (eV)  =    4.9 heating time =  510. eTemp = 5000.
 Run:   62, step on M trj:  3435 MOs   6  0 IEE  (eV)  =    3.1 heating time =  735. eTemp = 5000.
 Run:   63, step on M trj:  3441 MOs   7  0 IEE  (eV)  =    8.5 heating time =  663. eTemp = 5000.
 Run:   64, step on M trj:  3470 MOs   4  0 IEE  (eV)  =    5.5 heating time =  974. eTemp = 5000.
 Run:   65, step on M trj:  3566 MOs   3  0 IEE  (eV)  =    6.0 heating time = 1055. eTemp = 5000.
 Run:   66, step on M trj:  3579 MOs   8  0 IEE  (eV)  =    2.0 heating time =  584. eTemp = 5000.
 Run:   67, step on M trj:  3611 MOs   7  0 IEE  (eV)  =    5.6 heating time =  663. eTemp = 5000.
 Run:   68, step on M trj:  3773 MOs  12  7 IEE  (eV)  =   15.0 heating time =  959. eTemp = 5000.
 Run:   69, step on M trj:  3849 MOs  13  0 IEE  (eV)  =    6.6 heating time =  222. eTemp = 5000.
 Run:   70, step on M trj:  3851 MOs  10  0 IEE  (eV)  =    1.6 heating time =  440. eTemp = 5000.
 Run:   71, step on M trj:  3887 MOs  10  0 IEE  (eV)  =    4.5 heating time =  440. eTemp = 5000.
 Run:   72, step on M trj:  3892 MOs   6  0 IEE  (eV)  =    3.1 heating time =  735. eTemp = 5000.
 Run:   73, step on M trj:  3945 MOs   8  0 IEE  (eV)  =    7.8 heating time =  584. eTemp = 5000.
 Run:   74, step on M trj:  3985 MOs   9  0 IEE  (eV)  =    4.8 heating time =  510. eTemp = 5000.
 Run:   75, step on M trj:  4011 MOs   5  0 IEE  (eV)  =    9.6 heating time =  870. eTemp = 5000.
 Run:   76, step on M trj:  4049 MOs   5  0 IEE  (eV)  =    7.4 heating time =  870. eTemp = 5000.
 Run:   77, step on M trj:  4253 MOs  15  0 IEE  (eV)  =    3.2 heating time =  200. eTemp = 5000.
 Run:   78, step on M trj:  4394 MOs  10  0 IEE  (eV)  =    1.6 heating time =  440. eTemp = 5000.
 Run:   79, step on M trj:  4421 MOs  13  0 IEE  (eV)  =    3.7 heating time =  222. eTemp = 5000.
 Run:   80, step on M trj:  4457 MOs  11  0 IEE  (eV)  =    1.2 heating time =  367. eTemp = 5000.
 Run:   81, step on M trj:  4503 MOs   5  0 IEE  (eV)  =    4.3 heating time =  870. eTemp = 5000.
 Run:   82, step on M trj:  4515 MOs   5  0 IEE  (eV)  =   10.4 heating time =  870. eTemp = 5000.
 Run:   83, step on M trj:  4548 MOs   3  0 IEE  (eV)  =    9.1 heating time = 1055. eTemp = 5000.
 Run:   84, step on M trj:  4613 MOs  16  0 IEE  (eV)  =    5.6 heating time =  200. eTemp = 5000.
 Run:   85, step on M trj:  4617 MOs   7  0 IEE  (eV)  =    2.6 heating time =  663. eTemp = 5000.
 Run:   86, step on M trj:  4624 MOs  15  0 IEE  (eV)  =    3.3 heating time =  200. eTemp = 5000.
 Run:   87, step on M trj:  4716 MOs   6  0 IEE  (eV)  =    3.0 heating time =  735. eTemp = 5000.
 Run:   88, step on M trj:  4728 MOs   4  0 IEE  (eV)  =   11.3 heating time =  974. eTemp = 5000.
 Run:   89, step on M trj:  4757 MOs   4  0 IEE  (eV)  =   10.9 heating time =  974. eTemp = 5000.
 Run:   90, step on M trj:  4850 MOs  15  0 IEE  (eV)  =    3.2 heating time =  200. eTemp = 5000.
 Run:   91, step on M trj:  4947 MOs  14  0 IEE  (eV)  =    3.4 heating time =  200. eTemp = 5000.
 Run:   92, step on M trj:  4958 MOs   6  0 IEE  (eV)  =    2.9 heating time =  735. eTemp = 5000.
 Run:   93, step on M trj:  4977 MOs  10  0 IEE  (eV)  =    1.6 heating time =  440. eTemp = 5000.
 Run:   94, step on M trj:  5031 MOs   8  0 IEE  (eV)  =    8.0 heating time =  584. eTemp = 5000.
 Run:   95, step on M trj:  5067 MOs   5  0 IEE  (eV)  =   10.7 heating time =  870. eTemp = 5000.
 Run:   96, step on M trj:  5087 MOs   8  0 IEE  (eV)  =    2.2 heating time =  584. eTemp = 5000.
 Run:   97, step on M trj:  5137 MOs   8  0 IEE  (eV)  =    5.2 heating time =  584. eTemp = 5000.
 Run:   98, step on M trj:  5176 MOs   6  0 IEE  (eV)  =    8.6 heating time =  735. eTemp = 5000.
 Run:   99, step on M trj:  5223 MOs  16  5 IEE  (eV)  =   15.4 heating time =  870. eTemp = 5000.
 Run:  100, step on M trj:  5238 MOs  16  7 IEE  (eV)  =   13.5 heating time =  663. eTemp = 5000.
 Run:  101, step on M trj:  5251 MOs   6  0 IEE  (eV)  =    2.8 heating time =  735. eTemp = 5000.
 Run:  102, step on M trj:  5288 MOs  15  0 IEE  (eV)  =    3.3 heating time =  200. eTemp = 5000.
 Run:  103, step on M trj:  5297 MOs   6  0 IEE  (eV)  =    2.8 heating time =  735. eTemp = 5000.
 Run:  104, step on M trj:  5363 MOs   5  0 IEE  (eV)  =   10.7 heating time =  870. eTemp = 5000.
 Run:  105, step on M trj:  5461 MOs  11  0 IEE  (eV)  =    1.2 heating time =  367. eTemp = 5000.
 Run:  106, step on M trj:  5546 MOs   4  0 IEE  (eV)  =   11.3 heating time =  974. eTemp = 5000.
 Run:  107, step on M trj:  5654 MOs  13  0 IEE  (eV)  =    6.4 heating time =  222. eTemp = 5000.
 Run:  108, step on M trj:  5681 MOs  13  0 IEE  (eV)  =    3.7 heating time =  222. eTemp = 5000.
 Run:  109, step on M trj:  5684 MOs  13  0 IEE  (eV)  =    6.6 heating time =  222. eTemp = 5000.
 Run:  110, step on M trj:  5842 MOs  13  0 IEE  (eV)  =    6.6 heating time =  222. eTemp = 5000.
 Run:  111, step on M trj:  5957 MOs   3  0 IEE  (eV)  =    9.3 heating time = 1055. eTemp = 5000.
 Run:  112, step on M trj:  6011 MOs   7  0 IEE  (eV)  =    8.3 heating time =  663. eTemp = 5000.
 Run:  113, step on M trj:  6022 MOs   5  0 IEE  (eV)  =   10.5 heating time =  870. eTemp = 5000.
 Run:  114, step on M trj:  6123 MOs   4  0 IEE  (eV)  =   11.2 heating time =  974. eTemp = 5000.
 Run:  115, step on M trj:  6165 MOs  14  0 IEE  (eV)  =    0.5 heating time =  200. eTemp = 5000.
 Run:  116, step on M trj:  6167 MOs  15  0 IEE  (eV)  =    3.2 heating time =  200. eTemp = 5000.
 Run:  117, step on M trj:  6214 MOs  10  0 IEE  (eV)  =    7.5 heating time =  440. eTemp = 5000.
 Run:  118, step on M trj:  6253 MOs  15  0 IEE  (eV)  =    0.4 heating time =  200. eTemp = 5000.
 Run:  119, step on M trj:  6404 MOs  16  0 IEE  (eV)  =    5.7 heating time =  200. eTemp = 5000.
 Run:  120, step on M trj:  6408 MOs  15  0 IEE  (eV)  =    0.1 heating time =  200. eTemp = 5000.
 Run:  121, step on M trj:  6448 MOs  13  0 IEE  (eV)  =    6.7 heating time =  222. eTemp = 5000.
 Run:  122, step on M trj:  6581 MOs  15  4 IEE  (eV)  =   17.2 heating time = 1063. eTemp = 5000.
 Run:  123, step on M trj:  6636 MOs  12  0 IEE  (eV)  =    7.0 heating time =  296. eTemp = 5000.
 Run:  124, step on M trj:  6673 MOs   5  0 IEE  (eV)  =    9.6 heating time =  870. eTemp = 5000.
 Run:  125, step on M trj:  6814 MOs  10  0 IEE  (eV)  =    1.6 heating time =  440. eTemp = 5000.
 Run:  126, step on M trj:  6840 MOs  12  0 IEE  (eV)  =    4.1 heating time =  296. eTemp = 5000.
 Run:  127, step on M trj:  6914 MOs   4  0 IEE  (eV)  =    5.3 heating time =  974. eTemp = 5000.
 Run:  128, step on M trj:  6947 MOs   3  0 IEE  (eV)  =    8.9 heating time = 1055. eTemp = 5000.
 Run:  129, step on M trj:  6960 MOs   9  0 IEE  (eV)  =    1.8 heating time =  510. eTemp = 5000.
 Run:  130, step on M trj:  7061 MOs  16  7 IEE  (eV)  =   13.5 heating time =  663. eTemp = 5000.
 Run:  131, step on M trj:  7107 MOs   6  0 IEE  (eV)  =    3.1 heating time =  735. eTemp = 5000.
 Run:  132, step on M trj:  7112 MOs  12  0 IEE  (eV)  =    4.0 heating time =  296. eTemp = 5000.
 Run:  133, step on M trj:  7167 MOs   9  0 IEE  (eV)  =    4.8 heating time =  510. eTemp = 5000.
 Run:  134, step on M trj:  7179 MOs   3  0 IEE  (eV)  =    9.1 heating time = 1055. eTemp = 5000.
 Run:  135, step on M trj:  7201 MOs   3  0 IEE  (eV)  =    8.9 heating time = 1055. eTemp = 5000.
 Run:  136, step on M trj:  7322 MOs  15  0 IEE  (eV)  =    3.2 heating time =  200. eTemp = 5000.
 Run:  137, step on M trj:  7422 MOs   5  0 IEE  (eV)  =   10.2 heating time =  870. eTemp = 5000.
 Run:  138, step on M trj:  7515 MOs   3  0 IEE  (eV)  =    5.9 heating time = 1055. eTemp = 5000.
 Run:  139, step on M trj:  7557 MOs   5  0 IEE  (eV)  =   10.1 heating time =  870. eTemp = 5000.
 Run:  140, step on M trj:  7732 MOs  13  0 IEE  (eV)  =    0.7 heating time =  222. eTemp = 5000.
 Run:  141, step on M trj:  7779 MOs  15  0 IEE  (eV)  =    0.2 heating time =  200. eTemp = 5000.
 Run:  142, step on M trj:  7849 MOs  11  0 IEE  (eV)  =    4.1 heating time =  367. eTemp = 5000.
 Run:  143, step on M trj:  8024 MOs  12  0 IEE  (eV)  =    3.8 heating time =  296. eTemp = 5000.
 Run:  144, step on M trj:  8032 MOs   5  0 IEE  (eV)  =   10.2 heating time =  870. eTemp = 5000.
 Run:  145, step on M trj:  8034 MOs  15  0 IEE  (eV)  =    3.3 heating time =  200. eTemp = 5000.
 Run:  146, step on M trj:  8067 MOs  12  0 IEE  (eV)  =    4.0 heating time =  296. eTemp = 5000.
 Run:  147, step on M trj:  8086 MOs  16  0 IEE  (eV)  =    2.7 heating time =  200. eTemp = 5000.
 Run:  148, step on M trj:  8107 MOs   6  0 IEE  (eV)  =    5.8 heating time =  735. eTemp = 5000.
 Run:  149, step on M trj:  8122 MOs   7  0 IEE  (eV)  =    8.4 heating time =  663. eTemp = 5000.
 Run:  150, step on M trj:  8147 MOs  13  0 IEE  (eV)  =    3.6 heating time =  222. eTemp = 5000.
 Run:  151, step on M trj:  8170 MOs   8  0 IEE  (eV)  =    2.1 heating time =  584. eTemp = 5000.
 Run:  152, step on M trj:  8173 MOs  16  8 IEE  (eV)  =   13.1 heating time =  584. eTemp = 5000.
 Run:  153, step on M trj:  8222 MOs   5  0 IEE  (eV)  =   10.7 heating time =  870. eTemp = 5000.
 Run:  154, step on M trj:  8247 MOs  13  0 IEE  (eV)  =    6.7 heating time =  222. eTemp = 5000.
 Run:  155, step on M trj:  8300 MOs  14  0 IEE  (eV)  =    6.6 heating time =  200. eTemp = 5000.
 Run:  156, step on M trj:  8353 MOs  10  8 IEE  (eV)  =   15.0 heating time = 1025. eTemp = 5000.
 Run:  157, step on M trj:  8383 MOs  10  0 IEE  (eV)  =    1.4 heating time =  440. eTemp = 5000.
 Run:  158, step on M trj:  8397 MOs  12  0 IEE  (eV)  =    1.0 heating time =  296. eTemp = 5000.
 Run:  159, step on M trj:  8474 MOs  13  0 IEE  (eV)  =    6.6 heating time =  222. eTemp = 5000.
 Run:  160, step on M trj:  8540 MOs   5  0 IEE  (eV)  =   10.8 heating time =  870. eTemp = 5000.
 Run:  161, step on M trj:  8542 MOs  15  0 IEE  (eV)  =    3.2 heating time =  200. eTemp = 5000.
 Run:  162, step on M trj:  8548 MOs  11  0 IEE  (eV)  =    4.2 heating time =  367. eTemp = 5000.
 Run:  163, step on M trj:  8787 MOs   6  0 IEE  (eV)  =    2.9 heating time =  735. eTemp = 5000.
 Run:  164, step on M trj:  8837 MOs   6  0 IEE  (eV)  =    3.1 heating time =  735. eTemp = 5000.
 Run:  165, step on M trj:  8839 MOs   4  0 IEE  (eV)  =   11.1 heating time =  974. eTemp = 5000.
 Run:  166, step on M trj:  8972 MOs   9  0 IEE  (eV)  =    2.0 heating time =  510. eTemp = 5000.
 Run:  167, step on M trj:  8984 MOs   9  0 IEE  (eV)  =    7.8 heating time =  510. eTemp = 5000.
 Run:  168, step on M trj:  9025 MOs   3  0 IEE  (eV)  =    8.9 heating time = 1055. eTemp = 5000.
 Run:  169, step on M trj:  9028 MOs   9  4 IEE  (eV)  =   18.6 heating time = 1484. eTemp = 5000.
 Run:  170, step on M trj:  9042 MOs  11  0 IEE  (eV)  =    4.1 heating time =  367. eTemp = 5000.
 Run:  171, step on M trj:  9056 MOs  10  0 IEE  (eV)  =    1.5 heating time =  440. eTemp = 5000.
 Run:  172, step on M trj:  9119 MOs   6  0 IEE  (eV)  =    2.9 heating time =  735. eTemp = 5000.
 Run:  173, step on M trj:  9213 MOs  12  0 IEE  (eV)  =    6.9 heating time =  296. eTemp = 5000.
 Run:  174, step on M trj:  9224 MOs  15  0 IEE  (eV)  =    3.3 heating time =  200. eTemp = 5000.
 Run:  175, step on M trj:  9240 MOs  12  0 IEE  (eV)  =    3.8 heating time =  296. eTemp = 5000.
 Run:  176, step on M trj:  9272 MOs  12  0 IEE  (eV)  =    1.0 heating time =  296. eTemp = 5000.
 Run:  177, step on M trj:  9353 MOs  11  0 IEE  (eV)  =    1.2 heating time =  367. eTemp = 5000.
 Run:  178, step on M trj:  9451 MOs  13  0 IEE  (eV)  =    3.6 heating time =  222. eTemp = 5000.
 Run:  179, step on M trj:  9466 MOs  14  0 IEE  (eV)  =    6.3 heating time =  200. eTemp = 5000.
 Run:  180, step on M trj:  9470 MOs  13  0 IEE  (eV)  =    6.6 heating time =  222. eTemp = 5000.
 Run:  181, step on M trj:  9491 MOs  12  0 IEE  (eV)  =    6.8 heating time =  296. eTemp = 5000.
 Run:  182, step on M trj:  9511 MOs  10  0 IEE  (eV)  =    7.5 heating time =  440. eTemp = 5000.
 Run:  183, step on M trj:  9522 MOs  12  0 IEE  (eV)  =    1.0 heating time =  296. eTemp = 5000.
 Run:  184, step on M trj:  9551 MOs   3  0 IEE  (eV)  =    5.9 heating time = 1055. eTemp = 5000.
 Run:  185, step on M trj:  9567 MOs   3  0 IEE  (eV)  =    6.0 heating time = 1055. eTemp = 5000.
 Run:  186, step on M trj:  9586 MOs  13  0 IEE  (eV)  =    0.7 heating time =  222. eTemp = 5000.
 Run:  187, step on M trj:  9659 MOs  11  0 IEE  (eV)  =    4.1 heating time =  367. eTemp = 5000.
 Run:  188, step on M trj:  9661 MOs   9  0 IEE  (eV)  =    4.9 heating time =  510. eTemp = 5000.
 Run:  189, step on M trj:  9677 MOs  10  0 IEE  (eV)  =    1.5 heating time =  440. eTemp = 5000.
 Run:  190, step on M trj:  9825 MOs   5  0 IEE  (eV)  =    9.8 heating time =  870. eTemp = 5000.
 Run:  191, step on M trj:  9881 MOs  13  0 IEE  (eV)  =    0.6 heating time =  222. eTemp = 5000.
 Run:  192, step on M trj:  9890 MOs   3  0 IEE  (eV)  =    8.9 heating time = 1055. eTemp = 5000.
 Run:  193, step on M trj:  9913 MOs   3  0 IEE  (eV)  =    9.1 heating time = 1055. eTemp = 5000.
 Run:  194, step on M trj:  9968 MOs  13  0 IEE  (eV)  =    6.6 heating time =  222. eTemp = 5000.
 Run:  195, step on M trj:  9986 MOs   5  0 IEE  (eV)  =    9.9 heating time =  870. eTemp = 5000.
 Run:  196, step on M trj: 10004 MOs   6  0 IEE  (eV)  =    8.6 heating time =  735. eTemp = 5000.
 Run:  197, step on M trj: 10070 MOs  12  0 IEE  (eV)  =    3.9 heating time =  296. eTemp = 5000.
 Run:  198, step on M trj: 10083 MOs   3  0 IEE  (eV)  =    6.1 heating time = 1055. eTemp = 5000.
 Run:  199, step on M trj: 10130 MOs   3  0 IEE  (eV)  =    9.4 heating time = 1055. eTemp = 5000.
 Run:  200, step on M trj: 10145 MOs   3  0 IEE  (eV)  =    8.9 heating time = 1055. eTemp = 5000.
 Run:  201, step on M trj: 10146 MOs   4  0 IEE  (eV)  =   11.4 heating time =  974. eTemp = 5000.
 Run:  202, step on M trj: 10255 MOs  12  0 IEE  (eV)  =    6.8 heating time =  296. eTemp = 5000.
 Run:  203, step on M trj: 10306 MOs  12  0 IEE  (eV)  =    6.9 heating time =  296. eTemp = 5000.
 Run:  204, step on M trj: 10402 MOs   7  0 IEE  (eV)  =    5.6 heating time =  663. eTemp = 5000.
 Run:  205, step on M trj: 10515 MOs   5  0 IEE  (eV)  =   10.0 heating time =  870. eTemp = 5000.
 Run:  206, step on M trj: 10517 MOs   4  0 IEE  (eV)  =    5.5 heating time =  974. eTemp = 5000.
 Run:  207, step on M trj: 10543 MOs   5  0 IEE  (eV)  =    4.5 heating time =  870. eTemp = 5000.
 Run:  208, step on M trj: 10601 MOs   6  0 IEE  (eV)  =    3.1 heating time =  735. eTemp = 5000.
 Run:  209, step on M trj: 10643 MOs   9  0 IEE  (eV)  =    1.7 heating time =  510. eTemp = 5000.
 Run:  210, step on M trj: 10791 MOs  12  0 IEE  (eV)  =    3.9 heating time =  296. eTemp = 5000.
 Run:  211, step on M trj: 10832 MOs   8  0 IEE  (eV)  =    2.2 heating time =  584. eTemp = 5000.
 Run:  212, step on M trj: 10891 MOs   9  0 IEE  (eV)  =    1.8 heating time =  510. eTemp = 5000.
 Run:  213, step on M trj: 10967 MOs   3  0 IEE  (eV)  =    9.2 heating time = 1055. eTemp = 5000.
 Run:  214, step on M trj: 11019 MOs   5  0 IEE  (eV)  =    4.5 heating time =  870. eTemp = 5000.
 Run:  215, step on M trj: 11032 MOs   3  0 IEE  (eV)  =    9.2 heating time = 1055. eTemp = 5000.
 Run:  216, step on M trj: 11050 MOs   8  0 IEE  (eV)  =    5.0 heating time =  584. eTemp = 5000.
 Run:  217, step on M trj: 11084 MOs   6  0 IEE  (eV)  =    2.9 heating time =  735. eTemp = 5000.
 Run:  218, step on M trj: 11087 MOs   9  0 IEE  (eV)  =    4.7 heating time =  510. eTemp = 5000.
 Run:  219, step on M trj: 11092 MOs  16  8 IEE  (eV)  =   12.7 heating time =  584. eTemp = 5000.
 Run:  220, step on M trj: 11191 MOs  12  8 IEE  (eV)  =   14.4 heating time =  880. eTemp = 5000.
 Run:  221, step on M trj: 11199 MOs   3  0 IEE  (eV)  =   12.4 heating time = 1055. eTemp = 5000.
 Run:  222, step on M trj: 11285 MOs   9  0 IEE  (eV)  =    4.7 heating time =  510. eTemp = 5000.
 Run:  223, step on M trj: 11289 MOs  12  0 IEE  (eV)  =    1.0 heating time =  296. eTemp = 5000.
 Run:  224, step on M trj: 11306 MOs  13  0 IEE  (eV)  =    0.8 heating time =  222. eTemp = 5000.
 Run:  225, step on M trj: 11421 MOs  10  0 IEE  (eV)  =    1.5 heating time =  440. eTemp = 5000.
 Run:  226, step on M trj: 11471 MOs   8  0 IEE  (eV)  =    8.1 heating time =  584. eTemp = 5000.
 Run:  227, step on M trj: 11507 MOs   4  0 IEE  (eV)  =    5.2 heating time =  974. eTemp = 5000.
 Run:  228, step on M trj: 11512 MOs  13  0 IEE  (eV)  =    3.6 heating time =  222. eTemp = 5000.
 Run:  229, step on M trj: 11519 MOs   6  0 IEE  (eV)  =    2.8 heating time =  735. eTemp = 5000.
 Run:  230, step on M trj: 11602 MOs   6  0 IEE  (eV)  =    3.0 heating time =  735. eTemp = 5000.
 Run:  231, step on M trj: 11627 MOs  15  0 IEE  (eV)  =    3.4 heating time =  200. eTemp = 5000.
 Run:  232, step on M trj: 11674 MOs  16  8 IEE  (eV)  =   13.2 heating time =  584. eTemp = 5000.
 Run:  233, step on M trj: 11759 MOs   6  0 IEE  (eV)  =    8.8 heating time =  735. eTemp = 5000.
 Run:  234, step on M trj: 11889 MOs  15  0 IEE  (eV)  =    6.2 heating time =  200. eTemp = 5000.
 Run:  235, step on M trj: 11918 MOs  11  0 IEE  (eV)  =    7.3 heating time =  367. eTemp = 5000.
 Run:  236, step on M trj: 11929 MOs   8  0 IEE  (eV)  =    2.3 heating time =  584. eTemp = 5000.
 Run:  237, step on M trj: 11938 MOs  10  0 IEE  (eV)  =    4.6 heating time =  440. eTemp = 5000.
 Run:  238, step on M trj: 12081 MOs   9  0 IEE  (eV)  =    7.8 heating time =  510. eTemp = 5000.
 Run:  239, step on M trj: 12140 MOs  12  0 IEE  (eV)  =    4.0 heating time =  296. eTemp = 5000.
 Run:  240, step on M trj: 12146 MOs   8  0 IEE  (eV)  =    2.2 heating time =  584. eTemp = 5000.
 Run:  241, step on M trj: 12182 MOs   6  0 IEE  (eV)  =    3.0 heating time =  735. eTemp = 5000.
 Run:  242, step on M trj: 12263 MOs  10  7 IEE  (eV)  =   15.6 heating time = 1104. eTemp = 5000.
 Run:  243, step on M trj: 12436 MOs  15  0 IEE  (eV)  =    0.3 heating time =  200. eTemp = 5000.
 Run:  244, step on M trj: 12455 MOs   5  0 IEE  (eV)  =   10.8 heating time =  870. eTemp = 5000.
 Run:  245, step on M trj: 12491 MOs  11  0 IEE  (eV)  =    7.3 heating time =  367. eTemp = 5000.
 Run:  246, step on M trj: 12562 MOs  12  0 IEE  (eV)  =    6.8 heating time =  296. eTemp = 5000.
 Run:  247, step on M trj: 12575 MOs  12  0 IEE  (eV)  =    3.9 heating time =  296. eTemp = 5000.
 Run:  248, step on M trj: 12589 MOs  11  0 IEE  (eV)  =    1.1 heating time =  367. eTemp = 5000.
 Run:  249, step on M trj: 12658 MOs  12  0 IEE  (eV)  =    6.7 heating time =  296. eTemp = 5000.
 Run:  250, step on M trj: 12667 MOs  16  8 IEE  (eV)  =   13.4 heating time =  584. eTemp = 5000.
 Run:  251, step on M trj: 12734 MOs  15  0 IEE  (eV)  =    3.3 heating time =  200. eTemp = 5000.
 Run:  252, step on M trj: 12785 MOs   8  0 IEE  (eV)  =    5.2 heating time =  584. eTemp = 5000.
 Run:  253, step on M trj: 12988 MOs   5  0 IEE  (eV)  =   10.4 heating time =  870. eTemp = 5000.
 Run:  254, step on M trj: 13003 MOs   6  0 IEE  (eV)  =    8.7 heating time =  735. eTemp = 5000.
 Run:  255, step on M trj: 13026 MOs  15  7 IEE  (eV)  =   14.4 heating time =  752. eTemp = 5000.
 Run:  256, step on M trj: 13059 MOs   6  0 IEE  (eV)  =    2.8 heating time =  735. eTemp = 5000.
 Run:  257, step on M trj: 13068 MOs  10  8 IEE  (eV)  =   15.1 heating time = 1025. eTemp = 5000.
 Run:  258, step on M trj: 13106 MOs  13  0 IEE  (eV)  =    3.7 heating time =  222. eTemp = 5000.
 Run:  259, step on M trj: 13200 MOs   6  0 IEE  (eV)  =    3.0 heating time =  735. eTemp = 5000.
 Run:  260, step on M trj: 13212 MOs   8  0 IEE  (eV)  =    5.2 heating time =  584. eTemp = 5000.
 Run:  261, step on M trj: 13307 MOs   8  0 IEE  (eV)  =    8.1 heating time =  584. eTemp = 5000.
 Run:  262, step on M trj: 13325 MOs   6  0 IEE  (eV)  =    5.8 heating time =  735. eTemp = 5000.
 Run:  263, step on M trj: 13339 MOs  15  0 IEE  (eV)  =    0.4 heating time =  200. eTemp = 5000.
 Run:  264, step on M trj: 13351 MOs  10  0 IEE  (eV)  =    4.6 heating time =  440. eTemp = 5000.
 Run:  265, step on M trj: 13379 MOs   3  0 IEE  (eV)  =    9.2 heating time = 1055. eTemp = 5000.
 Run:  266, step on M trj: 13382 MOs  14  0 IEE  (eV)  =    0.6 heating time =  200. eTemp = 5000.
 Run:  267, step on M trj: 13429 MOs  12  0 IEE  (eV)  =    1.1 heating time =  296. eTemp = 5000.
 Run:  268, step on M trj: 13544 MOs   7  0 IEE  (eV)  =    2.6 heating time =  663. eTemp = 5000.
 Run:  269, step on M trj: 13548 MOs  14  0 IEE  (eV)  =    6.5 heating time =  200. eTemp = 5000.
 Run:  270, step on M trj: 13591 MOs   5  0 IEE  (eV)  =    4.4 heating time =  870. eTemp = 5000.
 Run:  271, step on M trj: 13623 MOs  13  0 IEE  (eV)  =    3.7 heating time =  222. eTemp = 5000.
 Run:  272, step on M trj: 13666 MOs  11  0 IEE  (eV)  =    7.1 heating time =  367. eTemp = 5000.
 Run:  273, step on M trj: 13677 MOs  13  0 IEE  (eV)  =    0.8 heating time =  222. eTemp = 5000.
 Run:  274, step on M trj: 13730 MOs  10  0 IEE  (eV)  =    4.5 heating time =  440. eTemp = 5000.
 Run:  275, step on M trj: 13851 MOs  13  0 IEE  (eV)  =    6.6 heating time =  222. eTemp = 5000.
 Run:  276, step on M trj: 13897 MOs   4  0 IEE  (eV)  =    5.3 heating time =  974. eTemp = 5000.
 Run:  277, step on M trj: 13936 MOs   9  0 IEE  (eV)  =    1.8 heating time =  510. eTemp = 5000.
 Run:  278, step on M trj: 14006 MOs  16  0 IEE  (eV)  =    2.7 heating time =  200. eTemp = 5000.
 Run:  279, step on M trj: 14032 MOs   4  0 IEE  (eV)  =    5.5 heating time =  974. eTemp = 5000.
 Run:  280, step on M trj: 14091 MOs   6  0 IEE  (eV)  =    8.9 heating time =  735. eTemp = 5000.
 Run:  281, step on M trj: 14116 MOs   4  0 IEE  (eV)  =    5.3 heating time =  974. eTemp = 5000.
 Run:  282, step on M trj: 14159 MOs  11  0 IEE  (eV)  =    1.3 heating time =  367. eTemp = 5000.
 Run:  283, step on M trj: 14193 MOs   5  0 IEE  (eV)  =   10.3 heating time =  870. eTemp = 5000.
 Run:  284, step on M trj: 14225 MOs   5  0 IEE  (eV)  =   10.0 heating time =  870. eTemp = 5000.
 Run:  285, step on M trj: 14329 MOs   4  0 IEE  (eV)  =    8.4 heating time =  974. eTemp = 5000.
 Run:  286, step on M trj: 14403 MOs   8  0 IEE  (eV)  =    2.3 heating time =  584. eTemp = 5000.
 Run:  287, step on M trj: 14437 MOs   3  0 IEE  (eV)  =    9.1 heating time = 1055. eTemp = 5000.
 Run:  288, step on M trj: 14446 MOs   3  0 IEE  (eV)  =    9.2 heating time = 1055. eTemp = 5000.
 Run:  289, step on M trj: 14470 MOs   8  0 IEE  (eV)  =    2.3 heating time =  584. eTemp = 5000.
 Run:  290, step on M trj: 14503 MOs   3  0 IEE  (eV)  =    6.0 heating time = 1055. eTemp = 5000.
 Run:  291, step on M trj: 14519 MOs   9  0 IEE  (eV)  =    7.7 heating time =  510. eTemp = 5000.
 Run:  292, step on M trj: 14562 MOs   6  0 IEE  (eV)  =    8.8 heating time =  735. eTemp = 5000.
 Run:  293, step on M trj: 14569 MOs   9  0 IEE  (eV)  =    7.7 heating time =  510. eTemp = 5000.
 Run:  294, step on M trj: 14612 MOs   3  0 IEE  (eV)  =    9.2 heating time = 1055. eTemp = 5000.
 Run:  295, step on M trj: 14624 MOs   3  0 IEE  (eV)  =    9.4 heating time = 1055. eTemp = 5000.
 Run:  296, step on M trj: 14667 MOs  16  8 IEE  (eV)  =   12.9 heating time =  584. eTemp = 5000.
 Run:  297, step on M trj: 14669 MOs   7  0 IEE  (eV)  =    8.5 heating time =  663. eTemp = 5000.
 Run:  298, step on M trj: 14734 MOs  15  0 IEE  (eV)  =    0.2 heating time =  200. eTemp = 5000.
 Run:  299, step on M trj: 14841 MOs  10  0 IEE  (eV)  =    4.6 heating time =  440. eTemp = 5000.
 Run:  300, step on M trj: 14919 MOs  16  8 IEE  (eV)  =   13.3 heating time =  584. eTemp = 5000.
 
         300  done.
 
 
 average IEE (eV) +/-       5.93     3.79
 average T (K)             4590.7
 average heating t (fs)     593.6
 tmax  ps                    10.0
 # valence electrons      32

 Estimated single core run time (h/d)    13.0    0.54

 generating temporary dirs in TMPQCXMS ...
 
 !!!!!!!!!!!!!!!!!!!!!!!!!!!!!!!!!!!!!!!!!!!!!!!!!
 if this is not a restart (ie if you dont
 want to improve statistics), delete <qcxms.res>!
 !!!!!!!!!!!!!!!!!!!!!!!!!!!!!!!!!!!!!!!!!!!!!!!!!
 
 re-call of important run parameters:
 
 QC Program            : xTB
 QC Level              : GFN2-xTB
 
 total traj.   (ntraj) :  300
 time steps    (tstep) :    0.50 fs
 Initial temp. (tinit) :    5.00 K
 M+ Ion charge(charge) :    1
 
------------ EI settings -----------
 E(e-impact)   (eimp0) :   70.00 eV
 Iee/atom     (ieeatm) :    0.60 eV/atom
 relax. time  (trelax) : 2000.00 fs
 
                      --- QCxMS V5.2.1Sep 20 18:00:00 CEST 2022  ---
 

Starting 8 qcxms runs, each using 2 threads.

