6
 energy: -18.678641813123 gnorm: 0.000885248329 xtb: 6.6.1 (8d0f1dd)
Cl           1.93471021905050        0.54078848845260       -0.00017601061310
Cl           0.17605905653481       -1.76362681495072        0.00044617979893
O           -1.88432401840546        0.32700143359322       -0.00081322201815
N           -0.59087904874081        0.79501988462564        0.00085661040037
C            0.34405981985789       -0.04087138022241       -0.00045828796881
H           -2.42922085841467        1.12900121473676        0.00025155795427
