  6 
 
 Cl    2.0466    0.4611    0.0000 
 Cl   -0.0009   -1.6286    0.0001 
 O    -1.8328    0.2360   -0.0001 
 N    -0.5971    0.8871    0.0001 
 C     0.3842    0.0443   -0.0001 
 H    -2.4496    0.9874    0.0001 
