Heeelllllooooo 80
Total number of processors on max-exfl082 is 80 
 Number of phyiscal cores on max-exfl082 40 
NumSimTasks is 16 
Sat Aug 19 15:02:26 CEST 2023


                      *********************************************
                      *                                           *
                      *            Q   C   x   M   S              *
                      *                                           *
                      *                  V5.2.1                   *
                      *        Sep 20 18:00:00 CEST 2022          *
                      *                                           *
                      *                S. Grimme                  *
                      *                J. Koopman                 *
                      * Mulliken Center for Theoretical Chemistry *
                      *             Universitaet Bonn             *
                      *                                           *
                      *********************************************
 
 QCxMS is free software: you can redistribute it and/or modify it under
 the terms of the GNU Lesser General Public License as published by 
 the Free Software Foundation, either version 3 of the License, or 
 (at your option) any later version.
 
 QCxMS is distributed in the hope that it will be useful, 
 but WITHOUT ANY WARRANTY; without even the implied warranty of 
 MERCHANTABILITY or FITNESS FOR A PARTICULAR PURPOSE.  See the 
 GNU Lesser General Public License for more details.
 
Cite this work as:
S.Grimme, Angew.Chem.Int.Ed. 52 (2013) 6306-6312.
 
for the CID module:
J. Koopman, S. Grimme, J. Am. Soc. Mass Spectrom., (2021),  DOI: 10.1021/jasms.1c00098 
 
with respect to negative/multiple charges:
J. Koopman, S. Grimme, ChemRxiv, (2022),  DOI: 10.26434/chemrxiv-2022-w5260 
 
for the GFN1-xTB implementation:
V. Asgeirsson, C.Bauer, S. Grimme, Chem. Sci. 8 (2017) 4879
 
for the GFN2-xTB implementation:
 J. Koopman, S. Grimme, ACS Omega 4 (12) (2019) 15120-15133,  DOI: 10.1021/acsomega.9b02011 
 
 changed by input:
>program xtb                                                                     
>method  ei                                                                      
>ntraj  300                                                                      
>tmax  10                                                                        
>tinit 5                                                                         
>ieeatm 0.6                                                                      
 
              ************************************************************
                       Mode:          Electron Impact (EI)         
              ************************************************************
 
----- Internal program parameters -----
 
 QC Program            : xTB
 QC Level              : GFN2-xTB
 Dispersion            : D4
 MO spectrum with      : xTB     
 
 M+ Ion charge(charge) :    1
 total traj.   (ntraj) :  300
 time steps    (tstep) :    0.50 fs
 sim. time / MD (tmax) :   10.00 ps
 Initial temp. (tinit) :    5.00 K
 
------------ EI settings -----------
 E(e-impact)   (eimp0) :   70.00 eV
 Iee/atom     (ieeatm) :    0.60 eV/atom
 relax. time  (trelax) : 2000.00 fs
 
--------------------------------------------
 qc path              /usr/local/bin/
--------------------------------------------
 xtbhome directory    ~/.XTBPARAM/
--------------------------------------------
 
 Generating uniform velocity distribution, T=       5.0
 Groundstate eTemp set to   298.149993896484     
 
 initializing GFN2-xTB ...
 initialization successful!
 energy =      -18.67952
 charge =              0
 mult   =              1
 etemp  =          298.1
 M trajactory, equilibration ...        7500

             E N T E R I N G   M D   M O D U L E

step   time [fs]    Epot       Ekin       Etot    error  #F   eTemp   frag. T
    500    250.    -18.67944   0.0003   -18.67916  0.0000 1     298.       5.
   1000    500.    -18.67941   0.0002   -18.67918  0.0000 1     298.       5.
   1500    750.    -18.67945   0.0002   -18.67922  0.0000 1     298.       5.
   2000   1000.    -18.67942   0.0002   -18.67922  0.0000 1     298.       5.
   2500   1250.    -18.67940   0.0002   -18.67923  0.0000 1     298.       5.
   3000   1500.    -18.67939   0.0002   -18.67922  0.0000 1     298.       5.
   3500   1750.    -18.67940   0.0002   -18.67923  0.0000 1     298.       5.
   4000   2000.    -18.67941   0.0002   -18.67922  0.0000 1     298.       5.
   4500   2250.    -18.67936   0.0001   -18.67923  0.0000 1     298.       5.
   5000   2500.    -18.67929   0.0001   -18.67923  0.0000 1     298.       5.
   5500   2750.    -18.67926   0.0000   -18.67922  0.0000 1     298.       5.
   6000   3000.    -18.67933   0.0001   -18.67922  0.0000 1     298.       5.
   6500   3250.    -18.67944   0.0002   -18.67922  0.0000 1     298.       5.
   7000   3500.    -18.67945   0.0002   -18.67923  0.0000 1     298.       5.
   7500   3750.    -18.67940   0.0002   -18.67922  0.0000 1     298.       5.
   7500   3750.    -18.67940   0.0002   -18.67923  0.0000 1     298.       5.

        E X I T   M D  because of tmax has been reached
 
 M trajactory, sampling ...       15000

             E N T E R I N G   M D   M O D U L E

step   time [fs]    Epot       Ekin       Etot    error  #F   eTemp   frag. T
    500   4000.    -18.67938   0.0002   -18.67922 -0.0000 1     298.       5.
   1000   4250.    -18.67940   0.0002   -18.67923  0.0000 1     298.       5.
   1500   4500.    -18.67941   0.0002   -18.67923  0.0000 1     298.       5.
   2000   4750.    -18.67938   0.0002   -18.67923  0.0000 1     298.       5.
   2500   5000.    -18.67935   0.0001   -18.67923  0.0000 1     298.       5.
   3000   5250.    -18.67927   0.0001   -18.67922 -0.0000 1     298.       5.
   3500   5500.    -18.67928   0.0001   -18.67923  0.0000 1     298.       5.
   4000   5750.    -18.67937   0.0002   -18.67922 -0.0000 1     298.       5.
   4500   6000.    -18.67945   0.0002   -18.67922 -0.0000 1     298.       5.
   5000   6250.    -18.67946   0.0002   -18.67923  0.0000 1     298.       5.
   5500   6500.    -18.67939   0.0002   -18.67923  0.0000 1     298.       5.
   6000   6750.    -18.67936   0.0001   -18.67922 -0.0000 1     298.       5.
   6500   7000.    -18.67941   0.0002   -18.67922 -0.0000 1     298.       5.
   7000   7250.    -18.67942   0.0002   -18.67923  0.0000 1     298.       5.
   7500   7500.    -18.67936   0.0001   -18.67923  0.0000 1     298.       5.
   8000   7750.    -18.67931   0.0001   -18.67922 -0.0000 1     298.       5.
   8500   8000.    -18.67929   0.0001   -18.67922 -0.0000 1     298.       5.
   9000   8250.    -18.67931   0.0001   -18.67922 -0.0000 1     298.       5.
   9500   8500.    -18.67939   0.0002   -18.67922 -0.0000 1     298.       5.
  10000   8750.    -18.67947   0.0002   -18.67922 -0.0000 1     298.       5.
  10500   9000.    -18.67944   0.0002   -18.67923  0.0000 1     298.       5.
  11000   9250.    -18.67939   0.0002   -18.67923  0.0000 1     298.       5.
  11500   9500.    -18.67936   0.0001   -18.67922 -0.0000 1     298.       5.
  12000   9750.    -18.67940   0.0002   -18.67923  0.0000 1     298.       5.
  12500  10000.    -18.67942   0.0002   -18.67923  0.0000 1     298.       5.
  13000  10250.    -18.67934   0.0001   -18.67923  0.0000 1     298.       5.
  13500  10500.    -18.67928   0.0001   -18.67922  0.0000 1     298.       5.
  14000  10750.    -18.67929   0.0001   -18.67922 -0.0000 1     298.       5.
  14500  11000.    -18.67935   0.0001   -18.67922 -0.0000 1     298.       5.
  15000  11250.    -18.67942   0.0002   -18.67922 -0.0000 1     298.       5.
  15000  11250.    -18.67942   0.0002   -18.67922 -0.0000 1     298.       5.

        E X I T   M D  because of tmax has been reached
 average Ekin     0.000147
 average Epot   -18.679372
 average Etot   -18.679225
 average T             5.2
 structures for fragmentation runs written
                      --- QCxMS V5.2.1Sep 20 18:00:00 CEST 2022  ---
Sat Aug 19 15:05:03 CEST 2023


                      *********************************************
                      *                                           *
                      *            Q   C   x   M   S              *
                      *                                           *
                      *                  V5.2.1                   *
                      *        Sep 20 18:00:00 CEST 2022          *
                      *                                           *
                      *                S. Grimme                  *
                      *                J. Koopman                 *
                      * Mulliken Center for Theoretical Chemistry *
                      *             Universitaet Bonn             *
                      *                                           *
                      *********************************************
 
 QCxMS is free software: you can redistribute it and/or modify it under
 the terms of the GNU Lesser General Public License as published by 
 the Free Software Foundation, either version 3 of the License, or 
 (at your option) any later version.
 
 QCxMS is distributed in the hope that it will be useful, 
 but WITHOUT ANY WARRANTY; without even the implied warranty of 
 MERCHANTABILITY or FITNESS FOR A PARTICULAR PURPOSE.  See the 
 GNU Lesser General Public License for more details.
 
Cite this work as:
S.Grimme, Angew.Chem.Int.Ed. 52 (2013) 6306-6312.
 
for the CID module:
J. Koopman, S. Grimme, J. Am. Soc. Mass Spectrom., (2021),  DOI: 10.1021/jasms.1c00098 
 
with respect to negative/multiple charges:
J. Koopman, S. Grimme, ChemRxiv, (2022),  DOI: 10.26434/chemrxiv-2022-w5260 
 
for the GFN1-xTB implementation:
V. Asgeirsson, C.Bauer, S. Grimme, Chem. Sci. 8 (2017) 4879
 
for the GFN2-xTB implementation:
 J. Koopman, S. Grimme, ACS Omega 4 (12) (2019) 15120-15133,  DOI: 10.1021/acsomega.9b02011 
 
 changed by input:
>program xtb                                                                     
>method  ei                                                                      
>ntraj  300                                                                      
>tmax  10                                                                        
>tinit 5                                                                         
>ieeatm 0.6                                                                      
 
              ************************************************************
                       Mode:          Electron Impact (EI)         
              ************************************************************
 
----- Internal program parameters -----
 
 QC Program            : xTB
 QC Level              : GFN2-xTB
 Dispersion            : D4
 MO spectrum with      : xTB     
 
 M+ Ion charge(charge) :    1
 total traj.   (ntraj) :  300
 time steps    (tstep) :    0.50 fs
 sim. time / MD (tmax) :   10.00 ps
 Initial temp. (tinit) :    5.00 K
 
------------ EI settings -----------
 E(e-impact)   (eimp0) :   70.00 eV
 Iee/atom     (ieeatm) :    0.60 eV/atom
 relax. time  (trelax) : 2000.00 fs
 
--------------------------------------------
 qc path              /usr/local/bin/
--------------------------------------------
 xtbhome directory    ~/.XTBPARAM/
--------------------------------------------
 
 reading qcxms.gs ...
--- Checking QC method for ions ---
 
 initializing GFN2-xTB ...
 initialization successful!
 energy =      -18.15410
 charge =              1
 mult   =              2
 etemp  =         5000.0
--- QC method okay ---
 
 *******************************************
       generating randomized ensemble 
 *******************************************
 reading inital coord/velo from qcxms.gs ...
 doing XTB2 for MO spectrum for M ...
 XTB-SCC levels (eV):
 M alpha/beta   -29.80  -29.71  -20.62  -19.31  -18.01  -16.40  -16.16  -16.11  -14.68  -14.06
 M alpha/beta   -12.87  -12.72  -12.52  -12.23  -11.83
 MO localization degree (number of centers)
 alpha/beta     1.46    1.48    2.24    3.14    2.92    3.92    3.13    3.92    3.96    3.77
 alpha/beta     2.27    1.94    2.46    2.51    4.57

 preparing the IEE distribution ...
 IEE a (eV) [determined]        :    0.110
 IEE b (eV) [determined]        :    0.770
 maximum IEE (eV)               :   58.167
 maximum of P(E) at (eV)        :    1.841
 average E for P(E) (eV)        :    3.828
 
 Run:    1, step on M trj:    57 MOs  15  0 IEE  (eV)  =    7.6 heating time =  200. eTemp = 5000.
 Run:    2, step on M trj:   254 MOs  15  0 IEE  (eV)  =    0.3 heating time =  200. eTemp = 5000.
 Run:    3, step on M trj:   265 MOs   8  0 IEE  (eV)  =    5.0 heating time =  652. eTemp = 5000.
 Run:    4, step on M trj:   295 MOs  14  0 IEE  (eV)  =    4.5 heating time =  200. eTemp = 5000.
 Run:    5, step on M trj:   306 MOs  10  0 IEE  (eV)  =    3.1 heating time =  425. eTemp = 5000.
 Run:    6, step on M trj:   382 MOs  10  0 IEE  (eV)  =    3.2 heating time =  425. eTemp = 5000.
 Run:    7, step on M trj:   383 MOs  11  0 IEE  (eV)  =    2.4 heating time =  304. eTemp = 5000.
 Run:    8, step on M trj:   605 MOs   9  0 IEE  (eV)  =    4.0 heating time =  515. eTemp = 5000.
 Run:    9, step on M trj:   622 MOs  15  0 IEE  (eV)  =    0.8 heating time =  200. eTemp = 5000.
 Run:   10, step on M trj:   647 MOs  15  0 IEE  (eV)  =    4.1 heating time =  200. eTemp = 5000.
 Run:   11, step on M trj:   682 MOs   9  0 IEE  (eV)  =    3.6 heating time =  515. eTemp = 5000.
 Run:   12, step on M trj:   746 MOs  10  0 IEE  (eV)  =    2.6 heating time =  425. eTemp = 5000.
 Run:   13, step on M trj:   763 MOs   9  0 IEE  (eV)  =    3.4 heating time =  515. eTemp = 5000.
 Run:   14, step on M trj:   811 MOs   9  0 IEE  (eV)  =    3.4 heating time =  515. eTemp = 5000.
 Run:   15, step on M trj:   821 MOs   7  0 IEE  (eV)  =    5.1 heating time =  720. eTemp = 5000.
 Run:   16, step on M trj:   919 MOs   9  0 IEE  (eV)  =    7.3 heating time =  515. eTemp = 5000.
 Run:   17, step on M trj:  1000 MOs  10  0 IEE  (eV)  =    2.7 heating time =  425. eTemp = 5000.
 Run:   18, step on M trj:  1011 MOs  14  0 IEE  (eV)  =    1.3 heating time =  200. eTemp = 5000.
 Run:   19, step on M trj:  1042 MOs  10  0 IEE  (eV)  =    2.6 heating time =  425. eTemp = 5000.
 Run:   20, step on M trj:  1092 MOs  10  0 IEE  (eV)  =    3.0 heating time =  425. eTemp = 5000.
 Run:   21, step on M trj:  1135 MOs  11  0 IEE  (eV)  =    2.3 heating time =  304. eTemp = 5000.
 Run:   22, step on M trj:  1276 MOs  15  0 IEE  (eV)  =    0.7 heating time =  200. eTemp = 5000.
 Run:   23, step on M trj:  1349 MOs  15  0 IEE  (eV)  =    5.7 heating time =  200. eTemp = 5000.
 Run:   24, step on M trj:  1359 MOs   4  0 IEE  (eV)  =   11.4 heating time = 1073. eTemp = 5000.
 Run:   25, step on M trj:  1378 MOs  15  0 IEE  (eV)  =    0.5 heating time =  200. eTemp = 5000.
 Run:   26, step on M trj:  1465 MOs   9  0 IEE  (eV)  =    3.7 heating time =  515. eTemp = 5000.
 Run:   27, step on M trj:  1575 MOs  12  0 IEE  (eV)  =    1.8 heating time =  232. eTemp = 5000.
 Run:   28, step on M trj:  1783 MOs  12  0 IEE  (eV)  =    1.7 heating time =  232. eTemp = 5000.
 Run:   29, step on M trj:  1817 MOs  10  0 IEE  (eV)  =    2.9 heating time =  425. eTemp = 5000.
 Run:   30, step on M trj:  1838 MOs  11  0 IEE  (eV)  =    2.2 heating time =  304. eTemp = 5000.
 Run:   31, step on M trj:  1980 MOs   6  0 IEE  (eV)  =    8.9 heating time =  795. eTemp = 5000.
 Run:   32, step on M trj:  2308 MOs   9  0 IEE  (eV)  =    3.5 heating time =  515. eTemp = 5000.
 Run:   33, step on M trj:  2322 MOs  15  0 IEE  (eV)  =    0.4 heating time =  200. eTemp = 5000.
 Run:   34, step on M trj:  2323 MOs  14  0 IEE  (eV)  =    4.8 heating time =  200. eTemp = 5000.
 Run:   35, step on M trj:  2377 MOs  14  0 IEE  (eV)  =    6.2 heating time =  200. eTemp = 5000.
 Run:   36, step on M trj:  2389 MOs   9  0 IEE  (eV)  =    4.0 heating time =  515. eTemp = 5000.
 Run:   37, step on M trj:  2457 MOs  14  0 IEE  (eV)  =    4.7 heating time =  200. eTemp = 5000.
 Run:   38, step on M trj:  2531 MOs  15  0 IEE  (eV)  =    4.1 heating time =  200. eTemp = 5000.
 Run:   39, step on M trj:  2548 MOs  10  0 IEE  (eV)  =    2.5 heating time =  425. eTemp = 5000.
 Run:   40, step on M trj:  2583 MOs  12  0 IEE  (eV)  =    6.6 heating time =  232. eTemp = 5000.
 Run:   41, step on M trj:  2731 MOs   6  0 IEE  (eV)  =    5.3 heating time =  795. eTemp = 5000.
 Run:   42, step on M trj:  2836 MOs  15  0 IEE  (eV)  =    0.7 heating time =  200. eTemp = 5000.
 Run:   43, step on M trj:  2852 MOs   8  0 IEE  (eV)  =    4.8 heating time =  652. eTemp = 5000.
 Run:   44, step on M trj:  2890 MOs  10  0 IEE  (eV)  =    2.6 heating time =  425. eTemp = 5000.
 Run:   45, step on M trj:  2913 MOs  14  0 IEE  (eV)  =    6.2 heating time =  200. eTemp = 5000.
 Run:   46, step on M trj:  2985 MOs  12  0 IEE  (eV)  =    6.7 heating time =  232. eTemp = 5000.
 Run:   47, step on M trj:  3005 MOs  15  0 IEE  (eV)  =    0.7 heating time =  200. eTemp = 5000.
 Run:   48, step on M trj:  3019 MOs   7  0 IEE  (eV)  =   10.1 heating time =  720. eTemp = 5000.
 Run:   49, step on M trj:  3023 MOs  15  0 IEE  (eV)  =    4.5 heating time =  200. eTemp = 5000.
 Run:   50, step on M trj:  3037 MOs  10  0 IEE  (eV)  =    3.2 heating time =  425. eTemp = 5000.
 Run:   51, step on M trj:  3043 MOs  15  0 IEE  (eV)  =    0.9 heating time =  200. eTemp = 5000.
 Run:   52, step on M trj:  3054 MOs  15  0 IEE  (eV)  =    4.0 heating time =  200. eTemp = 5000.
 Run:   53, step on M trj:  3122 MOs  10  0 IEE  (eV)  =    6.5 heating time =  425. eTemp = 5000.
 Run:   54, step on M trj:  3132 MOs   8  0 IEE  (eV)  =    5.0 heating time =  652. eTemp = 5000.
 Run:   55, step on M trj:  3138 MOs  11  0 IEE  (eV)  =    5.4 heating time =  304. eTemp = 5000.
 Run:   56, step on M trj:  3145 MOs   3  0 IEE  (eV)  =    9.3 heating time = 1201. eTemp = 5000.
 Run:   57, step on M trj:  3157 MOs   8  0 IEE  (eV)  =   11.8 heating time =  652. eTemp = 5000.
 Run:   58, step on M trj:  3173 MOs  11  0 IEE  (eV)  =    1.6 heating time =  304. eTemp = 5000.
 Run:   59, step on M trj:  3270 MOs  15  0 IEE  (eV)  =    0.1 heating time =  200. eTemp = 5000.
 Run:   60, step on M trj:  3302 MOs  10  0 IEE  (eV)  =    2.6 heating time =  425. eTemp = 5000.
 Run:   61, step on M trj:  3328 MOs   5  0 IEE  (eV)  =   11.9 heating time =  945. eTemp = 5000.
 Run:   62, step on M trj:  3435 MOs  10  0 IEE  (eV)  =    2.8 heating time =  425. eTemp = 5000.
 Run:   63, step on M trj:  3441 MOs  14  0 IEE  (eV)  =    6.3 heating time =  200. eTemp = 5000.
 Run:   64, step on M trj:  3470 MOs  11  0 IEE  (eV)  =    1.7 heating time =  304. eTemp = 5000.
 Run:   65, step on M trj:  3566 MOs   6  0 IEE  (eV)  =    5.6 heating time =  795. eTemp = 5000.
 Run:   66, step on M trj:  3579 MOs   5  0 IEE  (eV)  =    6.9 heating time =  945. eTemp = 5000.
 Run:   67, step on M trj:  3611 MOs  15  0 IEE  (eV)  =    5.8 heating time =  200. eTemp = 5000.
 Run:   68, step on M trj:  3773 MOs  15  0 IEE  (eV)  =    4.2 heating time =  200. eTemp = 5000.
 Run:   69, step on M trj:  3849 MOs  15  0 IEE  (eV)  =    7.7 heating time =  200. eTemp = 5000.
 Run:   70, step on M trj:  3851 MOs  12  0 IEE  (eV)  =    1.8 heating time =  232. eTemp = 5000.
 Run:   71, step on M trj:  3887 MOs   9  0 IEE  (eV)  =    7.3 heating time =  515. eTemp = 5000.
 Run:   72, step on M trj:  3892 MOs  14  0 IEE  (eV)  =    1.3 heating time =  200. eTemp = 5000.
 Run:   73, step on M trj:  3945 MOs  11  0 IEE  (eV)  =    2.1 heating time =  304. eTemp = 5000.
 Run:   74, step on M trj:  3985 MOs  14  0 IEE  (eV)  =    7.8 heating time =  200. eTemp = 5000.
 Run:   75, step on M trj:  4011 MOs  15  0 IEE  (eV)  =    4.4 heating time =  200. eTemp = 5000.
 Run:   76, step on M trj:  4049 MOs  15  0 IEE  (eV)  =    0.1 heating time =  200. eTemp = 5000.
 Run:   77, step on M trj:  4253 MOs  10  0 IEE  (eV)  =    2.8 heating time =  425. eTemp = 5000.
 Run:   78, step on M trj:  4394 MOs  15  0 IEE  (eV)  =    0.8 heating time =  200. eTemp = 5000.
 Run:   79, step on M trj:  4421 MOs  15  0 IEE  (eV)  =    4.3 heating time =  200. eTemp = 5000.
 Run:   80, step on M trj:  4457 MOs  15  0 IEE  (eV)  =    0.7 heating time =  200. eTemp = 5000.
 Run:   81, step on M trj:  4503 MOs   6  0 IEE  (eV)  =    8.7 heating time =  795. eTemp = 5000.
 Run:   82, step on M trj:  4515 MOs  15  0 IEE  (eV)  =    4.2 heating time =  200. eTemp = 5000.
 Run:   83, step on M trj:  4548 MOs   5  0 IEE  (eV)  =   13.9 heating time =  945. eTemp = 5000.
 Run:   84, step on M trj:  4613 MOs  15  0 IEE  (eV)  =    4.1 heating time =  200. eTemp = 5000.
 Run:   85, step on M trj:  4617 MOs  15  0 IEE  (eV)  =    5.9 heating time =  200. eTemp = 5000.
 Run:   86, step on M trj:  4624 MOs  13  0 IEE  (eV)  =    1.6 heating time =  200. eTemp = 5000.
 Run:   87, step on M trj:  4716 MOs  12  0 IEE  (eV)  =    1.5 heating time =  232. eTemp = 5000.
 Run:   88, step on M trj:  4728 MOs  13  0 IEE  (eV)  =    6.4 heating time =  200. eTemp = 5000.
 Run:   89, step on M trj:  4757 MOs  10  0 IEE  (eV)  =    3.0 heating time =  425. eTemp = 5000.
 Run:   90, step on M trj:  4850 MOs  14  0 IEE  (eV)  =    1.1 heating time =  200. eTemp = 5000.
 Run:   91, step on M trj:  4947 MOs   9  0 IEE  (eV)  =    3.9 heating time =  515. eTemp = 5000.
 Run:   92, step on M trj:  4958 MOs   8  0 IEE  (eV)  =    4.9 heating time =  652. eTemp = 5000.
 Run:   93, step on M trj:  4977 MOs  10  0 IEE  (eV)  =    2.4 heating time =  425. eTemp = 5000.
 Run:   94, step on M trj:  5031 MOs  10  0 IEE  (eV)  =    2.8 heating time =  425. eTemp = 5000.
 Run:   95, step on M trj:  5067 MOs  10  0 IEE  (eV)  =    2.7 heating time =  425. eTemp = 5000.
 Run:   96, step on M trj:  5087 MOs  15  0 IEE  (eV)  =    0.5 heating time =  200. eTemp = 5000.
 Run:   97, step on M trj:  5137 MOs   7  0 IEE  (eV)  =    5.0 heating time =  720. eTemp = 5000.
 Run:   98, step on M trj:  5176 MOs  15  0 IEE  (eV)  =    5.8 heating time =  200. eTemp = 5000.
 Run:   99, step on M trj:  5223 MOs  15  0 IEE  (eV)  =    0.3 heating time =  200. eTemp = 5000.
 Run:  100, step on M trj:  5238 MOs   9  0 IEE  (eV)  =    4.0 heating time =  515. eTemp = 5000.
 Run:  101, step on M trj:  5251 MOs  14  0 IEE  (eV)  =    1.2 heating time =  200. eTemp = 5000.
 Run:  102, step on M trj:  5288 MOs  11  0 IEE  (eV)  =    2.2 heating time =  304. eTemp = 5000.
 Run:  103, step on M trj:  5297 MOs  12  0 IEE  (eV)  =    1.5 heating time =  232. eTemp = 5000.
 Run:  104, step on M trj:  5363 MOs  13  0 IEE  (eV)  =    6.3 heating time =  200. eTemp = 5000.
 Run:  105, step on M trj:  5461 MOs  10  0 IEE  (eV)  =    2.9 heating time =  425. eTemp = 5000.
 Run:  106, step on M trj:  5546 MOs  10  0 IEE  (eV)  =    8.0 heating time =  425. eTemp = 5000.
 Run:  107, step on M trj:  5654 MOs  13  0 IEE  (eV)  =    1.3 heating time =  200. eTemp = 5000.
 Run:  108, step on M trj:  5681 MOs  12  0 IEE  (eV)  =    1.5 heating time =  232. eTemp = 5000.
 Run:  109, step on M trj:  5684 MOs  15  0 IEE  (eV)  =    0.9 heating time =  200. eTemp = 5000.
 Run:  110, step on M trj:  5842 MOs  12  0 IEE  (eV)  =    1.7 heating time =  232. eTemp = 5000.
 Run:  111, step on M trj:  5957 MOs  10  0 IEE  (eV)  =    2.8 heating time =  425. eTemp = 5000.
 Run:  112, step on M trj:  6011 MOs  11  0 IEE  (eV)  =    1.8 heating time =  304. eTemp = 5000.
 Run:  113, step on M trj:  6022 MOs   9  0 IEE  (eV)  =    3.7 heating time =  515. eTemp = 5000.
 Run:  114, step on M trj:  6123 MOs  15  0 IEE  (eV)  =    7.5 heating time =  200. eTemp = 5000.
 Run:  115, step on M trj:  6165 MOs   9  0 IEE  (eV)  =    3.9 heating time =  515. eTemp = 5000.
 Run:  116, step on M trj:  6167 MOs   5  0 IEE  (eV)  =    6.8 heating time =  945. eTemp = 5000.
 Run:  117, step on M trj:  6214 MOs  10  0 IEE  (eV)  =    2.8 heating time =  425. eTemp = 5000.
 Run:  118, step on M trj:  6253 MOs  12  0 IEE  (eV)  =    1.5 heating time =  232. eTemp = 5000.
 Run:  119, step on M trj:  6404 MOs   9  0 IEE  (eV)  =    3.9 heating time =  515. eTemp = 5000.
 Run:  120, step on M trj:  6408 MOs  12  0 IEE  (eV)  =    1.5 heating time =  232. eTemp = 5000.
 Run:  121, step on M trj:  6448 MOs   4  0 IEE  (eV)  =   13.2 heating time = 1073. eTemp = 5000.
 Run:  122, step on M trj:  6581 MOs   8  0 IEE  (eV)  =    4.8 heating time =  652. eTemp = 5000.
 Run:  123, step on M trj:  6636 MOs   6  0 IEE  (eV)  =    5.5 heating time =  795. eTemp = 5000.
 Run:  124, step on M trj:  6673 MOs  10  0 IEE  (eV)  =    3.2 heating time =  425. eTemp = 5000.
 Run:  125, step on M trj:  6814 MOs  15  0 IEE  (eV)  =    0.5 heating time =  200. eTemp = 5000.
 Run:  126, step on M trj:  6840 MOs   9  0 IEE  (eV)  =    7.2 heating time =  515. eTemp = 5000.
 Run:  127, step on M trj:  6914 MOs   9  0 IEE  (eV)  =    3.9 heating time =  515. eTemp = 5000.
 Run:  128, step on M trj:  6947 MOs   9  0 IEE  (eV)  =   10.4 heating time =  515. eTemp = 5000.
 Run:  129, step on M trj:  6960 MOs   9  0 IEE  (eV)  =    3.7 heating time =  515. eTemp = 5000.
 Run:  130, step on M trj:  7061 MOs  15  0 IEE  (eV)  =    0.6 heating time =  200. eTemp = 5000.
 Run:  131, step on M trj:  7107 MOs  15  0 IEE  (eV)  =    7.4 heating time =  200. eTemp = 5000.
 Run:  132, step on M trj:  7112 MOs  14  0 IEE  (eV)  =    1.0 heating time =  200. eTemp = 5000.
 Run:  133, step on M trj:  7167 MOs  15  0 IEE  (eV)  =    0.8 heating time =  200. eTemp = 5000.
 Run:  134, step on M trj:  7179 MOs  15  0 IEE  (eV)  =    0.2 heating time =  200. eTemp = 5000.
 Run:  135, step on M trj:  7201 MOs  11  0 IEE  (eV)  =    5.4 heating time =  304. eTemp = 5000.
 Run:  136, step on M trj:  7322 MOs   9  0 IEE  (eV)  =    3.5 heating time =  515. eTemp = 5000.
 Run:  137, step on M trj:  7422 MOs  13  0 IEE  (eV)  =    1.4 heating time =  200. eTemp = 5000.
 Run:  138, step on M trj:  7515 MOs  13  0 IEE  (eV)  =    1.6 heating time =  200. eTemp = 5000.
 Run:  139, step on M trj:  7557 MOs   9  0 IEE  (eV)  =    3.7 heating time =  515. eTemp = 5000.
 Run:  140, step on M trj:  7732 MOs  15  0 IEE  (eV)  =    5.8 heating time =  200. eTemp = 5000.
 Run:  141, step on M trj:  7779 MOs  15  0 IEE  (eV)  =    0.3 heating time =  200. eTemp = 5000.
 Run:  142, step on M trj:  7849 MOs  15  0 IEE  (eV)  =    4.4 heating time =  200. eTemp = 5000.
 Run:  143, step on M trj:  8024 MOs  11  0 IEE  (eV)  =    5.3 heating time =  304. eTemp = 5000.
 Run:  144, step on M trj:  8032 MOs   6  0 IEE  (eV)  =    8.9 heating time =  795. eTemp = 5000.
 Run:  145, step on M trj:  8034 MOs   9  0 IEE  (eV)  =    3.5 heating time =  515. eTemp = 5000.
 Run:  146, step on M trj:  8067 MOs  15  0 IEE  (eV)  =    4.1 heating time =  200. eTemp = 5000.
 Run:  147, step on M trj:  8086 MOs  14  0 IEE  (eV)  =    6.2 heating time =  200. eTemp = 5000.
 Run:  148, step on M trj:  8107 MOs  15  0 IEE  (eV)  =    4.1 heating time =  200. eTemp = 5000.
 Run:  149, step on M trj:  8122 MOs   9  0 IEE  (eV)  =    3.5 heating time =  515. eTemp = 5000.
 Run:  150, step on M trj:  8147 MOs  14  0 IEE  (eV)  =    6.2 heating time =  200. eTemp = 5000.
 Run:  151, step on M trj:  8170 MOs   4  0 IEE  (eV)  =    8.3 heating time = 1073. eTemp = 5000.
 Run:  152, step on M trj:  8173 MOs  10  0 IEE  (eV)  =    2.6 heating time =  425. eTemp = 5000.
 Run:  153, step on M trj:  8222 MOs  14  0 IEE  (eV)  =    4.5 heating time =  200. eTemp = 5000.
 Run:  154, step on M trj:  8247 MOs  15  0 IEE  (eV)  =    0.3 heating time =  200. eTemp = 5000.
 Run:  155, step on M trj:  8300 MOs   5  0 IEE  (eV)  =    6.7 heating time =  945. eTemp = 5000.
 Run:  156, step on M trj:  8353 MOs  11  0 IEE  (eV)  =    2.3 heating time =  304. eTemp = 5000.
 Run:  157, step on M trj:  8383 MOs  11  0 IEE  (eV)  =    2.2 heating time =  304. eTemp = 5000.
 Run:  158, step on M trj:  8397 MOs  11  0 IEE  (eV)  =    2.0 heating time =  304. eTemp = 5000.
 Run:  159, step on M trj:  8474 MOs  11  0 IEE  (eV)  =    2.1 heating time =  304. eTemp = 5000.
 Run:  160, step on M trj:  8540 MOs   8  0 IEE  (eV)  =    4.8 heating time =  652. eTemp = 5000.
 Run:  161, step on M trj:  8542 MOs   8  0 IEE  (eV)  =    8.5 heating time =  652. eTemp = 5000.
 Run:  162, step on M trj:  8548 MOs   9  0 IEE  (eV)  =    3.4 heating time =  515. eTemp = 5000.
 Run:  163, step on M trj:  8787 MOs  14  0 IEE  (eV)  =    4.6 heating time =  200. eTemp = 5000.
 Run:  164, step on M trj:  8837 MOs  15  0 IEE  (eV)  =    4.3 heating time =  200. eTemp = 5000.
 Run:  165, step on M trj:  8839 MOs   8  0 IEE  (eV)  =    8.5 heating time =  652. eTemp = 5000.
 Run:  166, step on M trj:  8972 MOs  12  0 IEE  (eV)  =    1.5 heating time =  232. eTemp = 5000.
 Run:  167, step on M trj:  8984 MOs  15  0 IEE  (eV)  =    7.4 heating time =  200. eTemp = 5000.
 Run:  168, step on M trj:  9025 MOs   9  0 IEE  (eV)  =    3.6 heating time =  515. eTemp = 5000.
 Run:  169, step on M trj:  9028 MOs   3  0 IEE  (eV)  =    9.6 heating time = 1201. eTemp = 5000.
 Run:  170, step on M trj:  9042 MOs  11  0 IEE  (eV)  =    5.3 heating time =  304. eTemp = 5000.
 Run:  171, step on M trj:  9056 MOs   4  0 IEE  (eV)  =   13.2 heating time = 1073. eTemp = 5000.
 Run:  172, step on M trj:  9119 MOs  15  0 IEE  (eV)  =    0.9 heating time =  200. eTemp = 5000.
 Run:  173, step on M trj:  9213 MOs   5  0 IEE  (eV)  =    6.7 heating time =  945. eTemp = 5000.
 Run:  174, step on M trj:  9224 MOs   9  0 IEE  (eV)  =    3.7 heating time =  515. eTemp = 5000.
 Run:  175, step on M trj:  9240 MOs  13  0 IEE  (eV)  =    1.5 heating time =  200. eTemp = 5000.
 Run:  176, step on M trj:  9272 MOs   9  0 IEE  (eV)  =    3.8 heating time =  515. eTemp = 5000.
 Run:  177, step on M trj:  9353 MOs   5  0 IEE  (eV)  =    7.0 heating time =  945. eTemp = 5000.
 Run:  178, step on M trj:  9451 MOs  11  0 IEE  (eV)  =    1.6 heating time =  304. eTemp = 5000.
 Run:  179, step on M trj:  9466 MOs  11  0 IEE  (eV)  =    2.3 heating time =  304. eTemp = 5000.
 Run:  180, step on M trj:  9470 MOs  14  0 IEE  (eV)  =    1.3 heating time =  200. eTemp = 5000.
 Run:  181, step on M trj:  9491 MOs  14  0 IEE  (eV)  =    7.8 heating time =  200. eTemp = 5000.
 Run:  182, step on M trj:  9511 MOs   4  0 IEE  (eV)  =   11.5 heating time = 1073. eTemp = 5000.
 Run:  183, step on M trj:  9522 MOs   7  0 IEE  (eV)  =   11.8 heating time =  720. eTemp = 5000.
 Run:  184, step on M trj:  9551 MOs  11  0 IEE  (eV)  =    1.8 heating time =  304. eTemp = 5000.
 Run:  185, step on M trj:  9567 MOs   6  0 IEE  (eV)  =    5.4 heating time =  795. eTemp = 5000.
 Run:  186, step on M trj:  9586 MOs  10  0 IEE  (eV)  =    6.5 heating time =  425. eTemp = 5000.
 Run:  187, step on M trj:  9659 MOs  14  0 IEE  (eV)  =    4.7 heating time =  200. eTemp = 5000.
 Run:  188, step on M trj:  9661 MOs  11  0 IEE  (eV)  =    2.3 heating time =  304. eTemp = 5000.
 Run:  189, step on M trj:  9677 MOs   8  0 IEE  (eV)  =    5.0 heating time =  652. eTemp = 5000.
 Run:  190, step on M trj:  9825 MOs  14  0 IEE  (eV)  =    1.0 heating time =  200. eTemp = 5000.
 Run:  191, step on M trj:  9881 MOs  13  0 IEE  (eV)  =    6.3 heating time =  200. eTemp = 5000.
 Run:  192, step on M trj:  9890 MOs  11  0 IEE  (eV)  =    2.3 heating time =  304. eTemp = 5000.
 Run:  193, step on M trj:  9913 MOs  14  0 IEE  (eV)  =    1.2 heating time =  200. eTemp = 5000.
 Run:  194, step on M trj:  9968 MOs   5  0 IEE  (eV)  =   11.0 heating time =  945. eTemp = 5000.
 Run:  195, step on M trj:  9986 MOs  11  0 IEE  (eV)  =    2.3 heating time =  304. eTemp = 5000.
 Run:  196, step on M trj: 10004 MOs   9  0 IEE  (eV)  =    3.4 heating time =  515. eTemp = 5000.
 Run:  197, step on M trj: 10070 MOs   9  0 IEE  (eV)  =    3.5 heating time =  515. eTemp = 5000.
 Run:  198, step on M trj: 10083 MOs  10  0 IEE  (eV)  =    2.4 heating time =  425. eTemp = 5000.
 Run:  199, step on M trj: 10130 MOs   9  0 IEE  (eV)  =    3.9 heating time =  515. eTemp = 5000.
 Run:  200, step on M trj: 10145 MOs  10  0 IEE  (eV)  =    2.4 heating time =  425. eTemp = 5000.
 Run:  201, step on M trj: 10146 MOs   9  0 IEE  (eV)  =    3.7 heating time =  515. eTemp = 5000.
 Run:  202, step on M trj: 10255 MOs  14  0 IEE  (eV)  =    1.0 heating time =  200. eTemp = 5000.
 Run:  203, step on M trj: 10306 MOs   6  0 IEE  (eV)  =    8.7 heating time =  795. eTemp = 5000.
 Run:  204, step on M trj: 10402 MOs   8  0 IEE  (eV)  =    4.9 heating time =  652. eTemp = 5000.
 Run:  205, step on M trj: 10515 MOs   6  0 IEE  (eV)  =   10.3 heating time =  795. eTemp = 5000.
 Run:  206, step on M trj: 10517 MOs  13  0 IEE  (eV)  =    1.4 heating time =  200. eTemp = 5000.
 Run:  207, step on M trj: 10543 MOs  13  0 IEE  (eV)  =    6.4 heating time =  200. eTemp = 5000.
 Run:  208, step on M trj: 10601 MOs  15  0 IEE  (eV)  =    0.6 heating time =  200. eTemp = 5000.
 Run:  209, step on M trj: 10643 MOs   5  0 IEE  (eV)  =    6.8 heating time =  945. eTemp = 5000.
 Run:  210, step on M trj: 10791 MOs   9  0 IEE  (eV)  =    7.1 heating time =  515. eTemp = 5000.
 Run:  211, step on M trj: 10832 MOs  13  0 IEE  (eV)  =    6.4 heating time =  200. eTemp = 5000.
 Run:  212, step on M trj: 10891 MOs   3  0 IEE  (eV)  =    9.4 heating time = 1201. eTemp = 5000.
 Run:  213, step on M trj: 10967 MOs   5  0 IEE  (eV)  =    7.1 heating time =  945. eTemp = 5000.
 Run:  214, step on M trj: 11019 MOs  15  0 IEE  (eV)  =    4.1 heating time =  200. eTemp = 5000.
 Run:  215, step on M trj: 11032 MOs  15  0 IEE  (eV)  =    7.6 heating time =  200. eTemp = 5000.
 Run:  216, step on M trj: 11050 MOs   4  0 IEE  (eV)  =   11.6 heating time = 1073. eTemp = 5000.
 Run:  217, step on M trj: 11084 MOs   9  0 IEE  (eV)  =    3.7 heating time =  515. eTemp = 5000.
 Run:  218, step on M trj: 11087 MOs  10  0 IEE  (eV)  =    3.2 heating time =  425. eTemp = 5000.
 Run:  219, step on M trj: 11092 MOs  11  0 IEE  (eV)  =    2.4 heating time =  304. eTemp = 5000.
 Run:  220, step on M trj: 11191 MOs  13  0 IEE  (eV)  =    6.4 heating time =  200. eTemp = 5000.
 Run:  221, step on M trj: 11199 MOs  15  0 IEE  (eV)  =    4.3 heating time =  200. eTemp = 5000.
 Run:  222, step on M trj: 11285 MOs  10  0 IEE  (eV)  =    2.7 heating time =  425. eTemp = 5000.
 Run:  223, step on M trj: 11289 MOs  10  0 IEE  (eV)  =    2.4 heating time =  425. eTemp = 5000.
 Run:  224, step on M trj: 11306 MOs  11  0 IEE  (eV)  =    2.0 heating time =  304. eTemp = 5000.
 Run:  225, step on M trj: 11421 MOs  10  0 IEE  (eV)  =    8.0 heating time =  425. eTemp = 5000.
 Run:  226, step on M trj: 11471 MOs  13  0 IEE  (eV)  =    1.4 heating time =  200. eTemp = 5000.
 Run:  227, step on M trj: 11507 MOs  13  0 IEE  (eV)  =    6.5 heating time =  200. eTemp = 5000.
 Run:  228, step on M trj: 11512 MOs  11  0 IEE  (eV)  =    1.9 heating time =  304. eTemp = 5000.
 Run:  229, step on M trj: 11519 MOs  12  0 IEE  (eV)  =    5.2 heating time =  232. eTemp = 5000.
 Run:  230, step on M trj: 11602 MOs   5  0 IEE  (eV)  =   14.1 heating time =  945. eTemp = 5000.
 Run:  231, step on M trj: 11627 MOs   6  0 IEE  (eV)  =   12.3 heating time =  795. eTemp = 5000.
 Run:  232, step on M trj: 11674 MOs  14  0 IEE  (eV)  =    7.8 heating time =  200. eTemp = 5000.
 Run:  233, step on M trj: 11759 MOs   5  0 IEE  (eV)  =    7.0 heating time =  945. eTemp = 5000.
 Run:  234, step on M trj: 11889 MOs  10  0 IEE  (eV)  =    2.9 heating time =  425. eTemp = 5000.
 Run:  235, step on M trj: 11918 MOs   9  0 IEE  (eV)  =    7.1 heating time =  515. eTemp = 5000.
 Run:  236, step on M trj: 11929 MOs  14  0 IEE  (eV)  =    1.0 heating time =  200. eTemp = 5000.
 Run:  237, step on M trj: 11938 MOs   9  0 IEE  (eV)  =    3.7 heating time =  515. eTemp = 5000.
 Run:  238, step on M trj: 12081 MOs  15  0 IEE  (eV)  =    4.1 heating time =  200. eTemp = 5000.
 Run:  239, step on M trj: 12140 MOs   9  0 IEE  (eV)  =    3.8 heating time =  515. eTemp = 5000.
 Run:  240, step on M trj: 12146 MOs  15  0 IEE  (eV)  =    0.6 heating time =  200. eTemp = 5000.
 Run:  241, step on M trj: 12182 MOs   6  0 IEE  (eV)  =   10.2 heating time =  795. eTemp = 5000.
 Run:  242, step on M trj: 12263 MOs   3  0 IEE  (eV)  =    9.3 heating time = 1201. eTemp = 5000.
 Run:  243, step on M trj: 12436 MOs   9  0 IEE  (eV)  =    7.3 heating time =  515. eTemp = 5000.
 Run:  244, step on M trj: 12455 MOs   7  0 IEE  (eV)  =    5.1 heating time =  720. eTemp = 5000.
 Run:  245, step on M trj: 12491 MOs  11  0 IEE  (eV)  =    2.1 heating time =  304. eTemp = 5000.
 Run:  246, step on M trj: 12562 MOs  10  0 IEE  (eV)  =    2.9 heating time =  425. eTemp = 5000.
 Run:  247, step on M trj: 12575 MOs  15  0 IEE  (eV)  =    0.3 heating time =  200. eTemp = 5000.
 Run:  248, step on M trj: 12589 MOs  11  0 IEE  (eV)  =    2.4 heating time =  304. eTemp = 5000.
 Run:  249, step on M trj: 12658 MOs  15  0 IEE  (eV)  =    5.9 heating time =  200. eTemp = 5000.
 Run:  250, step on M trj: 12667 MOs  12  0 IEE  (eV)  =    8.5 heating time =  232. eTemp = 5000.
 Run:  251, step on M trj: 12734 MOs   7  0 IEE  (eV)  =    5.1 heating time =  720. eTemp = 5000.
 Run:  252, step on M trj: 12785 MOs   6  0 IEE  (eV)  =    9.1 heating time =  795. eTemp = 5000.
 Run:  253, step on M trj: 12988 MOs   9  0 IEE  (eV)  =    3.9 heating time =  515. eTemp = 5000.
 Run:  254, step on M trj: 13003 MOs  14  0 IEE  (eV)  =    1.2 heating time =  200. eTemp = 5000.
 Run:  255, step on M trj: 13026 MOs  10  0 IEE  (eV)  =    6.5 heating time =  425. eTemp = 5000.
 Run:  256, step on M trj: 13059 MOs  10  0 IEE  (eV)  =    3.1 heating time =  425. eTemp = 5000.
 Run:  257, step on M trj: 13068 MOs  10  0 IEE  (eV)  =    3.0 heating time =  425. eTemp = 5000.
 Run:  258, step on M trj: 13106 MOs   8  0 IEE  (eV)  =    4.8 heating time =  652. eTemp = 5000.
 Run:  259, step on M trj: 13200 MOs  15  0 IEE  (eV)  =    0.3 heating time =  200. eTemp = 5000.
 Run:  260, step on M trj: 13212 MOs  15  0 IEE  (eV)  =    0.3 heating time =  200. eTemp = 5000.
 Run:  261, step on M trj: 13307 MOs   7  0 IEE  (eV)  =    5.0 heating time =  720. eTemp = 5000.
 Run:  262, step on M trj: 13325 MOs  14  0 IEE  (eV)  =    1.2 heating time =  200. eTemp = 5000.
 Run:  263, step on M trj: 13339 MOs  14  0 IEE  (eV)  =    6.0 heating time =  200. eTemp = 5000.
 Run:  264, step on M trj: 13351 MOs   8  0 IEE  (eV)  =    4.9 heating time =  652. eTemp = 5000.
 Run:  265, step on M trj: 13379 MOs  15  0 IEE  (eV)  =    0.3 heating time =  200. eTemp = 5000.
 Run:  266, step on M trj: 13382 MOs  14  0 IEE  (eV)  =    1.2 heating time =  200. eTemp = 5000.
 Run:  267, step on M trj: 13429 MOs  15  0 IEE  (eV)  =    5.8 heating time =  200. eTemp = 5000.
 Run:  268, step on M trj: 13544 MOs  12  0 IEE  (eV)  =    1.7 heating time =  232. eTemp = 5000.
 Run:  269, step on M trj: 13548 MOs  15  0 IEE  (eV)  =    5.9 heating time =  200. eTemp = 5000.
 Run:  270, step on M trj: 13591 MOs  11  0 IEE  (eV)  =    2.0 heating time =  304. eTemp = 5000.
 Run:  271, step on M trj: 13623 MOs  10  0 IEE  (eV)  =    6.6 heating time =  425. eTemp = 5000.
 Run:  272, step on M trj: 13666 MOs  10  0 IEE  (eV)  =    6.6 heating time =  425. eTemp = 5000.
 Run:  273, step on M trj: 13677 MOs  15  0 IEE  (eV)  =    5.9 heating time =  200. eTemp = 5000.
 Run:  274, step on M trj: 13730 MOs  15  0 IEE  (eV)  =    5.9 heating time =  200. eTemp = 5000.
 Run:  275, step on M trj: 13851 MOs  10  0 IEE  (eV)  =    2.6 heating time =  425. eTemp = 5000.
 Run:  276, step on M trj: 13897 MOs  13  0 IEE  (eV)  =    1.3 heating time =  200. eTemp = 5000.
 Run:  277, step on M trj: 13936 MOs  15  0 IEE  (eV)  =    0.6 heating time =  200. eTemp = 5000.
 Run:  278, step on M trj: 14006 MOs   5  0 IEE  (eV)  =   10.5 heating time =  945. eTemp = 5000.
 Run:  279, step on M trj: 14032 MOs  11  0 IEE  (eV)  =    5.4 heating time =  304. eTemp = 5000.
 Run:  280, step on M trj: 14091 MOs  15  0 IEE  (eV)  =    0.0 heating time =  200. eTemp = 5000.
 Run:  281, step on M trj: 14116 MOs  14  0 IEE  (eV)  =    1.0 heating time =  200. eTemp = 5000.
 Run:  282, step on M trj: 14159 MOs  10  0 IEE  (eV)  =    2.9 heating time =  425. eTemp = 5000.
 Run:  283, step on M trj: 14193 MOs   5  0 IEE  (eV)  =   10.5 heating time =  945. eTemp = 5000.
 Run:  284, step on M trj: 14225 MOs   4  0 IEE  (eV)  =    8.2 heating time = 1073. eTemp = 5000.
 Run:  285, step on M trj: 14329 MOs   9  0 IEE  (eV)  =    3.4 heating time =  515. eTemp = 5000.
 Run:  286, step on M trj: 14403 MOs   7  0 IEE  (eV)  =    5.1 heating time =  720. eTemp = 5000.
 Run:  287, step on M trj: 14437 MOs   3  0 IEE  (eV)  =    9.5 heating time = 1201. eTemp = 5000.
 Run:  288, step on M trj: 14446 MOs  11  0 IEE  (eV)  =    2.2 heating time =  304. eTemp = 5000.
 Run:  289, step on M trj: 14470 MOs   9  0 IEE  (eV)  =    3.9 heating time =  515. eTemp = 5000.
 Run:  290, step on M trj: 14503 MOs  14  0 IEE  (eV)  =    1.1 heating time =  200. eTemp = 5000.
 Run:  291, step on M trj: 14519 MOs  10  0 IEE  (eV)  =    2.5 heating time =  425. eTemp = 5000.
 Run:  292, step on M trj: 14562 MOs  14  0 IEE  (eV)  =    6.1 heating time =  200. eTemp = 5000.
 Run:  293, step on M trj: 14569 MOs  15  0 IEE  (eV)  =    5.9 heating time =  200. eTemp = 5000.
 Run:  294, step on M trj: 14612 MOs  15  0 IEE  (eV)  =    4.0 heating time =  200. eTemp = 5000.
 Run:  295, step on M trj: 14624 MOs   6  0 IEE  (eV)  =    5.6 heating time =  795. eTemp = 5000.
 Run:  296, step on M trj: 14667 MOs   9  0 IEE  (eV)  =    3.6 heating time =  515. eTemp = 5000.
 Run:  297, step on M trj: 14669 MOs   9  0 IEE  (eV)  =    3.5 heating time =  515. eTemp = 5000.
 Run:  298, step on M trj: 14734 MOs   9  0 IEE  (eV)  =    3.7 heating time =  515. eTemp = 5000.
 Run:  299, step on M trj: 14841 MOs  13  0 IEE  (eV)  =    1.4 heating time =  200. eTemp = 5000.
 Run:  300, step on M trj: 14919 MOs   7  0 IEE  (eV)  =    5.1 heating time =  720. eTemp = 5000.
 
         300  done.
 
 
 average IEE (eV) +/-       4.35     2.98
 average T (K)             5614.1
 average heating t (fs)     419.6
 tmax  ps                    10.0
 # valence electrons      30

 Estimated single core run time (h/d)    17.1    0.71

 generating temporary dirs in TMPQCXMS ...
 
 !!!!!!!!!!!!!!!!!!!!!!!!!!!!!!!!!!!!!!!!!!!!!!!!!
 if this is not a restart (ie if you dont
 want to improve statistics), delete <qcxms.res>!
 !!!!!!!!!!!!!!!!!!!!!!!!!!!!!!!!!!!!!!!!!!!!!!!!!
 
 re-call of important run parameters:
 
 QC Program            : xTB
 QC Level              : GFN2-xTB
 
 total traj.   (ntraj) :  300
 time steps    (tstep) :    0.50 fs
 Initial temp. (tinit) :    5.00 K
 M+ Ion charge(charge) :    1
 
------------ EI settings -----------
 E(e-impact)   (eimp0) :   70.00 eV
 Iee/atom     (ieeatm) :    0.60 eV/atom
 relax. time  (trelax) : 2000.00 fs
 
                      --- QCxMS V5.2.1Sep 20 18:00:00 CEST 2022  ---
 

Starting 16 qcxms runs, each using 2 threads.

