   34.968852 ,         0.473922401089343470
   35.976677 ,         0.248414990959806903
   36.965902 ,         0.151916016165648204
   36.982953 ,         0.000032850433691848
   37.973727 ,         0.080043369723675858
   38.980003 ,         0.000013140173476739
   41.997988 ,         0.114499100794019426
   42.995022 ,         0.000389056531670144
   43.001342 ,         0.001318598714151218
   43.002205 ,         0.000041934236905882
   43.005813 ,         3.277571413585195881
   43.998376 ,         0.000006989039201803
   44.002233 ,         0.000225978938429288
   44.002847 ,         0.010787179554856502
   44.009167 ,         0.032694477290875303
   44.010030 ,         0.001464925634112227
   44.012089 ,         0.000466112710571855
   45.005587 ,         0.000002329679733934
   45.006201 ,         0.000332937633105324
   45.010058 ,         0.005992877444344629
   46.013412 ,         0.000066587526621065
   60.971926 ,         0.455610285717967467
   61.968960 ,         0.001453711469036748
   61.975280 ,         0.005130746260920034
   62.968976 ,         0.146189629923237141
   62.972314 ,         0.000012216062652977
   63.966010 ,         0.000586371007342876
   63.972330 ,         0.001795761276650226
   64.969364 ,         0.000024432125305953
   76.966840 ,         2.567909394870911299
   77.963874 ,         0.008330662294236391
   77.970194 ,         0.030224467878669743
   77.971057 ,         0.001032726765466350
   77.974665 ,       100.000000000000000000
   78.963890 ,         0.815854117868118789
   78.967228 ,         0.000206545338065118
   78.971085 ,         0.005163633626956395
   78.971699 ,         0.361397414789132343
   78.978019 ,         1.009235735673384093
   78.978882 ,         0.042832284004166832
   78.980941 ,         0.016062106501562562
   79.960924 ,         0.003167028667279997
   79.967244 ,         0.008743752920272791
   79.968107 ,         0.000206545338065118
   79.971715 ,        31.768170880158987046
   79.974439 ,         0.000068848446021706
   79.975053 ,         0.008031053250781281
   79.978910 ,         0.182037210913282704
   80.968135 ,         0.001514665862571373
   80.968749 ,         0.072279478283138132
   80.975069 ,         0.305180017686328131
   80.975932 ,         0.016062106501562562
   80.977991 ,         0.002677017750260427
   81.972103 ,         0.005354035500520854
   81.975960 ,         0.058894392453516207
   82.979314 ,         0.002677017750260427
  112.943517 ,        25.635663853842899584
  113.940551 ,         0.090502245896995515
  113.946871 ,         0.256121334290009772
  113.947734 ,         0.012670314162183184
  113.949793 ,         0.004525111965604539
  114.940567 ,        16.290404135029021404
  114.943905 ,         0.000905022393120908
  114.947762 ,         0.048871208570038543
  115.937601 ,         0.047061165759268150
  115.943921 ,         0.159283946457203562
  115.944784 ,         0.007240179144967262
  115.946843 ,         0.000905022393120908
  116.937617 ,         2.620944982176243609
  116.940955 ,         0.003620089572483631
  116.944812 ,         0.028055695174483853
  117.934651 ,         0.009050223931209078
  117.940971 ,         0.028960716579869046
  117.943893 ,         0.000905022393120908
  117.948166 ,         0.000905022393120908
  118.941862 ,         0.004525111965604539
