<?xml version="1.0" encoding="UTF-8" standalone="no"?>
<!-- Created with Inkscape (http://www.inkscape.org/) -->

<svg
   xmlns:dc="http://purl.org/dc/elements/1.1/"
   xmlns:cc="http://creativecommons.org/ns#"
   xmlns:rdf="http://www.w3.org/1999/02/22-rdf-syntax-ns#"
   xmlns:svg="http://www.w3.org/2000/svg"
   xmlns="http://www.w3.org/2000/svg"
   xmlns:sodipodi="http://sodipodi.sourceforge.net/DTD/sodipodi-0.dtd"
   xmlns:inkscape="http://www.inkscape.org/namespaces/inkscape"
   width="297mm"
   height="210mm"
   viewBox="0 0 297 210"
   version="1.1"
   id="svg8"
   inkscape:version="0.92.5 (2060ec1f9f, 2020-04-08)"
   sodipodi:docname="theroretical_ms_workflow_scheme.svg">
  <defs
     id="defs2">
    <marker
       inkscape:isstock="true"
       style="overflow:visible"
       id="marker6130"
       refX="0.0"
       refY="0.0"
       orient="auto"
       inkscape:stockid="Arrow1Mstart">
      <path
         transform="scale(0.4) translate(10,0)"
         style="fill-rule:evenodd;stroke:#000000;stroke-width:1pt;stroke-opacity:1;fill:#000000;fill-opacity:1"
         d="M 0.0,0.0 L 5.0,-5.0 L -12.5,0.0 L 5.0,5.0 L 0.0,0.0 z "
         id="path6128" />
    </marker>
    <marker
       inkscape:stockid="Arrow1Mstart"
       orient="auto"
       refY="0.0"
       refX="0.0"
       id="Arrow1Mstart"
       style="overflow:visible"
       inkscape:isstock="true"
       inkscape:collect="always">
      <path
         id="path964"
         d="M 0.0,0.0 L 5.0,-5.0 L -12.5,0.0 L 5.0,5.0 L 0.0,0.0 z "
         style="fill-rule:evenodd;stroke:#000000;stroke-width:1pt;stroke-opacity:1;fill:#000000;fill-opacity:1"
         transform="scale(0.4) translate(10,0)" />
    </marker>
    <marker
       inkscape:stockid="Arrow1Mend"
       orient="auto"
       refY="0.0"
       refX="0.0"
       id="marker4658"
       style="overflow:visible;"
       inkscape:isstock="true">
      <path
         id="path4656"
         d="M 0.0,0.0 L 5.0,-5.0 L -12.5,0.0 L 5.0,5.0 L 0.0,0.0 z "
         style="fill-rule:evenodd;stroke:#000000;stroke-width:1pt;stroke-opacity:1;fill:#000000;fill-opacity:1"
         transform="scale(0.4) rotate(180) translate(10,0)" />
    </marker>
    <marker
       inkscape:stockid="Arrow1Mend"
       orient="auto"
       refY="0.0"
       refX="0.0"
       id="marker2708"
       style="overflow:visible;"
       inkscape:isstock="true">
      <path
         id="path2706"
         d="M 0.0,0.0 L 5.0,-5.0 L -12.5,0.0 L 5.0,5.0 L 0.0,0.0 z "
         style="fill-rule:evenodd;stroke:#000000;stroke-width:1pt;stroke-opacity:1;fill:#000000;fill-opacity:1"
         transform="scale(0.4) rotate(180) translate(10,0)" />
    </marker>
    <marker
       inkscape:isstock="true"
       style="overflow:visible;"
       id="marker1658"
       refX="0.0"
       refY="0.0"
       orient="auto"
       inkscape:stockid="Arrow1Mend"
       inkscape:collect="always">
      <path
         transform="scale(0.4) rotate(180) translate(10,0)"
         style="fill-rule:evenodd;stroke:#000000;stroke-width:1pt;stroke-opacity:1;fill:#000000;fill-opacity:1"
         d="M 0.0,0.0 L 5.0,-5.0 L -12.5,0.0 L 5.0,5.0 L 0.0,0.0 z "
         id="path1656" />
    </marker>
    <marker
       inkscape:stockid="Arrow1Mend"
       orient="auto"
       refY="0.0"
       refX="0.0"
       id="marker1268"
       style="overflow:visible;"
       inkscape:isstock="true"
       inkscape:collect="always">
      <path
         id="path1266"
         d="M 0.0,0.0 L 5.0,-5.0 L -12.5,0.0 L 5.0,5.0 L 0.0,0.0 z "
         style="fill-rule:evenodd;stroke:#000000;stroke-width:1pt;stroke-opacity:1;fill:#000000;fill-opacity:1"
         transform="scale(0.4) rotate(180) translate(10,0)" />
    </marker>
    <marker
       inkscape:stockid="Arrow1Send"
       orient="auto"
       refY="0.0"
       refX="0.0"
       id="Arrow1Send"
       style="overflow:visible;"
       inkscape:isstock="true">
      <path
         id="path973"
         d="M 0.0,0.0 L 5.0,-5.0 L -12.5,0.0 L 5.0,5.0 L 0.0,0.0 z "
         style="fill-rule:evenodd;stroke:#000000;stroke-width:1pt;stroke-opacity:1;fill:#000000;fill-opacity:1"
         transform="scale(0.2) rotate(180) translate(6,0)" />
    </marker>
    <marker
       inkscape:stockid="Arrow1Mend"
       orient="auto"
       refY="0.0"
       refX="0.0"
       id="Arrow1Mend"
       style="overflow:visible;"
       inkscape:isstock="true">
      <path
         id="path967"
         d="M 0.0,0.0 L 5.0,-5.0 L -12.5,0.0 L 5.0,5.0 L 0.0,0.0 z "
         style="fill-rule:evenodd;stroke:#000000;stroke-width:1pt;stroke-opacity:1;fill:#000000;fill-opacity:1"
         transform="scale(0.4) rotate(180) translate(10,0)" />
    </marker>
  </defs>
  <sodipodi:namedview
     id="base"
     pagecolor="#ffffff"
     bordercolor="#666666"
     borderopacity="1.0"
     inkscape:pageopacity="0.0"
     inkscape:pageshadow="2"
     inkscape:zoom="0.7"
     inkscape:cx="698.1999"
     inkscape:cy="369.58467"
     inkscape:document-units="mm"
     inkscape:current-layer="layer1"
     showgrid="false"
     inkscape:window-width="1848"
     inkscape:window-height="1016"
     inkscape:window-x="72"
     inkscape:window-y="27"
     inkscape:window-maximized="1" />
  <metadata
     id="metadata5">
    <rdf:RDF>
      <cc:Work
         rdf:about="">
        <dc:format>image/svg+xml</dc:format>
        <dc:type
           rdf:resource="http://purl.org/dc/dcmitype/StillImage" />
        <dc:title></dc:title>
      </cc:Work>
    </rdf:RDF>
  </metadata>
  <g
     inkscape:label="Layer 1"
     inkscape:groupmode="layer"
     id="layer1"
     transform="translate(0,-87)">
    <rect
       style="opacity:0.57099998;fill:#ff0400;fill-opacity:1;stroke:#830200;stroke-width:2;stroke-linecap:round;stroke-miterlimit:4;stroke-dasharray:none;stroke-dashoffset:0;stroke-opacity:1"
       id="rect834"
       width="65.053146"
       height="100.36599"
       x="4.7636189"
       y="141.77701"
       ry="9.3491602" />
    <rect
       ry="9.3491602"
       y="141.77701"
       x="77.0429"
       height="100.36599"
       width="65.053146"
       id="rect836"
       style="opacity:0.55199998;fill:#ffcb13;fill-opacity:1;stroke:#836600;stroke-width:2;stroke-linecap:round;stroke-miterlimit:4;stroke-dasharray:none;stroke-dashoffset:0;stroke-opacity:1" />
    <rect
       style="opacity:0.55199998;fill:#132dff;fill-opacity:1;stroke:#000f84;stroke-width:2;stroke-linecap:round;stroke-miterlimit:4;stroke-dasharray:none;stroke-dashoffset:0;stroke-opacity:1"
       id="rect842"
       width="65.053146"
       height="100.36599"
       x="221.60146"
       y="141.77701"
       ry="9.3491602" />
    <g
       id="g848"
       transform="matrix(0.95296476,0,0,0.913736,-3.5087862,21.221739)"
       style="stroke-width:2.14329123;stroke-miterlimit:4;stroke-dasharray:none">
      <rect
         ry="7.9902139"
         y="97.402428"
         x="160.31099"
         height="85.777298"
         width="68.390381"
         id="rect838"
         style="opacity:0.55199998;fill:#57ff13;fill-opacity:1;stroke:#299000;stroke-width:2.14329123;stroke-linecap:round;stroke-miterlimit:4;stroke-dasharray:none;stroke-dashoffset:0;stroke-opacity:1" />
      <rect
         style="opacity:0.55199998;fill:#2cff91;fill-opacity:1;stroke:#009044;stroke-width:2.14329123;stroke-linecap:round;stroke-miterlimit:4;stroke-dasharray:none;stroke-dashoffset:0;stroke-opacity:1"
         id="rect844"
         width="68.390381"
         height="85.777298"
         x="160.31099"
         y="190.53493"
         ry="7.9902139" />
    </g>
    <text
       xml:space="preserve"
       style="font-style:normal;font-weight:normal;font-size:14.11111069px;line-height:1.25;font-family:sans-serif;letter-spacing:0px;word-spacing:0px;fill:#000000;fill-opacity:1;stroke:none;stroke-width:0.26458332"
       x="37.047077"
       y="160.17262"
       id="text852"><tspan
         sodipodi:role="line"
         id="tspan850"
         x="37.047077"
         y="160.17262"
         style="font-style:normal;font-variant:normal;font-weight:bold;font-stretch:normal;font-size:11.28888893px;font-family:sans-serif;-inkscape-font-specification:'sans-serif Bold';text-align:center;text-anchor:middle;stroke-width:0.26458332">Step 1:</tspan><tspan
         sodipodi:role="line"
         x="37.047077"
         y="177.81151"
         style="font-size:7.76111126px;text-align:center;text-anchor:middle;stroke-width:0.26458332"
         id="tspan854">initial</tspan><tspan
         sodipodi:role="line"
         x="37.047077"
         y="195.45039"
         style="font-size:7.76111126px;text-align:center;text-anchor:middle;stroke-width:0.26458332"
         id="tspan856">optimization</tspan><tspan
         sodipodi:role="line"
         x="37.047077"
         y="213.08929"
         style="font-size:7.76111126px;text-align:center;text-anchor:middle;stroke-width:0.26458332"
         id="tspan858">with</tspan><tspan
         sodipodi:role="line"
         x="37.047077"
         y="230.72818"
         style="font-size:7.76111126px;text-align:center;text-anchor:middle;stroke-width:0.26458332"
         id="tspan860">xTB</tspan></text>
    <text
       id="text872"
       y="160.17262"
       x="109.01379"
       style="font-style:normal;font-weight:normal;font-size:14.11111069px;line-height:1.25;font-family:sans-serif;letter-spacing:0px;word-spacing:0px;fill:#000000;fill-opacity:1;stroke:none;stroke-width:0.26458332"
       xml:space="preserve"><tspan
         style="font-style:normal;font-variant:normal;font-weight:bold;font-stretch:normal;font-size:11.28888893px;font-family:sans-serif;-inkscape-font-specification:'sans-serif Bold';text-align:center;text-anchor:middle;stroke-width:0.26458332"
         y="160.17262"
         x="109.01379"
         id="tspan862"
         sodipodi:role="line">Step 2:</tspan><tspan
         id="tspan866"
         style="font-size:7.76111126px;text-align:center;text-anchor:middle;stroke-width:0.26458332"
         y="177.81151"
         x="109.01379"
         sodipodi:role="line">conformational</tspan><tspan
         style="font-size:7.76111126px;text-align:center;text-anchor:middle;stroke-width:0.26458332"
         y="195.45039"
         x="109.01379"
         sodipodi:role="line"
         id="tspan876">search</tspan><tspan
         id="tspan868"
         style="font-size:7.76111126px;text-align:center;text-anchor:middle;stroke-width:0.26458332"
         y="213.08929"
         x="109.01379"
         sodipodi:role="line">with</tspan><tspan
         id="tspan870"
         style="font-size:7.76111126px;text-align:center;text-anchor:middle;stroke-width:0.26458332"
         y="230.72818"
         x="109.01379"
         sodipodi:role="line">xTB</tspan></text>
    <text
       xml:space="preserve"
       style="font-style:normal;font-weight:normal;font-size:14.11111069px;line-height:1.25;font-family:sans-serif;letter-spacing:0px;word-spacing:0px;fill:#000000;fill-opacity:1;stroke:none;stroke-width:0.26458332"
       x="182.56796"
       y="126.00356"
       id="text888"><tspan
         sodipodi:role="line"
         id="tspan878"
         x="182.56796"
         y="126.00356"
         style="font-style:normal;font-variant:normal;font-weight:bold;font-stretch:normal;font-size:11.28888893px;font-family:sans-serif;-inkscape-font-specification:'sans-serif Bold';text-align:center;text-anchor:middle;stroke-width:0.26458332">Step 3.1:</tspan><tspan
         sodipodi:role="line"
         x="182.56796"
         y="143.64246"
         style="font-size:7.76111126px;text-align:center;text-anchor:middle;stroke-width:0.26458332"
         id="tspan903">calculation</tspan><tspan
         sodipodi:role="line"
         x="182.56796"
         y="161.28134"
         style="font-size:7.76111126px;text-align:center;text-anchor:middle;stroke-width:0.26458332"
         id="tspan915">with</tspan><tspan
         sodipodi:role="line"
         x="182.56796"
         y="178.92023"
         style="font-size:7.76111126px;text-align:center;text-anchor:middle;stroke-width:0.26458332"
         id="tspan917">QCxMS</tspan></text>
    <text
       id="text927"
       y="211.72751"
       x="182.56796"
       style="font-style:normal;font-weight:normal;font-size:14.11111069px;line-height:1.25;font-family:sans-serif;letter-spacing:0px;word-spacing:0px;fill:#000000;fill-opacity:1;stroke:none;stroke-width:0.26458332"
       xml:space="preserve"><tspan
         style="font-style:normal;font-variant:normal;font-weight:bold;font-stretch:normal;font-size:11.28888893px;font-family:sans-serif;-inkscape-font-specification:'sans-serif Bold';text-align:center;text-anchor:middle;stroke-width:0.26458332"
         y="211.72751"
         x="182.56796"
         id="tspan919"
         sodipodi:role="line">Step 3.2:</tspan><tspan
         id="tspan921"
         style="font-size:7.76111126px;text-align:center;text-anchor:middle;stroke-width:0.26458332"
         y="229.36639"
         x="182.56796"
         sodipodi:role="line">calculation</tspan><tspan
         id="tspan923"
         style="font-size:7.76111126px;text-align:center;text-anchor:middle;stroke-width:0.26458332"
         y="247.00528"
         x="182.56796"
         sodipodi:role="line">with</tspan><tspan
         id="tspan925"
         style="font-size:7.76111126px;text-align:center;text-anchor:middle;stroke-width:0.26458332"
         y="264.64417"
         x="182.56796"
         sodipodi:role="line">DissMD</tspan></text>
    <text
       xml:space="preserve"
       style="font-style:normal;font-weight:normal;font-size:14.11111069px;line-height:1.25;font-family:sans-serif;letter-spacing:0px;word-spacing:0px;fill:#000000;fill-opacity:1;stroke:none;stroke-width:0.26458332"
       x="254.5329"
       y="160.17262"
       id="text939"><tspan
         sodipodi:role="line"
         id="tspan929"
         x="254.5329"
         y="160.17262"
         style="font-style:normal;font-variant:normal;font-weight:bold;font-stretch:normal;font-size:11.28888893px;font-family:sans-serif;-inkscape-font-specification:'sans-serif Bold';text-align:center;text-anchor:middle;stroke-width:0.26458332">Step 4:</tspan><tspan
         sodipodi:role="line"
         x="254.5329"
         y="177.81151"
         style="font-size:7.76111126px;text-align:center;text-anchor:middle;stroke-width:0.26458332"
         id="tspan937">combining</tspan><tspan
         sodipodi:role="line"
         x="254.5329"
         y="195.45039"
         style="font-size:7.76111126px;text-align:center;text-anchor:middle;stroke-width:0.26458332"
         id="tspan950">the</tspan><tspan
         sodipodi:role="line"
         x="254.5329"
         y="213.08929"
         style="font-size:7.76111126px;text-align:center;text-anchor:middle;stroke-width:0.26458332"
         id="tspan952">theoretical</tspan><tspan
         sodipodi:role="line"
         x="254.5329"
         y="230.72818"
         style="font-size:7.76111126px;text-align:center;text-anchor:middle;stroke-width:0.26458332"
         id="tspan954">mass spectra</tspan></text>
    <path
       style="fill:none;stroke:#000000;stroke-width:3;stroke-linecap:round;stroke-linejoin:miter;stroke-miterlimit:4;stroke-dasharray:none;stroke-opacity:1;marker-end:url(#marker1268)"
       d="M 38.931546,140.51769 C 59.396859,114.36018 73.75207,110.36025 98.878561,137.87203"
       id="path956"
       inkscape:connector-curvature="0"
       sodipodi:nodetypes="cc" />
    <path
       sodipodi:nodetypes="cc"
       inkscape:connector-curvature="0"
       id="path1654"
       d="M 121.33036,140.51769 C 122.51888,114.36019 146.62588,84.279893 178.17797,106.5"
       style="fill:none;stroke:#000000;stroke-width:3;stroke-linecap:round;stroke-linejoin:miter;stroke-miterlimit:4;stroke-dasharray:none;stroke-opacity:1;marker-end:url(#marker1658)" />
    <path
       style="fill:none;stroke:#000000;stroke-width:3;stroke-linecap:round;stroke-linejoin:miter;stroke-miterlimit:4;stroke-dasharray:none;stroke-opacity:1;marker-end:url(#marker2708)"
       d="m 121.33036,243.83497 c 1.18852,26.15758 25.29552,56.23788 56.84761,34.01777"
       id="path2704"
       inkscape:connector-curvature="0"
       sodipodi:nodetypes="cc" />
    <path
       style="fill:none;stroke:#000000;stroke-width:3;stroke-linecap:round;stroke-linejoin:miter;stroke-miterlimit:4;stroke-dasharray:none;stroke-opacity:1;marker-start:url(#Arrow1Mstart)"
       d="m 252.7217,135.98198 c -1.18852,-26.1575 -34.74492,-50.946135 -58.73749,-26.83615"
       id="path4654"
       inkscape:connector-curvature="0"
       sodipodi:nodetypes="cc" />
    <path
       sodipodi:nodetypes="cc"
       inkscape:connector-curvature="0"
       id="path6126"
       d="m 252.7217,248.26353 c -1.18852,26.15751 -34.74492,50.94614 -58.73749,26.83616"
       style="fill:none;stroke:#000000;stroke-width:3;stroke-linecap:round;stroke-linejoin:miter;stroke-miterlimit:4;stroke-dasharray:none;stroke-opacity:1;marker-start:url(#marker6130)" />
  </g>
</svg>
